Waveforms/SiPM_20/DS425.CSV

Memory Length,4000,
Trigger Level,2.40000e+01,
Source,CH1,
Probe,1.0X,
Vertical Units,V,
Vertical Scale,1.00000e-01,
Vertical Position,-3.52000e-01,
Horizontal Units,S,
Horizontal Scale,1.00000e-07,
Horizontal Position,-1.6000000e-08,
Horizontal Mode,Main,
Sampling Period,1.00000e-09,
Firmware,V1.14,
Time, ,
Mode,Fast,
Waveform Data,
-4,
-4,
-4,
-4,
-3,
-4,
-3,
-5,
-4,
-4,
-5,
-4,
-3,
-4,
-3,
-4,
-4,
-5,
-5,
-3,
-3,
-4,
-3,
-5,
-5,
-4,
-4,
-3,
-3,
-4,
-3,
-5,
-4,
-3,
-4,
-3,
-3,
-5,
-3,
-5,
-4,
-5,
-5,
-4,
-3,
-4,
-3,
-5,
-5,
-5,
-5,
-3,
-3,
-4,
-3,
-3,
-4,
-3,
-4,
-3,
-3,
-5,
-4,
-5,
-4,
-4,
-5,
-4,
-3,
-4,
-3,
-4,
-4,
-4,
-5,
-4,
-3,
-4,
-2,
-4,
-4,
-4,
-4,
-3,
-3,
-5,
-3,
-5,
-5,
-4,
-5,
-3,
-3,
-4,
-3,
-5,
-4,
-4,
-4,
-4,
-3,
-5,
-3,
-5,
-4,
-4,
-5,
-3,
-2,
-4,
-3,
-5,
-5,
-5,
-5,
-3,
-3,
-4,
-3,
-3,
-4,
-4,
-5,
-4,
-3,
-4,
-3,
-5,
-4,
-4,
-5,
-3,
-3,
-4,
-3,
-5,
-4,
-4,
-4,
-3,
-3,
-4,
-3,
-4,
-5,
-4,
-4,
-3,
-2,
-4,
-3,
-5,
-4,
-4,
-5,
-3,
-3,
-4,
-3,
-5,
-4,
-4,
-5,
-4,
-3,
-4,
-3,
-5,
-5,
-4,
-5,
-4,
-3,
-4,
-3,
-5,
-4,
-4,
-5,
-3,
-3,
-5,
-3,
-5,
-5,
-5,
-6,
-4,
-3,
-5,
-4,
-5,
-4,
-4,
-4,
-3,
-3,
-4,
-3,
-4,
-4,
-4,
-5,
-3,
-3,
-4,
-3,
-4,
-4,
-4,
-5,
-3,
-3,
-3,
-2,
-4,
-4,
-4,
-5,
-3,
-3,
-4,
-3,
-5,
-4,
-4,
-5,
-3,
-3,
-4,
-3,
-4,
-4,
-4,
-4,
-2,
-2,
-4,
-3,
-5,
-4,
-4,
-4,
-2,
-2,
-4,
-3,
-4,
-4,
-4,
-4,
-3,
-3,
-4,
-3,
-5,
-4,
-4,
-5,
-3,
-3,
-4,
-3,
-4,
-4,
-4,
-4,
-3,
-3,
-5,
-3,
-5,
-5,
-4,
-4,
-3,
-3,
-3,
-2,
-4,
-4,
-4,
-4,
-3,
-3,
-4,
-3,
-4,
-4,
-4,
-5,
-3,
-3,
-4,
-3,
-4,
-4,
-3,
-4,
-3,
-3,
-4,
-3,
-4,
-4,
-4,
-4,
-2,
-2,
-3,
-2,
-3,
-4,
-3,
-4,
-3,
-3,
-4,
-3,
-5,
-4,
-4,
-4,
-2,
-2,
-4,
-3,
-4,
-4,
-4,
-4,
-3,
-3,
-4,
-3,
-4,
-4,
-4,
-4,
-3,
-3,
-4,
-3,
-3,
-4,
-4,
-4,
-2,
-2,
-4,
-3,
-4,
-3,
-3,
-4,
-3,
-2,
-4,
-3,
-4,
-4,
-3,
-4,
-2,
-2,
-3,
-2,
-3,
-3,
-3,
-4,
-2,
-2,
-4,
-3,
-4,
-4,
-3,
-4,
-2,
-2,
-3,
-2,
-3,
-4,
-4,
-4,
-3,
-2,
-3,
-2,
-3,
-3,
-3,
-4,
-2,
-2,
-3,
-2,
-3,
-4,
-3,
-4,
-2,
-2,
-3,
-2,
-3,
-3,
-4,
-4,
-3,
-2,
-4,
-3,
-4,
-4,
-3,
-4,
-2,
-2,
-4,
-2,
-4,
-4,
-3,
-4,
-2,
-1,
-3,
-2,
-4,
-4,
-3,
-4,
-2,
-2,
-3,
-2,
-3,
-4,
-3,
-4,
-3,
-2,
-4,
-3,
-3,
-4,
-4,
-5,
-2,
-1,
-3,
-2,
-4,
-4,
-3,
-4,
-2,
-2,
-3,
-2,
-3,
-4,
-4,
-4,
-2,
-2,
-3,
-2,
-3,
-4,
-4,
-4,
-3,
-3,
-3,
-2,
-3,
-4,
-4,
-4,
-2,
-2,
-3,
-2,
-3,
-4,
-4,
-4,
-3,
-2,
-3,
-3,
-3,
-4,
-3,
-4,
-3,
-3,
-4,
-2,
-3,
-3,
-4,
-4,
-3,
-3,
-4,
-3,
-4,
-4,
-4,
-4,
-3,
-2,
-3,
-2,
-3,
-4,
-3,
-4,
-2,
-2,
-3,
-2,
-3,
-4,
-3,
-4,
-3,
-3,
-3,
-2,
-3,
-3,
-3,
-4,
-3,
-2,
-3,
-2,
-3,
-3,
-3,
-4,
-2,
-2,
-2,
-1,
-3,
-4,
-3,
-4,
-3,
-3,
-3,
-2,
-3,
-3,
-3,
-4,
-2,
-2,
-4,
-2,
-3,
-3,
-3,
-4,
-2,
-1,
-3,
-2,
-3,
-4,
-3,
-4,
-3,
-2,
-4,
-3,
-3,
-3,
-3,
-4,
-3,
-3,
-3,
-2,
-4,
-4,
-3,
-4,
-3,
-2,
-3,
-2,
-3,
-4,
-3,
-4,
-2,
-2,
-3,
-2,
-4,
-4,
-3,
-4,
-3,
-3,
-4,
-3,
-4,
-4,
-3,
-4,
-2,
-2,
-4,
-3,
-4,
-3,
-4,
-4,
-3,
-2,
-3,
-2,
-4,
-4,
-3,
-4,
-2,
-2,
-4,
-3,
-3,
-4,
-4,
-4,
-3,
-3,
-3,
-2,
-3,
-3,
-3,
-4,
-3,
-2,
-3,
-2,
-3,
-4,
-3,
-4,
-2,
-1,
-3,
-2,
-4,
-4,
-4,
-4,
-3,
-3,
-3,
-2,
-3,
-4,
-4,
-4,
-3,
-3,
-4,
-2,
-3,
-3,
-4,
-4,
-3,
-2,
-3,
-2,
-5,
-5,
-3,
-4,
-3,
-3,
-3,
-2,
-3,
-3,
-3,
-4,
-3,
-3,
-4,
-3,
-3,
-3,
-4,
-4,
-2,
-2,
-3,
-2,
-3,
-3,
-3,
-3,
-2,
-2,
-4,
-3,
-4,
-4,
-4,
-4,
-3,
-2,
-3,
-2,
-4,
-3,
-3,
-4,
-2,
-2,
-4,
-3,
-3,
-4,
-4,
-4,
-3,
-2,
-4,
-3,
-3,
-4,
-4,
-4,
-2,
-2,
-3,
-2,
-4,
-4,
-4,
-4,
-3,
-2,
-4,
-3,
-3,
-4,
-4,
-4,
-3,
-2,
-3,
-2,
-3,
-4,
-4,
-4,
-2,
-3,
-4,
-3,
-3,
-4,
-3,
-4,
-3,
-3,
-3,
-2,
-3,
-4,
-4,
-4,
-3,
-3,
-4,
-3,
-4,
-4,
-3,
-4,
-2,
-2,
-4,
-3,
-5,
-4,
-4,
-4,
-2,
-2,
-3,
-2,
-3,
-3,
-3,
-4,
-3,
-2,
-3,
-2,
-4,
-4,
-3,
-4,
-2,
-2,
-3,
-2,
-3,
-4,
-3,
-4,
-3,
-2,
-3,
-2,
-4,
-4,
-4,
-4,
-3,
-2,
-3,
-2,
-4,
-4,
-3,
-4,
-2,
-2,
-3,
-2,
-3,
-4,
-4,
-4,
-3,
-3,
-4,
-3,
-3,
-4,
-4,
-4,
-2,
-2,
-4,
-3,
-3,
-3,
-3,
-4,
-3,
-2,
-4,
-2,
-3,
-3,
-3,
-4,
-2,
-2,
-3,
-2,
-4,
-4,
-3,
-4,
-3,
-3,
-4,
-3,
-3,
-4,
-3,
-4,
-2,
-2,
-3,
-2,
-3,
-4,
-4,
-4,
-3,
-2,
-3,
-2,
-4,
-4,
-4,
-4,
-3,
-2,
-3,
-2,
-3,
-3,
-3,
-4,
-3,
-3,
-3,
-2,
-5,
-4,
-3,
-4,
-3,
-3,
-4,
-3,
-4,
-5,
-3,
-4,
-3,
-3,
-4,
-3,
-3,
-4,
-4,
-4,
-3,
-3,
-3,
-2,
-3,
-4,
-4,
-4,
-2,
-2,
-4,
-3,
-4,
-4,
-4,
-5,
-4,
-3,
-4,
-3,
-4,
-4,
-4,
-5,
-2,
-2,
-4,
-3,
-3,
-4,
-4,
-4,
-3,
-2,
-3,
-2,
-3,
-3,
-3,
-4,
-3,
-3,
-3,
-2,
-3,
-4,
-4,
-4,
-3,
-3,
-4,
-3,
-4,
-4,
-3,
-4,
-3,
-2,
-3,
-2,
-3,
-4,
-4,
-5,
-3,
-3,
-4,
-3,
-5,
-4,
-4,
-4,
-3,
-2,
-3,
-2,
-4,
-4,
-3,
-4,
-3,
-2,
-3,
-2,
-3,
-4,
-4,
-4,
-3,
-2,
-4,
-3,
-5,
-5,
-4,
-5,
-3,
-3,
-5,
-3,
-5,
-4,
-4,
-4,
-4,
-3,
-4,
-3,
-4,
-5,
-3,
-4,
-3,
-3,
-3,
-2,
-4,
-4,
-4,
-4,
-3,
-3,
-4,
-2,
-3,
-4,
-4,
-5,
-3,
-3,
-4,
-3,
-4,
-4,
-4,
-4,
-3,
-3,
-4,
-3,
-4,
-4,
-4,
-4,
-3,
-2,
-4,
-3,
-4,
-4,
-4,
-4,
-3,
-3,
-4,
-3,
-5,
-4,
-4,
-4,
-3,
-3,
-4,
-3,
-3,
-4,
-4,
-5,
-3,
-3,
-4,
-3,
-4,
-4,
-4,
-4,
-2,
-2,
-3,
-2,
-4,
-4,
-3,
-4,
-3,
-3,
-3,
-2,
-4,
-4,
-4,
-4,
-3,
-3,
-4,
-3,
-3,
-4,
-4,
-4,
-3,
-3,
-4,
-3,
-4,
-4,
-4,
-5,
-3,
-3,
-4,
-3,
-5,
-5,
-4,
-4,
-2,
-2,
-4,
-3,
-4,
-4,
-4,
-5,
-3,
-3,
-5,
-3,
-4,
-4,
-4,
-4,
-2,
-2,
-4,
-3,
-4,
-4,
-4,
-4,
-3,
-3,
-4,
-3,
-4,
-4,
-4,
-4,
-4,
-3,
-4,
-3,
-4,
-4,
-4,
-5,
-3,
-3,
-4,
-3,
-4,
-4,
-4,
-5,
-3,
-2,
-3,
-2,
-4,
-4,
-4,
-4,
-3,
-2,
-4,
-3,
-4,
-4,
-4,
-4,
-3,
-3,
-4,
-3,
-4,
-3,
-3,
-4,
-3,
-3,
-4,
-3,
-4,
-4,
-3,
-4,
-3,
-3,
-4,
-3,
-4,
-4,
-3,
-4,
-3,
-3,
-4,
-3,
-4,
-4,
-4,
-4,
-3,
-3,
-3,
-2,
-4,
-4,
-4,
-4,
-3,
-3,
-4,
-3,
-4,
-4,
-4,
-5,
-3,
-2,
-3,
-2,
-4,
-4,
-4,
-4,
-3,
-3,
-4,
-3,
-5,
-4,
-4,
-5,
-3,
-3,
-4,
-3,
-3,
-3,
-3,
-4,
-3,
-3,
-4,
-3,
-3,
-4,
-4,
-4,
-3,
-3,
-4,
-3,
-5,
-5,
-4,
-4,
-3,
-3,
-4,
-3,
-4,
-4,
-4,
-4,
-4,
-3,
-4,
-3,
-5,
-4,
-4,
-4,
-3,
-3,
-4,
-3,
-4,
-4,
-5,
-5,
-3,
-3,
-4,
-3,
-4,
-4,
-4,
-4,
-3,
-3,
-4,
-3,
-4,
-4,
-4,
-5,
-4,
-3,
-5,
-3,
-5,
-4,
-4,
-5,
-4,
-3,
-4,
-3,
-5,
-5,
-4,
-5,
-3,
-3,
-5,
-3,
-4,
-4,
-4,
-5,
-3,
-2,
-4,
-3,
-5,
-4,
-4,
-4,
-4,
-3,
-5,
-3,
-5,
-4,
-4,
-5,
-3,
-3,
-4,
-3,
-5,
-4,
-4,
-4,
-3,
-3,
-3,
-2,
-4,
-4,
-4,
-4,
-3,
-3,
-3,
-2,
-5,
-5,
-4,
-4,
-4,
-3,
-4,
-3,
-4,
-4,
-3,
-4,
-3,
-3,
-4,
-3,
-4,
-4,
-4,
-4,
-3,
-3,
-4,
-3,
-4,
-4,
-4,
-4,
-3,
-3,
-4,
-3,
-4,
-4,
-4,
-5,
-4,
-3,
-4,
-3,
-4,
-4,
-4,
-5,
-3,
-2,
-4,
-3,
-3,
-4,
-4,
-4,
-3,
-2,
-4,
-3,
-5,
-4,
-4,
-4,
-3,
-3,
-4,
-3,
-4,
-4,
-4,
-4,
-3,
-3,
-4,
-3,
-4,
-4,
-4,
-4,
-3,
-3,
-4,
-3,
-4,
-5,
-3,
-4,
-3,
-3,
-4,
-3,
-4,
-4,
-4,
-4,
-4,
-3,
-4,
-3,
-4,
-4,
-4,
-5,
-3,
-3,
-4,
-3,
-4,
-4,
-3,
-4,
-3,
-3,
-4,
-3,
-4,
-4,
-4,
-5,
-3,
-2,
-4,
-3,
-4,
-4,
-4,
-5,
-4,
-3,
-5,
-3,
-4,
-4,
-4,
-4,
-3,
-3,
-4,
-3,
-4,
-4,
-4,
-4,
-3,
-3,
-3,
-2,
-4,
-4,
-4,
-4,
-4,
-3,
-5,
-3,
-5,
-4,
-4,
-4,
-3,
-3,
-4,
-3,
-5,
-4,
-4,
-5,
-4,
-3,
-4,
-3,
-4,
-4,
-4,
-5,
-3,
-3,
-4,
-3,
-5,
-4,
-4,
-5,
-4,
-3,
-4,
-3,
-5,
-4,
-4,
-4,
-4,
-3,
-4,
-3,
-4,
-4,
-4,
-4,
-4,
-3,
-4,
-3,
-5,
-4,
-4,
-4,
-3,
-3,
-4,
-3,
-3,
-4,
-5,
-5,
-4,
-3,
-4,
-3,
-5,
-4,
-4,
-5,
-3,
-3,
-4,
-3,
-4,
-4,
-4,
-5,
-3,
-3,
-4,
-3,
-5,
-5,
-5,
-5,
-4,
-3,
-4,
-3,
-4,
-4,
-4,
-4,
-3,
-3,
-4,
-3,
-4,
-4,
-4,
-4,
-4,
-3,
-4,
-3,
-5,
-4,
-4,
-4,
-3,
-2,
-4,
-3,
-4,
-4,
-4,
-4,
-3,
-3,
-4,
-3,
-4,
-4,
-4,
-4,
-3,
-2,
-4,
-3,
-4,
-4,
-4,
-4,
-3,
-3,
-4,
-3,
-5,
-4,
-4,
-5,
-3,
-3,
-4,
-3,
-5,
-5,
-4,
-4,
-3,
-3,
-4,
-3,
-4,
-4,
-4,
-5,
-3,
-3,
-5,
-3,
-5,
-4,
-3,
-4,
-3,
-3,
-4,
-3,
-4,
-4,
-4,
-5,
-4,
-3,
-4,
-3,
-5,
-4,
-4,
-4,
-3,
-3,
-4,
-3,
-5,
-5,
-4,
-4,
-3,
-3,
-4,
-3,
-4,
-4,
-4,
-4,
-4,
-3,
-4,
-3,
-5,
-5,
-4,
-4,
-3,
-3,
-5,
-3,
-5,
-4,
-5,
-5,
-4,
-4,
-5,
-4,
-4,
-4,
-4,
-5,
-3,
-3,
-4,
-3,
-5,
-5,
-5,
-5,
-4,
-3,
-4,
-3,
-5,
-4,
-4,
-5,
-3,
-3,
-4,
-3,
-5,
-5,
-4,
-5,
-3,
-3,
-4,
-3,
-5,
-4,
-4,
-5,
-3,
-3,
-4,
-3,
-4,
-4,
-4,
-5,
-4,
-3,
-4,
-3,
-5,
-4,
-4,
-5,
-3,
-3,
-4,
-3,
-4,
-4,
-4,
-5,
-3,
-3,
-5,
-3,
-5,
-4,
-4,
-4,
-3,
-3,
-4,
-3,
-5,
-5,
-4,
-5,
-3,
-3,
-4,
-3,
-5,
-5,
-4,
-4,
-3,
-2,
-4,
-3,
-4,
-4,
-4,
-4,
-3,
-2,
-4,
-3,
-5,
-4,
-4,
-5,
-4,
-3,
-4,
-3,
-5,
-4,
-4,
-4,
-4,
-3,
-4,
-3,
-4,
-4,
-4,
-4,
-3,
-3,
-4,
-3,
-5,
-5,
-4,
-4,
-3,
-3,
-5,
-3,
-5,
-4,
-4,
-5,
-3,
-3,
-4,
-3,
-4,
-3,
-4,
-5,
-4,
-3,
-5,
-3,
-4,
-4,
-4,
-4,
-3,
-3,
-4,
-3,
-4,
-4,
-4,
-4,
-3,
-3,
-4,
-3,
-5,
-4,
-5,
-5,
-4,
-3,
-5,
-3,
-5,
-5,
-5,
-5,
-4,
-3,
-5,
-4,
-5,
-5,
-4,
-5,
-4,
-4,
-6,
-5,
-5,
-5,
-5,
-5,
-4,
-3,
-5,
-4,
-5,
-5,
-5,
-6,
-4,
-4,
-5,
-4,
-5,
-5,
-5,
-5,
-4,
-3,
-5,
-3,
-5,
-4,
-4,
-4,
-3,
-3,
-5,
-3,
-5,
-5,
-4,
-4,
-3,
-3,
-4,
-3,
-2,
-2,
-2,
-2,
-2,
-1,
-2,
-1,
-2,
-2,
-1,
-1,
0,
1,
0,
1,
1,
2,
2,
2,
3,
4,
3,
5,
5,
5,
6,
6,
7,
7,
7,
9,
8,
9,
10,
10,
12,
12,
12,
13,
13,
13,
14,
14,
16,
17,
18,
19,
19,
20,
21,
21,
24,
24,
24,
25,
26,
27,
29,
30,
32,
32,
33,
34,
34,
35,
37,
37,
38,
38,
39,
40,
39,
39,
40,
40,
41,
41,
41,
41,
41,
41,
40,
40,
40,
40,
40,
41,
39,
39,
40,
40,
40,
39,
39,
39,
40,
40,
40,
40,
41,
41,
40,
41,
41,
41,
41,
41,
41,
41,
41,
42,
41,
42,
42,
42,
43,
43,
42,
43,
42,
42,
43,
43,
43,
43,
43,
44,
42,
43,
43,
42,
44,
45,
44,
45,
43,
44,
43,
43,
44,
45,
43,
43,
43,
44,
43,
42,
43,
43,
43,
44,
43,
43,
43,
42,
43,
43,
42,
44,
43,
43,
42,
42,
42,
42,
41,
42,
41,
42,
41,
40,
42,
42,
41,
41,
41,
42,
41,
41,
41,
40,
40,
41,
40,
40,
40,
40,
40,
40,
39,
40,
39,
39,
39,
38,
39,
39,
38,
38,
38,
38,
38,
38,
37,
37,
36,
37,
37,
37,
37,
36,
36,
37,
36,
36,
35,
35,
36,
35,
35,
35,
34,
35,
34,
35,
34,
34,
33,
33,
32,
33,
33,
33,
32,
32,
33,
32,
32,
32,
31,
32,
31,
31,
31,
32,
31,
32,
30,
30,
30,
30,
30,
30,
29,
30,
29,
28,
28,
28,
30,
30,
28,
29,
28,
28,
28,
27,
28,
29,
27,
28,
27,
27,
27,
26,
27,
27,
26,
27,
25,
25,
26,
26,
25,
25,
26,
27,
25,
25,
24,
24,
26,
26,
24,
25,
24,
24,
24,
24,
24,
24,
24,
25,
24,
25,
23,
23,
24,
24,
23,
24,
22,
22,
22,
22,
23,
23,
21,
22,
22,
22,
22,
22,
22,
22,
20,
21,
21,
20,
21,
21,
21,
21,
20,
21,
20,
20,
20,
20,
21,
21,
18,
19,
19,
19,
19,
18,
19,
19,
19,
19,
17,
18,
18,
18,
19,
19,
17,
18,
18,
18,
18,
18,
18,
18,
17,
18,
17,
17,
17,
16,
17,
17,
16,
17,
17,
17,
16,
16,
16,
16,
16,
17,
15,
15,
16,
16,
16,
17,
15,
16,
15,
15,
15,
15,
16,
17,
15,
16,
14,
14,
15,
14,
16,
16,
14,
15,
15,
15,
14,
14,
15,
15,
13,
14,
13,
13,
14,
13,
14,
15,
13,
14,
13,
14,
13,
12,
14,
14,
12,
13,
13,
13,
13,
12,
13,
13,
12,
13,
12,
12,
12,
12,
13,
13,
12,
12,
11,
12,
12,
11,
13,
13,
11,
12,
11,
11,
11,
10,
11,
11,
11,
12,
10,
10,
11,
10,
12,
12,
10,
11,
11,
11,
11,
10,
11,
11,
10,
11,
10,
10,
11,
10,
10,
10,
9,
10,
9,
9,
10,
10,
10,
10,
9,
9,
9,
9,
9,
8,
9,
9,
8,
9,
8,
8,
9,
8,
10,
10,
8,
9,
8,
8,
8,
7,
9,
9,
8,
9,
8,
8,
8,
8,
8,
8,
8,
9,
8,
8,
8,
7,
9,
9,
8,
8,
8,
8,
8,
7,
7,
7,
7,
7,
6,
7,
7,
6,
8,
8,
7,
8,
7,
8,
7,
6,
7,
7,
5,
6,
6,
6,
7,
6,
7,
7,
6,
7,
7,
7,
7,
6,
6,
6,
5,
6,
6,
6,
7,
6,
7,
7,
5,
6,
5,
5,
6,
5,
6,
6,
6,
6,
6,
6,
5,
5,
6,
6,
5,
6,
5,
5,
5,
5,
6,
6,
5,
6,
4,
4,
5,
4,
5,
5,
5,
6,
5,
5,
5,
4,
6,
6,
5,
5,
4,
4,
4,
4,
5,
5,
5,
6,
4,
4,
4,
4,
6,
6,
4,
5,
4,
4,
4,
3,
4,
5,
4,
5,
4,
4,
4,
3,
5,
5,
4,
5,
3,
4,
4,
3,
4,
4,
3,
5,
3,
3,
3,
3,
4,
5,
3,
5,
3,
3,
4,
3,
4,
4,
3,
4,
3,
4,
4,
3,
4,
4,
3,
4,
3,
3,
3,
3,
4,
5,
3,
4,
3,
3,
4,
3,
3,
3,
2,
4,
3,
3,
3,
3,
4,
4,
2,
3,
3,
3,
3,
3,
4,
4,
2,
3,
3,
3,
2,
2,
3,
3,
2,
3,
3,
3,
3,
2,
4,
4,
3,
4,
3,
3,
2,
2,
3,
3,
2,
3,
2,
2,
2,
2,
3,
3,
2,
3,
2,
2,
3,
2,
3,
3,
2,
3,
2,
2,
2,
2,
3,
3,
2,
3,
2,
2,
3,
2,
3,
3,
2,
3,
2,
2,
2,
2,
3,
3,
2,
3,
2,
2,
2,
2,
3,
3,
2,
3,
2,
2,
2,
2,
3,
3,
2,
3,
1,
1,
2,
2,
3,
3,
2,
3,
2,
2,
2,
2,
2,
2,
1,
2,
1,
2,
2,
2,
3,
3,
1,
2,
2,
2,
2,
2,
2,
2,
2,
3,
2,
2,
2,
2,
2,
2,
1,
2,
1,
1,
2,
2,
2,
2,
1,
2,
1,
1,
2,
2,
2,
2,
1,
2,
2,
2,
1,
1,
2,
2,
1,
2,
0,
0,
2,
2,
2,
2,
2,
3,
1,
2,
1,
0,
2,
2,
1,
2,
1,
1,
1,
0,
2,
3,
1,
2,
1,
1,
1,
0,
1,
1,
1,
2,
1,
1,
1,
0,
1,
1,
1,
2,
1,
1,
1,
1,
2,
2,
1,
2,
1,
1,
1,
0,
2,
2,
0,
1,
1,
1,
1,
0,
2,
2,
1,
2,
0,
0,
1,
1,
1,
1,
0,
1,
0,
1,
2,
2,
1,
1,
1,
2,
0,
0,
1,
0,
1,
1,
0,
1,
1,
1,
2,
1,
2,
2,
1,
2,
0,
0,
0,
0,
1,
1,
1,
2,
0,
0,
1,
0,
1,
1,
0,
1,
0,
0,
0,
0,
1,
1,
0,
1,
0,
0,
0,
0,
1,
2,
1,
2,
0,
0,
1,
0,
0,
0,
0,
1,
0,
1,
0,
0,
1,
1,
0,
1,
0,
0,
1,
0,
1,
1,
0,
1,
0,
0,
0,
0,
1,
1,
1,
2,
0,
0,
0,
0,
1,
1,
0,
1,
0,
0,
0,
0,
2,
2,
0,
1,
0,
0,
1,
0,
0,
1,
0,
1,
0,
0,
0,
0,
1,
1,
0,
1,
0,
0,
0,
0,
0,
1,
0,
1,
0,
0,
0,
-1,
1,
1,
0,
1,
-1,
-1,
0,
-1,
0,
0,
0,
1,
-1,
0,
0,
0,
0,
0,
0,
1,
0,
0,
0,
0,
1,
1,
0,
1,
-1,
-1,
0,
0,
0,
0,
0,
1,
-1,
-1,
0,
0,
0,
0,
-1,
0,
-1,
-1,
0,
-1,
0,
0,
-1,
0,
0,
0,
0,
-1,
0,
1,
0,
1,
0,
0,
-1,
-1,
0,
0,
-2,
-1,
-1,
-1,
0,
0,
1,
1,
-1,
0,
-1,
-1,
-1,
-1,
0,
0,
-2,
-1,
-1,
-1,
-1,
-1,
0,
0,
-2,
0,
-1,
-1,
-1,
-1,
0,
0,
-2,
0,
-2,
-2,
-2,
-2,
0,
0,
-1,
-1,
-1,
-1,
-1,
-1,
0,
0,
-2,
0,
-2,
-2,
-2,
-2,
0,
0,
-2,
-1,
-1,
-1,
-1,
-2,
0,
0,
-1,
0,
-1,
-1,
-1,
-2,
-1,
-1,
-1,
0,
-1,
-1,
-1,
-2,
0,
0,
-2,
0,
-1,
-1,
-1,
-2,
-1,
-1,
-2,
-1,
-1,
-1,
-2,
-2,
0,
0,
-2,
0,
-1,
-1,
-1,
-1,
0,
0,
-1,
0,
-2,
-2,
-1,
-2,
-1,
-1,
-2,
-1,
-2,
-2,
-2,
-2,
-1,
-1,
-2,
0,
-1,
-1,
-1,
-2,
-1,
-1,
-2,
-1,
-2,
-2,
-2,
-2,
-1,
-1,
-2,
0,
-1,
-1,
-1,
-2,
-1,
-1,
-2,
-1,
-2,
-2,
-2,
-2,
0,
0,
-2,
0,
-1,
-1,
-2,
-2,
-1,
-1,
-2,
0,
-2,
-2,
-2,
-2,
-1,
-1,
-2,
-1,
-2,
-2,
-2,
-2,
-1,
-1,
-2,
-1,
-2,
-3,
-2,
-2,
-1,
-1,
-1,
0,
-2,
-2,
-2,
-2,
-2,
-1,
-2,
-1,
-2,
-3,
-2,
-2,
-1,
-1,
-2,
-1,
-3,
-3,
-2,
-2,
-1,
-1,
-2,
-1,
-1,
-1,
-2,
-2,
-1,
-1,
-2,
-1,
-2,
-2,
-2,
-3,
-1,
-1,
-2,
-1,
-2,
-2,
-2,
-2,
-1,
0,
-3,
-2,
-2,
-2,
-1,
-2,
-1,
-1,
-2,
-1,
-2,
-2,
-2,
-2,
-2,
-1,
-2,
-1,
-2,
-2,
-2,
-2,
-1,
-1,
-2,
-1,
-2,
-2,
-2,
-2,
-1,
-1,
-2,
-1,
-3,
-3,
-3,
-3,
-2,
-1,
-2,
-1,
-2,
-2,
-1,
-2,
-1,
-1,
-2,
-1,
-2,
-2,
-2,
-2,
-1,
-1,
-2,
-1,
-3,
-3,
-2,
-2,
-1,
-1,
-2,
-1,
-2,
-2,
-2,
-2,
-1,
-1,
-2,
-1,
-2,
-3,
-3,
-3,
-2,
-2,
-3,
-2,
-3,
-3,
-2,
-2,
-1,
-1,
-2,
-1,
-2,
-2,
-2,
-2,
0,
0,
-2,
-1,
-3,
-3,
-3,
-4,
-2,
-1,
-2,
-1,
-2,
-2,
-2,
-2,
-1,
-1,
-2,
-1,
-2,
-3,
-2,
-2,
-1,
-1,
-2,
-1,
-2,
-2,
-3,
-4,
-2,
-1,
-2,
-1,
-2,
-2,
-2,
-2,
0,
0,
-2,
-1,
-2,
-3,
-3,
-4,
-2,
-2,
-2,
-1,
-2,
-2,
-2,
-2,
-2,
-1,
-2,
-1,
-3,
-3,
-2,
-3,
-2,
-2,
-2,
-1,
-3,
-3,
-2,
-3,
-2,
-2,
-3,
-2,
-2,
-2,
-2,
-3,
-1,
-1,
-3,
-2,
-3,
-4,
-2,
-2,
-1,
-1,
-2,
-1,
-2,
-2,
-2,
-2,
0,
0,
-3,
-2,
-3,
-4,
-2,
-2,
-1,
-1,
-2,
-1,
-3,
-3,
-3,
-4,
-2,
-1,
-3,
-2,
-2,
-2,
-2,
-3,
-2,
-1,
-3,
-2,
-2,
-2,
-2,
-2,
-1,
-1,
-2,
-1,
-3,
-3,
-3,
-4,
-2,
-1,
-2,
-1,
-2,
-2,
-2,
-2,
-1,
-1,
-3,
-2,
-3,
-3,
-3,
-4,
-3,
-3,
-2,
-1,
-2,
-2,
-2,
-2,
-2,
-2,
-3,
-2,
-2,
-2,
-2,
-2,
-1,
-1,
-3,
-2,
-3,
-3,
-3,
-4,
-3,
-3,
-3,
-2,
-3,
-3,
-3,
-3,
-2,
-1,
-3,
-2,
-2,
-2,
-3,
-4,
-2,
-3,
-3,
-2,
-3,
-4,
-2,
-2,
-2,
-2,
-3,
-2,
-3,
-3,
-3,
-4,
-2,
-2,
-3,
-2,
-2,
-2,
-2,
-2,
-2,
-1,
-2,
-1,
-3,
-3,
-3,
-4,
-2,
-2,
-3,
-2,
-3,
-3,
-3,
-4,
-1,
-1,
-3,
-2,
-3,
-4,
-3,
-3,
-1,
-1,
-3,
-2,
-3,
-3,
-3,
-4,
-2,
-2,
-3,
-2,
-3,
-3,
-3,
-4,
-2,
-2,
-3,
-2,
-3,
-3,
-3,
-4,
-2,
-1,
-2,
-1,
-2,
-2,
-2,
-2,
-2,
-2,
-3,
-2,
-3,
-4,
-3,
-4,
-2,
-2,
-3,
-2,
-3,
-4,
-3,
-3,
-2,
-2,
-3,
-2,
-3,
-3,
-2,
-2,
-2,
-2,
-3,
-2,
-3,
-3,
-3,
-4,
-3,
-3,
-3,
-2,
-3,
-4,
-3,
-4,
-2,
-2,
-3,
-2,
-3,
-3,
-3,
-3,
-3,
-3,
-3,
-2,
-3,
-3,
-2,
-2,
-2,
-2,
-3,
-2,
-3,
-3,
-2,
-2,
-2,
-2,
-4,
-3,
-3,
-3,
-3,
-3,
-2,
-2,
-3,
-2,
-3,
-4,
-4,
-4,
-3,
-2,
-3,
-2,
-4,
-4,
-4,
-4,
-3,
-3,
-4,
-3,
-4,
-4,
-4,
-4,
-2,
-2,
-4,
-3,
-4,
-4,
-4,
-4,
-2,
-2,
-3,
-2,
-3,
-3,
-3,
-3,
-3,
-3,
-3,
-2,
-4,
-3,
-3,
-4,
-3,
-3,
-4,
-3,
-2,
-2,
-3,
-4,
-2,
-2,
-4,
-3,
-4,
-4,
-3,
-4,
-2,
-2,
-4,
-3,
-4,
-4,
-4,
-4,
-2,
-2,
-3,
-2,
-3,
-3,
-3,
-4,
-3,
-2,
-3,
-2,
-3,
-3,
-3,
-4,
-2,
-2,
-3,
-2,
-3,
-3,
-4,
-5,
-3,
-2,
-3,
-2,
-3,
-3,
-3,
-4,
-2,
-1,
-3,
-2,
-3,
-3,
-3,
-4,
-1,
-1,
-3,
-2,
-4,
-4,
-3,
-4,
-2,
-2,
-3,
-2,
-4,
-4,
-4,
-4,
-3,
-3,
-4,
-3,
-3,
-4,
-4,
-4,
-4,
-3,
-4,
-3,
-3,
-3,
-4,
-4,
-3,
-3,
-3,
-2,
-3,
-4,
-4,
-4,
-3,
-3,
-4,
-3,
-4,
-4,
-4,
-5,
-3,
-3,
-4,
-3,
-4,
-4,
-3,
-4,
-2,
-2,
-4,
-3,
-4,
-4,
-4,
-4,
-2,
-2,
-3,
-2,
-3,
-4,
-3,
-4,
-3,
-3,
-3,
-2,
-3,
-4,
-4,
-4,
-3,
-3,
-4,
-3,
-5,
