Waveforms/SiPM_20/DS429.CSV

Memory Length,4000,
Trigger Level,2.40000e+01,
Source,CH1,
Probe,1.0X,
Vertical Units,V,
Vertical Scale,1.00000e-01,
Vertical Position,-3.52000e-01,
Horizontal Units,S,
Horizontal Scale,1.00000e-07,
Horizontal Position,-1.6000000e-08,
Horizontal Mode,Main,
Sampling Period,1.00000e-09,
Firmware,V1.14,
Time, ,
Mode,Fast,
Waveform Data,
-5,
-4,
-5,
-4,
-4,
-5,
-3,
-5,
-4,
-4,
-4,
-3,
-3,
-5,
-3,
-5,
-5,
-4,
-5,
-4,
-3,
-4,
-3,
-5,
-4,
-4,
-5,
-4,
-3,
-4,
-3,
-5,
-4,
-4,
-5,
-3,
-3,
-4,
-3,
-5,
-4,
-4,
-5,
-4,
-3,
-4,
-3,
-4,
-4,
-4,
-5,
-4,
-4,
-5,
-3,
-5,
-4,
-5,
-5,
-4,
-3,
-4,
-3,
-5,
-4,
-4,
-4,
-3,
-3,
-4,
-3,
-4,
-4,
-4,
-5,
-4,
-3,
-4,
-3,
-5,
-4,
-4,
-4,
-3,
-3,
-4,
-3,
-5,
-5,
-4,
-4,
-3,
-3,
-4,
-3,
-4,
-4,
-3,
-4,
-3,
-3,
-4,
-3,
-4,
-4,
-4,
-4,
-2,
-2,
-4,
-3,
-4,
-4,
-4,
-4,
-3,
-3,
-4,
-3,
-4,
-4,
-4,
-4,
-3,
-3,
-4,
-3,
-5,
-4,
-4,
-4,
-3,
-3,
-4,
-3,
-4,
-4,
-4,
-4,
-3,
-3,
-4,
-3,
-4,
-4,
-4,
-5,
-3,
-3,
-4,
-3,
-4,
-4,
-4,
-4,
-3,
-3,
-4,
-3,
-4,
-4,
-4,
-4,
-3,
-3,
-4,
-3,
-5,
-4,
-3,
-4,
-2,
-2,
-4,
-3,
-5,
-4,
-4,
-4,
-2,
-2,
-3,
-2,
-4,
-4,
-4,
-4,
-3,
-3,
-4,
-3,
-3,
-4,
-4,
-4,
-3,
-2,
-3,
-2,
-4,
-4,
-4,
-5,
-3,
-2,
-3,
-2,
-3,
-4,
-4,
-4,
-3,
-3,
-4,
-2,
-3,
-3,
-3,
-4,
-3,
-3,
-4,
-3,
-4,
-4,
-4,
-4,
-2,
-2,
-3,
-2,
-4,
-5,
-4,
-4,
-3,
-3,
-4,
-3,
-4,
-3,
-4,
-4,
-2,
-2,
-3,
-2,
-4,
-4,
-4,
-4,
-3,
-2,
-4,
-3,
-4,
-3,
-3,
-4,
-3,
-3,
-3,
-2,
-3,
-3,
-4,
-4,
-3,
-3,
-4,
-3,
-4,
-3,
-3,
-4,
-3,
-2,
-3,
-2,
-3,
-4,
-4,
-5,
-3,
-3,
-3,
-2,
-3,
-3,
-3,
-4,
-3,
-2,
-4,
-3,
-5,
-4,
-4,
-4,
-3,
-3,
-4,
-3,
-3,
-4,
-4,
-4,
-3,
-2,
-3,
-2,
-3,
-4,
-3,
-4,
-3,
-3,
-3,
-2,
-4,
-3,
-3,
-4,
-2,
-2,
-4,
-3,
-4,
-4,
-4,
-4,
-3,
-3,
-4,
-3,
-3,
-2,
-3,
-4,
-2,
-2,
-4,
-3,
-4,
-4,
-4,
-5,
-3,
-3,
-4,
-3,
-5,
-4,
-3,
-4,
-3,
-2,
-3,
-2,
-4,
-4,
-3,
-4,
-2,
-2,
-3,
-2,
-2,
-2,
-4,
-4,
-3,
-3,
-4,
-3,
-4,
-4,
-4,
-4,
-2,
-2,
-4,
-3,
-3,
-3,
-3,
-4,
-2,
-2,
-4,
-3,
-4,
-5,
-4,
-4,
-2,
-2,
-3,
-2,
-3,
-4,
-4,
-4,
-2,
-2,
-3,
-2,
-4,
-4,
-4,
-4,
-2,
-1,
-3,
-2,
-4,
-4,
-3,
-4,
-2,
-2,
-4,
-3,
-5,
-4,
-4,
-4,
-3,
-2,
-4,
-3,
-4,
-4,
-3,
-4,
-3,
-3,
-3,
-2,
-3,
-4,
-3,
-4,
-2,
-2,
-3,
-2,
-3,
-3,
-4,
-4,
-2,
-2,
-3,
-2,
-3,
-4,
-4,
-4,
-3,
-2,
-3,
-2,
-3,
-4,
-4,
-4,
-2,
-2,
-4,
-3,
-4,
-4,
-4,
-5,
-3,
-3,
-3,
-2,
-4,
-4,
-3,
-4,
-2,
-2,
-4,
-3,
-5,
-4,
-4,
-4,
-2,
-2,
-3,
-2,
-3,
-3,
-4,
-4,
-2,
-2,
-3,
-2,
-3,
-4,
-4,
-4,
-3,
-3,
-4,
-3,
-3,
-3,
-3,
-4,
-2,
-3,
-3,
-3,
-4,
-4,
-4,
-5,
-3,
-2,
-3,
-2,
-3,
-3,
-4,
-4,
-2,
-1,
-3,
-2,
-4,
-4,
-3,
-4,
-3,
-3,
-3,
-2,
-2,
-2,
-3,
-4,
-3,
-2,
-4,
-3,
-3,
-4,
-4,
-4,
-3,
-3,
-4,
-3,
-4,
-4,
-4,
-4,
-2,
-2,
-4,
-3,
-4,
-3,
-4,
-5,
-3,
-3,
-4,
-3,
-5,
-4,
-4,
-5,
-3,
-3,
-3,
-2,
-4,
-4,
-4,
-4,
-2,
-2,
-4,
-3,
-4,
-3,
-4,
-4,
-3,
-3,
-4,
-2,
-4,
-4,
-3,
-4,
-3,
-2,
-4,
-3,
-3,
-4,
-4,
-4,
-3,
-3,
-4,
-3,
-5,
-4,
-4,
-5,
-4,
-4,
-5,
-3,
-5,
-5,
-3,
-4,
-3,
-3,
-4,
-3,
-4,
-4,
-4,
-4,
-3,
-2,
-3,
-2,
-4,
-4,
-3,
-4,
-3,
-3,
-4,
-3,
-4,
-4,
-4,
-4,
-3,
-3,
-4,
-3,
-4,
-4,
-4,
-4,
-3,
-3,
-4,
-3,
-4,
-4,
-4,
-5,
-3,
-3,
-4,
-2,
-4,
-5,
-3,
-4,
-3,
-3,
-4,
-3,
-3,
-3,
-4,
-4,
-3,
-3,
-3,
-2,
-3,
-4,
-4,
-4,
-2,
-2,
-4,
-3,
-4,
-4,
-4,
-4,
-3,
-3,
-4,
-3,
-4,
-4,
-4,
-4,
-3,
-3,
-4,
-3,
-4,
-4,
-4,
-4,
-3,
-2,
-4,
-3,
-5,
-4,
-4,
-4,
-3,
-3,
-3,
-2,
-4,
-4,
-4,
-4,
-3,
-2,
-3,
-2,
-3,
-3,
-4,
-5,
-3,
-3,
-4,
-3,
-4,
-4,
-4,
-5,
-4,
-3,
-4,
-2,
-5,
-5,
-4,
-5,
-4,
-3,
-4,
-3,
-3,
-3,
-4,
-4,
-3,
-3,
-4,
-2,
-5,
-5,
-4,
-5,
-3,
-3,
-4,
-3,
-5,
-4,
-4,
-4,
-3,
-3,
-4,
-3,
-5,
-4,
-4,
-4,
-3,
-3,
-5,
-3,
-4,
-4,
-4,
-5,
-3,
-3,
-4,
-3,
-4,
-4,
-5,
-5,
-4,
-4,
-5,
-3,
-5,
-4,
-4,
-4,
-3,
-3,
-4,
-3,
-4,
-4,
-3,
-4,
-3,
-3,
-4,
-3,
-5,
-4,
-4,
-5,
-3,
-3,
-4,
-3,
-5,
-4,
-4,
-5,
-3,
-3,
-3,
-2,
-4,
-4,
-4,
-5,
-3,
-3,
-4,
-3,
-4,
-4,
-4,
-4,
-2,
-2,
-3,
-2,
-4,
-4,
-4,
-5,
-3,
-3,
-4,
-3,
-4,
-4,
-4,
-4,
-3,
-3,
-4,
-3,
-5,
-4,
-4,
-4,
-3,
-3,
-4,
-3,
-4,
-4,
-4,
-4,
-3,
-3,
-4,
-3,
-4,
-4,
-4,
-4,
-3,
-3,
-4,
-3,
-4,
-3,
-4,
-4,
-3,
-3,
-4,
-3,
-4,
-4,
-4,
-5,
-3,
-2,
-4,
-3,
-4,
-4,
-4,
-5,
-3,
-3,
-4,
-3,
-3,
-4,
-4,
-5,
-4,
-3,
-4,
-3,
-3,
-4,
-4,
-5,
-3,
-3,
-4,
-3,
-5,
-4,
-3,
-4,
-3,
-3,
-4,
-3,
-4,
-4,
-4,
-4,
-4,
-3,
-4,
-3,
-5,
-4,
-4,
-4,
-3,
-3,
-4,
-3,
-4,
-4,
-4,
-4,
-3,
-3,
-4,
-3,
-4,
-4,
-4,
-5,
-4,
-3,
-4,
-3,
-5,
-4,
-4,
-4,
-3,
-3,
-4,
-3,
-5,
-4,
-5,
-5,
-3,
-3,
-4,
-3,
-4,
-4,
-4,
-4,
-3,
-3,
-4,
-3,
-5,
-4,
-4,
-5,
-4,
-3,
-4,
-3,
-4,
-4,
-4,
-5,
-4,
-3,
-4,
-3,
-4,
-4,
-4,
-4,
-3,
-3,
-5,
-3,
-5,
-4,
-4,
-5,
-4,
-3,
-4,
-3,
-4,
-4,
-4,
-5,
-4,
-3,
-4,
-3,
-5,
-5,
-4,
-5,
-3,
-3,
-4,
-3,
-5,
-4,
-4,
-4,
-3,
-3,
-4,
-3,
-3,
-4,
-4,
-4,
-3,
-3,
-5,
-3,
-5,
-5,
-4,
-4,
-3,
-3,
-5,
-3,
-4,
-4,
-5,
-5,
-4,
-3,
-4,
-3,
-5,
-4,
-4,
-4,
-3,
-3,
-5,
-4,
-5,
-5,
-4,
-5,
-3,
-3,
-4,
-3,
-4,
-4,
-4,
-5,
-4,
-3,
-4,
-3,
-5,
-4,
-4,
-5,
-3,
-3,
-5,
-3,
-5,
-4,
-4,
-4,
-3,
-3,
-5,
-4,
-5,
-4,
-5,
-5,
-4,
-4,
-5,
-3,
-5,
-4,
-5,
-5,
-3,
-3,
-5,
-3,
-5,
-4,
-4,
-5,
-4,
-4,
-4,
-3,
-4,
-4,
-4,
-4,
-3,
-3,
-4,
-3,
-5,
-4,
-4,
-4,
-3,
-3,
-4,
-3,
-4,
-4,
-4,
-4,
-3,
-3,
-4,
-3,
-5,
-4,
-4,
-4,
-3,
-3,
-4,
-3,
-5,
-4,
-4,
-5,
-4,
-4,
-4,
-3,
-4,
-4,
-3,
-4,
-3,
-3,
-4,
-3,
-4,
-4,
-4,
-4,
-3,
-3,
-4,
-3,
-5,
-5,
-4,
-5,
-4,
-3,
-4,
-3,
-4,
-4,
-4,
-5,
-4,
-3,
-4,
-2,
-4,
-4,
-4,
-4,
-3,
-3,
-4,
-3,
-5,
-4,
-4,
-5,
-3,
-3,
-4,
-3,
-5,
-4,
-4,
-4,
-4,
-3,
-4,
-3,
-4,
-4,
-4,
-5,
-3,
-3,
-4,
-3,
-5,
-4,
-4,
-4,
-3,
-3,
-4,
-3,
-4,
-4,
-4,
-5,
-4,
-3,
-4,
-3,
-4,
-4,
-4,
-5,
-3,
-3,
-5,
-3,
-5,
-4,
-4,
-5,
-3,
-3,
-4,
-3,
-4,
-4,
-4,
-5,
-4,
-3,
-4,
-3,
-5,
-4,
-4,
-4,
-3,
-3,
-4,
-3,
-5,
-4,
-4,
-5,
-3,
-3,
-4,
-3,
-5,
-5,
-5,
-5,
-4,
-3,
-5,
-3,
-4,
-4,
-4,
-5,
-4,
-3,
-4,
-3,
-5,
-5,
-4,
-5,
-4,
-3,
-4,
-3,
-4,
-4,
-4,
-4,
-3,
-3,
-4,
-3,
-5,
-4,
-4,
-4,
-3,
-3,
-4,
-3,
-5,
-4,
-4,
-5,
-3,
-3,
-4,
-3,
-4,
-4,
-4,
-4,
-4,
-3,
-4,
-3,
-5,
-4,
-4,
-4,
-3,
-3,
-4,
-3,
-4,
-4,
-5,
-5,
-3,
-2,
-4,
-3,
-5,
-4,
-4,
-5,
-3,
-3,
-4,
-3,
-4,
-4,
-4,
-4,
-3,
-3,
-5,
-3,
-5,
-4,
-4,
-5,
-4,
-3,
-4,
-3,
-5,
-4,
-5,
-5,
-3,
-3,
-5,
-3,
-5,
-5,
-4,
-5,
-4,
-3,
-3,
-2,
-4,
-4,
-4,
-5,
-3,
-3,
-5,
-3,
-5,
-4,
-4,
-5,
-4,
-3,
-4,
-3,
-5,
-5,
-4,
-4,
-4,
-3,
-4,
-3,
-4,
-5,
-5,
-5,
-3,
-3,
-4,
-3,
-5,
-4,
-4,
-5,
-4,
-3,
-4,
-3,
-5,
-4,
-5,
-5,
-4,
-3,
-5,
-3,
-5,
-4,
-4,
-4,
-3,
-3,
-4,
-3,
-5,
-4,
-4,
-5,
-4,
-3,
-5,
-4,
-5,
-5,
-4,
-5,
-4,
-3,
-4,
-3,
-5,
-4,
-4,
-5,
-4,
-3,
-5,
-3,
-5,
-4,
-4,
-4,
-4,
-3,
-4,
-3,
-4,
-4,
-4,
-4,
-4,
-3,
-4,
-3,
-5,
-4,
-4,
-5,
-3,
-3,
-4,
-3,
-4,
-4,
-4,
-4,
-4,
-3,
-4,
-3,
-5,
-4,
-4,
-5,
-3,
-3,
-5,
-4,
-5,
-5,
-5,
-5,
-3,
-2,
-4,
-3,
-5,
-5,
-5,
-5,
-4,
-3,
-4,
-3,
-4,
-4,
-4,
-5,
-3,
-3,
-4,
-3,
-5,
-4,
-5,
-5,
-4,
-4,
-5,
-3,
-4,
-4,
-4,
-4,
-4,
-3,
-4,
-3,
-6,
-6,
-4,
-4,
-3,
-3,
-4,
-3,
-5,
-4,
-4,
-5,
-4,
-3,
-4,
-3,
-4,
-4,
-5,
-5,
-4,
-3,
-4,
-3,
-5,
-5,
-4,
-5,
-4,
-4,
-5,
-4,
-5,
-4,
-4,
-4,
-4,
-3,
-4,
-3,
-5,
-4,
-4,
-4,
-4,
-3,
-5,
-4,
-5,
-5,
-4,
-5,
-4,
-3,
-5,
-3,
-5,
-4,
-5,
-5,
-4,
-3,
-5,
-4,
-5,
-4,
-4,
-4,
-3,
-3,
-4,
-3,
-5,
-4,
-4,
-4,
-3,
-2,
-4,
-3,
-5,
-4,
-4,
-4,
-3,
-3,
-4,
-2,
-4,
-4,
-5,
-5,
-3,
-2,
-4,
-3,
-5,
-4,
-5,
-5,
-4,
-3,
-5,
-4,
-5,
-4,
-4,
-4,
-3,
-3,
-4,
-3,
-5,
-4,
-3,
-4,
-3,
-2,
-4,
-3,
-4,
-3,
-4,
-4,
-3,
-3,
-4,
-3,
-5,
-5,
-4,
-5,
-4,
-3,
-4,
-3,
-4,
-4,
-4,
-5,
-3,
-3,
-4,
-3,
-5,
-4,
-4,
-4,
-3,
-2,
-3,
-2,
-4,
-4,
-3,
-4,
-4,
-3,
-4,
-3,
-5,
-4,
-4,
-5,
-4,
-3,
-4,
-3,
-5,
-4,
-4,
-4,
-3,
-2,
-4,
-3,
-4,
-4,
-4,
-4,
-4,
-3,
-4,
-3,
-4,
-4,
-4,
-5,
-3,
-3,
-4,
-3,
-4,
-3,
-3,
-4,
-3,
-2,
-5,
-3,
-4,
-4,
-4,
-5,
-4,
-3,
-4,
-3,
-5,
-5,
-4,
-5,
-3,
-3,
-5,
-4,
-5,
-4,
-4,
-4,
-3,
-3,
-4,
-3,
-4,
-4,
-4,
-4,
-3,
-3,
-4,
-3,
-5,
-5,
-4,
-5,
-3,
-3,
-5,
-3,
-5,
-4,
-4,
-4,
-4,
-3,
-4,
-3,
-4,
-4,
-4,
-4,
-4,
-4,
-5,
-3,
-5,
-4,
-5,
-6,
-3,
-3,
-5,
-4,
-5,
-4,
-4,
-4,
-4,
-3,
-4,
-3,
-5,
-4,
-4,
-4,
-3,
-3,
-4,
-3,
-5,
-4,
-4,
-4,
-3,
-3,
-4,
-3,
-5,
-4,
-4,
-5,
-3,
-3,
-4,
-3,
-5,
-4,
-5,
-5,
-3,
-3,
-4,
-3,
-4,
-4,
-4,
-4,
-3,
-3,
-4,
-3,
-5,
-4,
-4,
-4,
-3,
-3,
-4,
-3,
-4,
-4,
-4,
-4,
-3,
-3,
-4,
-3,
-5,
-4,
-4,
-4,
-3,
-3,
-4,
-3,
-5,
-4,
-4,
-4,
-3,
-3,
-4,
-3,
-5,
-4,
-4,
-5,
-4,
-3,
-4,
-3,
-4,
-4,
-4,
-4,
-3,
-3,
-4,
-3,
-4,
-4,
-4,
-4,
-3,
-3,
-4,
-3,
-5,
-4,
-4,
-5,
-3,
-3,
-4,
-3,
-4,
-4,
-4,
-4,
-3,
-3,
-4,
-3,
-5,
-4,
-4,
-4,
-3,
-3,
-4,
-3,
-4,
-4,
-4,
-5,
-3,
-3,
-4,
-3,
-5,
-5,
-4,
-5,
-4,
-3,
-5,
-3,
-5,
-4,
-4,
-5,
-3,
-3,
-4,
-3,
-4,
-4,
-5,
-5,
-4,
-3,
-4,
-3,
-4,
-4,
-2,
-2,
-1,
-1,
-2,
-1,
-1,
-1,
-1,
-1,
1,
1,
1,
2,
1,
2,
3,
3,
5,
6,
5,
6,
7,
7,
8,
8,
11,
11,
11,
13,
13,
14,
16,
16,
18,
19,
20,
21,
23,
23,
25,
25,
29,
31,
33,
35,
38,
39,
42,
43,
46,
47,
49,
50,
50,
51,
52,
52,
55,
55,
54,
55,
56,
56,
56,
57,
58,
59,
56,
57,
57,
57,
58,
58,
57,
57,
58,
59,
58,
58,
60,
60,
61,
61,
61,
61,
61,
61,
62,
63,
64,
64,
63,
63,
64,
65,
65,
66,
65,
65,
66,
67,
67,
68,
68,
68,
68,
69,
68,
68,
68,
69,
69,
69,
69,
69,
69,
70,
70,
70,
70,
70,
71,
71,
70,
70,
70,
70,
71,
71,
71,
71,
70,
70,
70,
71,
70,
70,
71,
71,
70,
70,
70,
70,
70,
70,
70,
70,
69,
69,
69,
69,
67,
67,
67,
67,
67,
67,
66,
67,
67,
67,
66,
66,
65,
66,
65,
65,
65,
65,
65,
65,
63,
62,
62,
62,
62,
62,
62,
62,
61,
61,
60,
60,
60,
60,
60,
60,
58,
59,
57,
57,
58,
58,
57,
57,
57,
57,
56,
56,
55,
54,
55,
55,
54,
55,
54,
54,
53,
53,
53,
53,
52,
52,
50,
50,
51,
50,
51,
51,
49,
50,
50,
50,
49,
49,
49,
49,
48,
49,
47,
48,
47,
46,
47,
47,
46,
47,
47,
46,
45,
45,
45,
45,
45,
46,
44,
44,
44,
44,
44,
44,
42,
43,
42,
42,
42,
42,
42,
42,
41,
42,
41,
41,
40,
40,
41,
41,
40,
40,
39,
39,
39,
39,
40,
39,
39,
40,
39,
39,
38,
38,
39,
39,
37,
37,
37,
37,
37,
37,
37,
37,
36,
37,
36,
36,
36,
36,
36,
36,
35,
36,
36,
36,
36,
36,
34,
34,
33,
34,
33,
33,
34,
34,
33,
33,
34,
34,
33,
33,
33,
32,
34,
34,
32,
33,
32,
32,
32,
32,
32,
32,
31,
32,
31,
31,
32,
32,
32,
32,
31,
32,
30,
30,
30,
30,
30,
31,
29,
30,
30,
30,
29,
28,
29,
29,
28,
29,
28,
28,
28,
28,
29,
29,
28,
29,
27,
28,
27,
27,
28,
28,
26,
27,
26,
26,
26,
26,
26,
27,
26,
27,
25,
25,
25,
24,
26,
25,
24,
25,
24,
24,
24,
24,
25,
25,
24,
25,
23,
24,
24,
24,
25,
25,
23,
24,
23,
23,
23,
23,
23,
23,
22,
23,
22,
22,
23,
22,
23,
23,
22,
23,
22,
21,
22,
22,
22,
22,
21,
22,
21,
21,
21,
20,
21,
21,
19,
20,
20,
20,
19,
19,
20,
20,
19,
20,
19,
19,
19,
19,
21,
20,
18,
19,
19,
19,
18,
18,
19,
20,
20,
19,
17,
18,
18,
18,
19,
19,
18,
19,
17,
17,
18,
18,
17,
17,
16,
17,
17,
17,
17,
16,
17,
17,
16,
17,
17,
17,
17,
16,
17,
17,
15,
16,
15,
16,
15,
15,
17,
17,
16,
16,
15,
15,
15,
14,
16,
16,
15,
16,
14,
14,
15,
14,
15,
15,
14,
15,
14,
14,
15,
14,
15,
15,
14,
15,
14,
14,
13,
13,
14,
14,
14,
15,
13,
13,
14,
13,
14,
14,
13,
13,
12,
12,
12,
11,
13,
13,
12,
13,
12,
12,
13,
12,
13,
13,
12,
13,
12,
12,
12,
11,
13,
13,
12,
13,
11,
11,
11,
11,
13,
13,
10,
11,
11,
12,
11,
10,
11,
11,
10,
11,
11,
11,
11,
10,
11,
11,
10,
11,
10,
10,
10,
10,
9,
9,
10,
11,
10,
10,
9,
8,
10,
10,
10,
11,
9,
9,
10,
10,
10,
10,
9,
10,
9,
9,
9,
8,
9,
9,
8,
9,
8,
8,
8,
8,
9,
9,
8,
9,
8,
8,
9,
8,
9,
9,
8,
9,
8,
8,
8,
7,
9,
9,
8,
9,
8,
8,
8,
7,
8,
8,
7,
8,
8,
8,
8,
8,
8,
8,
7,
8,
7,
7,
7,
6,
8,
8,
7,
7,
6,
6,
7,
6,
7,
7,
6,
6,
6,
6,
7,
6,
7,
7,
6,
7,
5,
5,
6,
6,
6,
6,
6,
7,
6,
6,
7,
6,
7,
7,
5,
6,
6,
6,
7,
6,
7,
7,
5,
6,
5,
5,
4,
4,
5,
6,
5,
6,
5,
5,
6,
5,
7,
7,
5,
5,
4,
4,
5,
4,
5,
5,
5,
6,
4,
4,
4,
4,
5,
5,
5,
5,
4,
4,
4,
4,
5,
5,
5,
5,
4,
4,
4,
4,
4,
5,
4,
5,
4,
4,
4,
3,
4,
4,
3,
4,
4,
4,
4,
3,
4,
4,
3,
5,
4,
4,
3,
3,
4,
5,
2,
3,
3,
3,
3,
2,
4,
4,
3,
4,
3,
3,
3,
3,
4,
4,
3,
4,
3,
3,
3,
3,
4,
4,
2,
3,
2,
3,
3,
3,
4,
4,
2,
3,
2,
3,
2,
2,
2,
2,
2,
3,
2,
2,
2,
2,
3,
3,
2,
3,
2,
2,
2,
2,
3,
3,
1,
2,
2,
2,
2,
2,
3,
3,
2,
3,
2,
2,
2,
2,
2,
2,
1,
2,
1,
1,
1,
0,
2,
2,
2,
3,
2,
2,
2,
2,
2,
3,
1,
2,
1,
1,
1,
1,
2,
2,
1,
2,
1,
1,
1,
1,
2,
2,
1,
2,
0,
0,
0,
0,
1,
1,
1,
2,
0,
1,
1,
1,
1,
1,
1,
2,
1,
1,
1,
0,
1,
1,
0,
1,
0,
0,
0,
0,
0,
1,
0,
1,
0,
0,
1,
0,
1,
1,
1,
2,
1,
1,
1,
0,
2,
2,
1,
2,
0,
0,
1,
0,
1,
1,
0,
1,
0,
0,
1,
0,
1,
1,
0,
1,
0,
0,
1,
0,
1,
1,
0,
1,
0,
0,
0,
0,
1,
1,
1,
2,
0,
0,
0,
0,
1,
1,
0,
1,
-1,
0,
0,
0,
0,
1,
0,
1,
-1,
-1,
-1,
-1,
0,
0,
0,
1,
-1,
0,
0,
-1,
0,
0,
-1,
1,
0,
0,
0,
0,
0,
0,
-1,
1,
-1,
0,
0,
-1,
0,
1,
0,
1,
-1,
-1,
0,
0,
0,
0,
-1,
0,
-1,
-1,
-1,
-2,
-1,
-1,
-1,
0,
-1,
-1,
-1,
-1,
0,
0,
-1,
0,
-1,
-1,
-1,
-1,
0,
0,
-1,
0,
-1,
-1,
-1,
-2,
-1,
-1,
-1,
0,
-1,
-1,
0,
0,
0,
0,
0,
1,
-2,
-2,
-2,
-2,
-1,
-1,
-2,
0,
-1,
-1,
-1,
-2,
-1,
-1,
-2,
0,
-1,
-1,
-1,
-2,
-1,
-1,
-1,
0,
-2,
-2,
-2,
-2,
-1,
-1,
-2,
-1,
-1,
-1,
-1,
-2,
-1,
-1,
-2,
-1,
-3,
-3,
-2,
-2,
0,
0,
-2,
0,
-2,
-2,
-1,
-2,
-1,
-1,
-2,
-1,
-2,
-2,
-1,
-2,
-1,
-1,
-2,
-1,
-2,
-2,
-1,
-2,
-1,
-1,
-2,
-1,
-2,
-2,
-2,
-2,
0,
0,
-1,
-1,
-2,
-2,
-2,
-3,
-1,
-1,
-2,
0,
-2,
-3,
-2,
-2,
-1,
-1,
-2,
-1,
-2,
-2,
-2,
-2,
-1,
-1,
-2,
-1,
-2,
-2,
-2,
-2,
-1,
-1,
-2,
-1,
-2,
-2,
-1,
-2,
-1,
-1,
-2,
-1,
-2,
-2,
-2,
-2,
-1,
-1,
-2,
-1,
-1,
-1,
-2,
-3,
-2,
-2,
-2,
-1,
-2,
-2,
-2,
-2,
-1,
-1,
-2,
-1,
-3,
-3,
-2,
-2,
-1,
-1,
-3,
-1,
-2,
-2,
-2,
-2,
-2,
-1,
-2,
-1,
-2,
-2,
-2,
-2,
-1,
-1,
-2,
-1,
-3,
-4,
-2,
-2,
-2,
-1,
-2,
-1,
-2,
-2,
-3,
-4,
-1,
-1,
-3,
-2,
-2,
-2,
-2,
-3,
-2,
-2,
-2,
-1,
-3,
-3,
-3,
-3,
-2,
-1,
-3,
-2,
-3,
-3,
-2,
-2,
-1,
-1,
-2,
-1,
-2,
-2,
-2,
-2,
-2,
-2,
-2,
-1,
-2,
-3,
-2,
-2,
-2,
-1,
-3,
-2,
-3,
-4,
-3,
-3,
-2,
-1,
-3,
-2,
-2,
-2,
-3,
-3,
-2,
-2,
-3,
-2,
-2,
-2,
-3,
-3,
-2,
-2,
-3,
-2,
-3,
-4,
-3,
-4,
-2,
-1,
-3,
-2,
-3,
-3,
-3,
-4,
-2,
-3,
-3,
-2,
-3,
-3,
-2,
-2,
-2,
-2,
-3,
-2,
-3,
-3,
-3,
-4,
-2,
-2,
-3,
-2,
-2,
-2,
-3,
-4,
-2,
-2,
-3,
-2,
-3,
-3,
-3,
-3,
-2,
-1,
-3,
-2,
-3,
-3,
-2,
-2,
-2,
-2,
-3,
-2,
-3,
-4,
-3,
-4,
-2,
-2,
-3,
-2,
-3,
-4,
-4,
-4,
-2,
-2,
-2,
-1,
-3,
-3,
-3,
-4,
-2,
-1,
-3,
-2,
-3,
-3,
-4,
-4,
-2,
-2,
-4,
-3,
-3,
-4,
-3,
-4,
-2,
-2,
-3,
-2,
-3,
-3,
-3,
-4,
-2,
-2,
-3,
-2,
-3,
-3,
-3,
-4,
-2,
-1,
-3,
-2,
-4,
-4,
-3,
-4,
-2,
-2,
-3,
-2,
-3,
-4,
-4,
-4,
-2,
-2,
-3,
-2,
-3,
-3,
-3,
-4,
-2,
-2,
-3,
-2,
-4,
-4,
-3,
-4,
-2,
-2,
-4,
-3,
-4,
-4,
-4,
-4,
-2,
-2,
-3,
-2,
-3,
-4,
-3,
-4,
-2,
-2,
-3,
-2,
-3,
-4,
-4,
-4,
-2,
-1,
-3,
-2,
-3,
-3,
-4,
-4,
-3,
-2,
-2,
-1,
-3,
-3,
-4,
-4,
-3,
-2,
-4,
-3,
-3,
-3,
-4,
-4,
-2,
-2,
-4,
-3,
-4,
-4,
-2,
-2,
-2,
-2,
-3,
-2,
-3,
-3,
-4,
-4,
-3,
-2,
-4,
-3,
-3,
-4,
-4,
-4,
-2,
-2,
-3,
-2,
-4,
-4,
-3,
-4,
-2,
-2,
-3,
-2,
-4,
-4,
-4,
-4,
-3,
-3,
-4,
-3,
-5,
-4,
-4,
-4,
-3,
-2,
-4,
-3,
-4,
-4,
-4,
-4,
-2,
-2,
-4,
-3,
-4,
-4,
-4,
-4,
-3,
-2,
-4,
-3,
-5,
-4,
-4,
-4,
-2,
-2,
-4,
-3,
-4,
-4,
-4,
-4,
-4,
-3,
-4,
-3,
-4,
-4,
-4,
-5,
-3,
-2,
-4,
-3,
-5,
-4,
-4,
-4,
-3,
-3,
-4,
-3,
-4,
-4,
-4,
-4,
-3,
-2,
-4,
-3,
-5,
-4,
-4,
-4,
-2,
-2,
-3,
-2,
-4,
-4,
-4,
-4,
-3,
-3,
-4,
-3,
-3,
-4,
-4,
-4,
-4,
-3,
-3,
-2,
-4,
-4,
-3,
-4,
-3,
-2,
-3,
-2,
-4,
-4,
-3,
-4,
-3,
-2,
-4,
-3,
-4,
-4,
-4,
-4,
-3,
-3,
-4,
-3,
-3,
-3,
-4,
-4,
-2,
-1,
-3,
-2,
-3,
-3,
-4,
-4,
-3,
-3,
-4,
-3,
-5,
-5,
-4,
-5,
-3,
-2,
-3,
-2,
-4,
-4,
-4,
-4,
-3,
-2,
-4,
-3,
-4,
-4,
-3,
-4,
-3,
-2,
-3,
-2,
-4,
-4,
-4,
-4,
-3,
-3,
-3,
-2,
-4,
-4,
-4,
-4,
-3,
-3,
-3,
-2,
-4,
-4,
-4,
-5,
-3,
-3,
-4,
-3,
-3,
-3,
-4,
-4,
-2,
-1,
-3,
-2,
-5,
-4,
-4,
-4,
-3,
-2,
-3,
-2,
-4,
-3,
-3,
-4,
-3,
-3,
-4,
-3,
-4,
-4,
-4,
-4,
-3,
-3,
-4,
-3,
-5,
-4,
-4,
-4,
-3,
-2,
-3,
-2,
-3,
-4,
-4,
-4,
-3,
-3,
-3,
-2,
-4,
-4,
-4,
-4,
-4,
-3,
-4,
-3,
-3,
-3,
-4,
-4,
-2,
-2,
-4,
-3,
-5,
-4,
-4,
-4,
-3,
-2,
-3,
-2,
-3,
-4,
-3,
-3,
-2,
-3,
-3,
-2,
-3,
-3,
-4,
-4,
-3,
-2,
-4,
-3,
-4,
-3,
-3,
-4,
-3,
-2,
-3,
-2,
-4,
-4,
-4,
-4,
-2,
-2,
-4,
-3,
-3,
-4,
-3,
-4,
-3,
-3,
-3,
-2,
-3,
-4,
-4,
-4,
-3,
-2,
-4,
-3,
-4,
-4,
-4,
-4,
-2,
-2,
-3,
-2,
-3,
-4,
-4,
-5,
-3,
-3,
-4,
-2,
-4,
-4,
-4,
-4,
-2,
-2,
-3,
-2,
-2,
-2,
-3,
-4,
-3,
-2,
-3,
-2,
-5,
-5,
-3,
-4,
-3,
-2,
-3,
-2,
-3,
-3,
-3,
-4,
-2,
-2,
-3,
-2,
-3,
-4,
-3,
-4,
-3,
-3,
-4,
-3,
-4,
-4,
-3,
-4,
-2,
-1,
-3,
-2,
-4,
-4,
-4,
-4,
-3,
-3,
-4,
-3,
-4,
-4,
-4,
-4,
-2,
-1,
-3,
-2,
-3,
-4,
-4,
-4,
-3,
-3,
-3,
-2,
-3,
-3,
-4,
-4,
-3,
-3,
-4,
-3,
-5,
-4,
-4,
-4,
-2,
-2,
-3,
-2,
-3,
-3,
-4,
-4,
-3,
-3,
-4,
-3,
-4,
-4,
-4,
-4,
-3,
-3,
-4,
-3,
-4,
-4,
-3,
-4,
-3,
-2,
-4,
-3,
-3,
-3,
-4,
-4,
-2,
-2,
-4,
-3,
-4,
-4,
-4,
-4,
-2,
-2,
-4,
-3,
-4,
-4,
-4,
-5,
-3,
-3,
-4,
-3,
-4,
-4,
-4,
-5,
-4,
-3,
-4,
-3,
-5,
