Waveforms/SiPM_20/DS426.CSV

Memory Length,4000,
Trigger Level,2.40000e+01,
Source,CH1,
Probe,1.0X,
Vertical Units,V,
Vertical Scale,1.00000e-01,
Vertical Position,-3.52000e-01,
Horizontal Units,S,
Horizontal Scale,1.00000e-07,
Horizontal Position,-1.6000000e-08,
Horizontal Mode,Main,
Sampling Period,1.00000e-09,
Firmware,V1.14,
Time, ,
Mode,Fast,
Waveform Data,
-4,
-4,
-4,
-4,
-4,
-3,
-3,
-4,
-3,
-5,
-4,
-4,
-5,
-4,
-3,
-5,
-4,
-5,
-4,
-5,
-5,
-4,
-3,
-4,
-3,
-5,
-5,
-4,
-5,
-3,
-3,
-4,
-3,
-4,
-4,
-4,
-5,
-3,
-3,
-5,
-3,
-5,
-4,
-4,
-4,
-3,
-3,
-4,
-3,
-5,
-4,
-4,
-4,
-3,
-3,
-5,
-3,
-5,
-4,
-4,
-4,
-3,
-2,
-4,
-3,
-5,
-4,
-4,
-5,
-3,
-3,
-4,
-3,
-4,
-4,
-4,
-4,
-3,
-3,
-4,
-3,
-4,
-4,
-4,
-4,
-3,
-2,
-4,
-3,
-4,
-4,
-4,
-5,
-4,
-3,
-4,
-2,
-4,
-4,
-4,
-5,
-3,
-3,
-4,
-3,
-5,
-4,
-3,
-4,
-2,
-2,
-4,
-3,
-4,
-4,
-4,
-4,
-3,
-3,
-4,
-3,
-5,
-4,
-4,
-4,
-3,
-3,
-4,
-3,
-4,
-3,
-3,
-4,
-3,
-2,
-4,
-3,
-3,
-4,
-4,
-4,
-3,
-2,
-4,
-3,
-5,
-4,
-4,
-4,
-3,
-3,
-4,
-2,
-3,
-3,
-3,
-4,
-3,
-2,
-4,
-3,
-3,
-3,
-4,
-4,
-2,
-2,
-3,
-2,
-4,
-5,
-3,
-4,
-2,
-2,
-4,
-3,
-5,
-4,
-4,
-5,
-3,
-2,
-3,
-2,
-2,
-2,
-3,
-4,
-2,
-1,
-3,
-2,
-4,
-4,
-2,
-2,
-2,
-2,
-4,
-3,
-4,
-3,
-4,
-4,
-3,
-3,
-3,
-2,
-3,
-4,
-3,
-4,
-2,
-2,
-3,
-2,
-3,
-4,
-3,
-4,
-3,
-3,
-4,
-3,
-2,
-2,
-4,
-4,
-2,
-2,
-3,
-2,
-3,
-4,
-4,
-4,
-3,
-2,
-3,
-2,
-3,
-3,
-3,
-4,
-2,
-2,
-3,
-2,
-3,
-4,
-3,
-4,
-2,
-2,
-3,
-2,
-2,
-2,
-3,
-4,
-2,
-2,
-3,
-2,
-3,
-4,
-3,
-4,
-1,
-1,
-3,
-2,
-3,
-3,
-3,
-4,
-2,
-1,
-3,
-2,
-3,
-3,
-3,
-4,
-2,
-2,
-2,
-1,
-3,
-3,
-3,
-4,
-2,
-2,
-3,
-2,
-4,
-3,
-3,
-4,
-2,
-1,
-4,
-3,
-3,
-3,
-3,
-4,
-2,
-1,
-3,
-2,
-3,
-4,
-3,
-4,
-2,
-2,
-3,
-2,
-3,
-3,
-2,
-2,
-2,
-2,
-3,
-2,
-4,
-4,
-3,
-4,
-1,
-1,
-3,
-2,
-3,
-4,
-3,
-4,
-2,
-2,
-3,
-2,
-3,
-3,
-3,
-4,
-2,
-2,
-3,
-2,
-4,
-4,
-3,
-4,
-2,
-2,
-4,
-3,
-4,
-4,
-2,
-2,
-3,
-3,
-4,
-3,
-3,
-3,
-4,
-4,
-2,
-2,
-4,
-3,
-4,
-4,
-4,
-4,
-2,
-1,
-3,
-2,
-3,
-4,
-3,
-4,
-2,
-2,
-3,
-2,
-3,
-3,
-3,
-4,
-2,
-2,
-3,
-2,
-4,
-3,
-3,
-4,
-3,
-2,
-3,
-2,
-3,
-4,
-3,
-4,
-2,
-2,
-3,
-2,
-3,
-3,
-3,
-4,
-2,
-1,
-3,
-2,
-3,
-4,
-3,
-4,
-2,
-2,
-3,
-2,
-4,
-3,
-3,
-4,
-2,
-2,
-3,
-2,
-2,
-2,
-3,
-3,
-2,
-2,
-3,
-2,
-3,
-3,
-4,
-4,
-1,
-1,
-3,
-2,
-3,
-3,
-3,
-4,
-2,
-2,
-3,
-2,
-3,
-3,
-3,
-4,
-2,
-1,
-3,
-2,
-2,
-2,
-3,
-4,
-3,
-3,
-3,
-2,
-3,
-3,
-3,
-4,
-1,
-1,
-3,
-2,
-3,
-3,
-4,
-4,
-3,
-2,
-4,
-3,
-3,
-4,
-3,
-4,
-2,
-2,
-3,
-2,
-3,
-3,
-3,
-4,
-2,
-2,
-3,
-2,
-3,
-3,
-3,
-3,
-2,
-1,
-3,
-2,
-3,
-4,
-3,
-4,
-2,
-2,
-3,
-2,
-3,
-4,
-3,
-4,
-2,
-2,
-3,
-2,
-2,
-2,
-3,
-4,
-2,
-2,
-4,
-3,
-3,
-3,
-3,
-4,
-2,
-1,
-3,
-2,
-3,
-3,
-3,
-4,
-3,
-3,
-3,
-2,
-3,
-3,
-3,
-4,
-2,
-1,
-3,
-2,
-3,
-3,
-3,
-4,
-2,
-2,
-3,
-2,
-3,
-4,
-3,
-4,
-2,
-1,
-4,
-3,
-4,
-3,
-3,
-4,
-2,
-2,
-3,
-2,
-3,
-3,
-3,
-4,
-2,
-2,
-4,
-3,
-4,
-4,
-4,
-4,
-1,
-1,
-3,
-2,
-3,
-4,
-4,
-4,
-3,
-3,
-3,
-2,
-4,
-3,
-4,
-4,
-2,
-1,
-3,
-2,
-4,
-4,
-3,
-3,
-1,
-1,
-3,
-2,
-3,
-3,
-3,
-4,
-2,
-2,
-3,
-2,
-3,
-3,
-4,
-4,
-2,
-2,
-4,
-3,
-3,
-3,
-3,
-4,
-2,
-2,
-3,
-2,
-3,
-4,
-3,
-4,
-2,
-2,
-3,
-2,
-2,
-2,
-3,
-4,
-2,
-2,
-3,
-2,
-4,
-4,
-3,
-4,
-2,
-2,
-3,
-2,
-3,
-3,
-4,
-4,
-2,
-2,
-3,
-2,
-2,
-2,
-2,
-2,
-3,
-3,
-3,
-2,
-3,
-3,
-3,
-4,
-2,
-2,
-3,
-2,
-4,
-4,
-3,
-4,
-2,
-1,
-3,
-2,
-2,
-2,
-3,
-4,
-2,
-1,
-4,
-3,
-5,
-4,
-3,
-4,
-3,
-3,
-3,
-2,
-2,
-2,
-3,
-4,
-2,
-2,
-3,
-2,
-3,
-4,
-3,
-4,
-3,
-3,
-3,
-2,
-3,
-3,
-3,
-4,
-2,
-2,
-4,
-3,
-4,
-3,
-3,
-4,
-3,
-2,
-3,
-2,
-3,
-3,
-3,
-4,
-2,
-2,
-3,
-2,
-3,
-4,
-3,
-4,
-3,
-3,
-3,
-2,
-3,
-3,
-4,
-4,
-2,
-2,
-4,
-3,
-3,
-4,
-3,
-4,
-2,
-2,
-4,
-3,
-4,
-4,
-4,
-4,
-2,
-2,
-4,
-3,
-5,
-4,
-4,
-4,
-3,
-3,
-4,
-3,
-4,
-4,
-3,
-4,
-4,
-3,
-4,
-3,
-3,
-4,
-3,
-4,
-3,
-3,
-3,
-2,
-4,
-4,
-3,
-4,
-3,
-2,
-3,
-2,
-4,
-4,
-3,
-4,
-3,
-3,
-3,
-2,
-4,
-3,
-3,
-4,
-2,
-2,
-4,
-3,
-3,
-3,
-4,
-4,
-3,
-3,
-4,
-3,
-3,
-4,
-4,
-4,
-3,
-3,
-4,
-3,
-5,
-5,
-4,
-4,
-3,
-3,
-4,
-3,
-4,
-3,
-3,
-4,
-3,
-2,
-3,
-2,
-3,
-4,
-4,
-4,
-3,
-2,
-4,
-3,
-4,
-4,
-3,
-4,
-2,
-2,
-3,
-2,
-4,
-4,
-3,
-4,
-4,
-3,
-4,
-3,
-4,
-4,
-4,
-4,
-2,
-2,
-4,
-3,
-5,
-5,
-4,
-4,
-3,
-3,
-3,
-2,
-4,
-4,
-4,
-4,
-3,
-2,
-4,
-3,
-5,
-4,
-4,
-4,
-3,
-2,
-4,
-3,
-4,
-3,
-4,
-5,
-3,
-2,
-3,
-2,
-4,
-4,
-4,
-4,
-3,
-3,
-3,
-2,
-3,
-3,
-4,
-5,
-2,
-2,
-3,
-2,
-4,
-5,
-4,
-5,
-3,
-2,
-4,
-3,
-4,
-4,
-3,
-4,
-2,
-2,
-4,
-3,
-4,
-4,
-3,
-4,
-3,
-3,
-4,
-3,
-5,
-4,
-3,
-4,
-3,
-3,
-4,
-3,
-4,
-4,
-4,
-5,
-3,
-3,
-3,
-2,
-3,
-4,
-4,
-4,
-3,
-3,
-4,
-3,
-4,
-4,
-3,
-4,
-3,
-3,
-4,
-3,
-3,
-3,
-3,
-4,
-3,
-3,
-4,
-3,
-4,
-4,
-3,
-4,
-3,
-3,
-4,
-2,
-4,
-4,
-3,
-4,
-3,
-3,
-4,
-3,
-4,
-4,
-4,
-4,
-3,
-2,
-4,
-3,
-4,
-4,
-3,
-4,
-2,
-2,
-4,
-3,
-4,
-4,
-4,
-4,
-3,
-3,
-3,
-2,
-4,
-4,
-4,
-5,
-3,
-3,
-4,
-3,
-3,
-4,
-4,
-4,
-3,
-3,
-4,
-3,
-4,
-4,
-4,
-5,
-3,
-3,
-4,
-3,
-5,
-4,
-3,
-4,
-2,
-2,
-4,
-3,
-4,
-4,
-3,
-4,
-3,
-3,
-4,
-3,
-4,
-4,
-3,
-4,
-3,
-3,
-4,
-3,
-4,
-4,
-3,
-4,
-2,
-2,
-4,
-3,
-4,
-4,
-4,
-4,
-4,
-3,
-4,
-3,
-4,
-4,
-2,
-2,
-3,
-3,
-4,
-3,
-3,
-3,
-4,
-4,
-3,
-3,
-4,
-3,
-4,
-4,
-4,
-4,
-3,
-3,
-4,
-3,
-4,
-4,
-3,
-4,
-3,
-2,
-4,
-3,
-4,
-3,
-4,
-4,
-3,
-3,
-4,
-3,
-4,
-4,
-4,
-4,
-3,
-3,
-4,
-3,
-3,
-4,
-4,
-4,
-3,
-3,
-4,
-3,
-4,
-4,
-4,
-4,
-3,
-2,
-3,
-2,
-5,
-5,
-4,
-5,
-3,
-2,
-4,
-3,
-5,
-4,
-4,
-5,
-3,
-3,
-4,
-3,
-4,
-4,
-4,
-4,
-3,
-3,
-4,
-3,
-4,
-4,
-4,
-5,
-3,
-3,
-4,
-3,
-4,
-4,
-3,
-4,
-3,
-3,
-4,
-3,
-5,
-4,
-4,
-4,
-3,
-3,
-4,
-3,
-5,
-4,
-3,
-4,
-3,
-3,
-4,
-3,
-4,
-4,
-4,
-4,
-3,
-3,
-4,
-3,
-4,
-4,
-4,
-4,
-3,
-3,
-4,
-3,
-4,
-4,
-4,
-4,
-2,
-2,
-4,
-3,
-4,
-4,
-4,
-4,
-3,
-3,
-4,
-3,
-4,
-4,
-5,
-5,
-3,
-3,
-4,
-3,
-4,
-4,
-4,
-5,
-3,
-3,
-3,
-2,
-4,
-4,
-4,
-4,
-3,
-3,
-4,
-3,
-4,
-4,
-3,
-4,
-3,
-3,
-3,
-2,
-4,
-4,
-4,
-4,
-3,
-3,
-4,
-3,
-4,
-4,
-4,
-4,
-2,
-2,
-4,
-3,
-4,
-3,
-4,
-4,
-3,
-3,
-4,
-3,
-4,
-4,
-4,
-5,
-4,
-3,
-4,
-3,
-5,
-4,
-4,
-4,
-3,
-3,
-4,
-3,
-4,
-4,
-4,
-4,
-3,
-3,
-4,
-3,
-4,
-4,
-4,
-4,
-3,
-2,
-4,
-3,
-4,
-4,
-4,
-4,
-3,
-3,
-4,
-3,
-4,
-4,
-4,
-4,
-4,
-3,
-4,
-3,
-4,
-4,
-4,
-4,
-2,
-2,
-4,
-3,
-5,
-4,
-4,
-4,
-3,
-2,
-4,
-3,
-5,
-4,
-4,
-5,
-3,
-3,
-4,
-3,
-4,
-4,
-3,
-4,
-3,
-3,
-4,
-3,
-4,
-4,
-4,
-4,
-3,
-3,
-3,
-2,
-4,
-4,
-4,
-4,
-3,
-3,
-4,
-3,
-4,
-4,
-4,
-5,
-3,
-3,
-3,
-2,
-4,
-3,
-3,
-4,
-3,
-3,
-4,
-3,
-4,
-4,
-4,
-4,
-3,
-3,
-3,
-2,
-4,
-4,
-4,
-4,
-3,
-3,
-4,
-3,
-4,
-4,
-4,
-4,
-3,
-3,
-4,
-3,
-4,
-4,
-4,
-4,
-3,
-3,
-4,
-3,
-5,
-4,
-4,
-5,
-3,
-3,
-4,
-3,
-4,
-4,
-4,
-4,
-3,
-3,
-4,
-3,
-5,
-4,
-4,
-4,
-2,
-2,
-4,
-3,
-4,
-4,
-4,
-5,
-3,
-3,
-4,
-3,
-4,
-4,
-4,
-5,
-4,
-3,
-4,
-3,
-5,
-4,
-4,
-4,
-3,
-3,
-5,
-3,
-4,
-4,
-4,
-4,
-3,
-3,
-4,
-3,
-5,
-4,
-4,
-5,
-3,
-3,
-4,
-3,
-4,
-4,
-4,
-5,
-3,
-3,
-4,
-3,
-5,
-4,
-4,
-5,
-4,
-3,
-4,
-3,
-4,
-4,
-4,
-5,
-3,
-3,
-4,
-3,
-4,
-4,
-4,
-4,
-4,
-3,
-4,
-3,
-4,
-4,
-4,
-4,
-3,
-3,
-4,
-3,
-4,
-4,
-4,
-4,
-3,
-2,
-4,
-3,
-5,
-4,
-4,
-4,
-3,
-3,
-5,
-3,
-4,
-4,
-5,
-5,
-4,
-4,
-4,
-3,
-4,
-4,
-4,
-4,
-4,
-3,
-4,
-3,
-4,
-4,
-4,
-4,
-3,
-3,
-4,
-3,
-5,
-5,
-4,
-4,
-4,
-3,
-4,
-3,
-4,
-4,
-4,
-5,
-3,
-3,
-4,
-3,
-4,
-5,
-4,
-4,
-3,
-3,
-4,
-3,
-5,
-4,
-4,
-5,
-4,
-3,
-4,
-3,
-4,
-4,
-4,
-5,
-3,
-3,
-4,
-3,
-5,
-4,
-4,
-4,
-3,
-3,
-4,
-3,
-3,
-4,
-4,
-5,
-4,
-3,
-4,
-3,
-5,
-4,
-5,
-5,
-4,
-3,
-4,
-3,
-4,
-4,
-4,
-5,
-3,
-3,
-4,
-3,
-4,
-4,
-4,
-4,
-3,
-2,
-4,
-3,
-4,
-4,
-4,
-5,
-3,
-3,
-4,
-3,
-5,
-4,
-4,
-5,
-4,
-3,
-4,
-3,
-5,
-4,
-5,
-5,
-3,
-3,
-4,
-3,
-4,
-4,
-4,
-5,
-3,
-3,
-4,
-3,
-5,
-5,
-4,
-5,
-3,
-3,
-4,
-3,
-5,
-4,
-4,
-5,
-3,
-3,
-4,
-3,
-5,
-4,
-3,
-4,
-3,
-3,
-4,
-3,
-4,
-4,
-4,
-5,
-3,
-3,
-4,
-3,
-4,
-4,
-4,
-4,
-3,
-3,
-4,
-3,
-5,
-4,
-4,
-5,
-3,
-3,
-5,
-3,
-5,
-5,
-4,
-4,
-3,
-3,
-4,
-3,
-5,
-4,
-4,
-5,
-3,
-3,
-5,
-3,
-4,
-4,
-4,
-4,
-3,
-3,
-4,
-3,
-5,
-5,
-4,
-5,
-4,
-3,
-4,
-3,
-5,
-4,
-4,
-4,
-3,
-3,
-4,
-3,
-5,
-4,
-5,
-5,
-4,
-3,
-5,
-3,
-5,
-5,
-4,
-4,
-3,
-3,
-4,
-3,
-4,
-4,
-5,
-5,
-4,
-3,
-4,
-3,
-5,
-4,
-4,
-5,
-3,
-3,
-5,
-3,
-5,
-5,
-4,
-5,
-4,
-3,
-4,
-3,
-5,
-4,
-4,
-5,
-3,
-3,
-4,
-3,
-4,
-4,
-4,
-5,
-3,
-3,
-5,
-4,
-5,
-4,
-4,
-4,
-3,
-3,
-4,
-3,
-4,
-4,
-4,
-4,
-3,
-3,
-4,
-3,
-5,
-5,
-4,
-5,
-3,
-3,
-4,
-3,
-5,
-4,
-4,
-4,
-2,
-2,
-4,
-2,
-4,
-4,
-4,
-4,
-4,
-4,
-5,
-3,
-5,
-4,
-4,
-4,
-2,
-2,
-4,
-3,
-4,
-4,
-4,
-4,
-3,
-3,
-4,
-3,
-4,
-4,
-4,
-5,
-3,
-3,
-4,
-3,
-5,
-5,
-4,
-4,
-3,
-3,
-4,
-3,
-4,
-4,
-4,
-5,
-4,
-3,
-4,
-3,
-5,
-4,
-4,
-4,
-3,
-3,
-4,
-3,
-4,
-4,
-4,
-5,
-4,
-3,
-4,
-3,
-5,
-4,
-5,
-6,
-4,
-4,
-6,
-5,
-5,
-5,
-5,
-6,
-4,
-3,
-6,
-4,
-5,
-5,
-5,
-5,
-4,
-3,
-4,
-3,
-3,
-4,
-3,
-4,
-1,
-1,
-3,
-2,
-1,
-1,
0,
0,
0,
1,
1,
2,
2,
3,
4,
4,
6,
7,
7,
8,
9,
10,
12,
12,
14,
15,
17,
18,
19,
20,
22,
22,
26,
27,
29,
30,
33,
35,
39,
40,
45,
47,
50,
51,
55,
56,
59,
60,
61,
62,
62,
63,
64,
65,
66,
66,
66,
66,
67,
68,
68,
69,
69,
70,
70,
70,
71,
71,
70,
71,
72,
72,
73,
72,
73,
74,
75,
76,
77,
77,
78,
77,
77,
78,
78,
78,
81,
82,
81,
81,
81,
82,
83,
84,
84,
85,
85,
85,
85,
86,
86,
86,
86,
86,
87,
87,
87,
88,
88,
88,
88,
88,
89,
89,
89,
90,
90,
91,
90,
90,
89,
89,
89,
89,
89,
89,
90,
90,
89,
89,
89,
89,
88,
88,
88,
88,
87,
87,
88,
88,
86,
86,
87,
87,
87,
86,
84,
85,
85,
85,
84,
84,
85,
84,
83,
83,
83,
83,
82,
82,
81,
81,
80,
81,
80,
80,
79,
78,
78,
78,
77,
77,
77,
77,
77,
78,
75,
75,
74,
74,
73,
73,
72,
72,
73,
72,
71,
71,
72,
72,
68,
68,
68,
68,
68,
68,
67,
68,
66,
66,
66,
66,
65,
65,
63,
63,
64,
64,
65,
65,
63,
63,
62,
62,
61,
60,
60,
61,
60,
60,
58,
58,
59,
59,
58,
58,
57,
58,
56,
56,
55,
55,
56,
56,
54,
55,
54,
54,
54,
54,
54,
54,
52,
53,
52,
52,
51,
51,
53,
53,
51,
51,
51,
52,
50,
50,
50,
50,
49,
49,
48,
48,
48,
48,
49,
49,
47,
49,
47,
47,
48,
48,
48,
48,
46,
47,
45,
45,
46,
46,
46,
46,
45,
46,
45,
45,
44,
44,
44,
44,
44,
45,
43,
43,
43,
42,
43,
43,
42,
43,
43,
43,
42,
42,
42,
42,
41,
42,
41,
42,
41,
41,
41,
41,
41,
41,
40,
40,
40,
40,
40,
40,
39,
39,
39,
39,
39,
38,
39,
39,
37,
38,
39,
39,
38,
38,
39,
39,
37,
38,
37,
37,
38,
38,
37,
37,
37,
37,
37,
37,
37,
36,
36,
37,
35,
35,
35,
35,
36,
36,
36,
36,
34,
35,
34,
34,
34,
34,
34,
34,
34,
35,
33,
34,
33,
32,
34,
34,
33,
33,
32,
32,
33,
32,
33,
33,
32,
33,
32,
32,
32,
32,
31,
31,
30,
31,
30,
30,
30,
30,
30,
30,
29,
30,
29,
29,
29,
29,
29,
29,
28,
29,
28,
28,
28,
27,
28,
29,
27,
28,
27,
28,
27,
27,
28,
28,
27,
28,
26,
26,
26,
26,
27,
27,
26,
27,
26,
26,
26,
26,
27,
27,
26,
27,
25,
25,
25,
25,
25,
25,
24,
25,
24,
25,
24,
24,
24,
24,
25,
26,
23,
23,
24,
23,
23,
23,
23,
24,
22,
22,
23,
22,
23,
23,
22,
23,
22,
22,
22,
22,
22,
22,
21,
22,
22,
21,
22,
22,
22,
22,
21,
21,
21,
21,
20,
20,
21,
21,
20,
21,
20,
20,
20,
20,
20,
21,
19,
20,
20,
20,
19,
19,
21,
21,
20,
20,
18,
19,
18,
18,
19,
20,
18,
19,
18,
19,
18,
18,
19,
19,
17,
19,
19,
19,
18,
17,
17,
17,
17,
17,
16,
17,
18,
18,
18,
18,
16,
17,
17,
17,
17,
16,
17,
17,
16,
17,
16,
16,
16,
15,
17,
17,
16,
17,
15,
15,
15,
14,
16,
16,
14,
15,
14,
14,
14,
14,
15,
15,
14,
16,
14,
14,
15,
14,
15,
15,
13,
14,
14,
15,
15,
14,
14,
14,
13,
14,
13,
13,
14,
14,
14,
14,
12,
13,
12,
12,
14,
13,
15,
15,
13,
13,
12,
13,
13,
12,
14,
15,
13,
14,
13,
12,
12,
11,
13,
14,
12,
13,
12,
12,
12,
12,
12,
12,
11,
12,
11,
12,
11,
11,
11,
11,
10,
11,
11,
11,
11,
11,
11,
11,
10,
11,
10,
10,
11,
10,
11,
11,
10,
11,
9,
9,
10,
10,
11,
11,
9,
10,
10,
10,
10,
10,
9,
9,
9,
10,
9,
9,
9,
8,
10,
11,
9,
10,
9,
9,
9,
9,
9,
9,
8,
9,
8,
9,
9,
8,
9,
9,
8,
9,
8,
8,
8,
7,
9,
8,
8,
8,
7,
8,
8,
7,
8,
8,
7,
7,
6,
6,
7,
6,
8,
8,
7,
8,
7,
7,
7,
7,
8,
8,
7,
7,
6,
6,
7,
6,
7,
7,
6,
7,
6,
6,
7,
6,
7,
7,
6,
7,
6,
6,
7,
6,
7,
7,
6,
7,
5,
5,
6,
6,
6,
7,
5,
6,
5,
5,
6,
6,
6,
6,
5,
6,
5,
5,
5,
4,
6,
7,
5,
6,
5,
5,
6,
5,
7,
7,
5,
6,
5,
5,
5,
4,
6,
6,
5,
5,
4,
5,
5,
4,
5,
5,
5,
6,
5,
5,
5,
4,
5,
5,
4,
5,
4,
4,
4,
4,
4,
5,
4,
5,
4,
4,
4,
4,
4,
5,
4,
5,
3,
3,
4,
4,
4,
5,
3,
5,
4,
4,
4,
3,
4,
5,
2,
3,
4,
4,
2,
2,
4,
4,
3,
5,
3,
3,
3,
3,
4,
4,
3,
4,
3,
3,
3,
2,
4,
4,
2,
3,
3,
3,
3,
2,
3,
3,
2,
3,
2,
2,
2,
2,
3,
3,
2,
3,
2,
2,
2,
2,
3,
3,
2,
3,
2,
2,
2,
2,
3,
3,
2,
3,
2,
2,
2,
2,
3,
3,
2,
3,
2,
2,
2,
2,
2,
2,
2,
3,
1,
1,
2,
2,
2,
3,
2,
3,
2,
2,
2,
2,
3,
3,
2,
3,
1,
1,
2,
2,
2,
2,
2,
3,
1,
1,
1,
0,
2,
2,
1,
2,
0,
0,
1,
0,
1,
2,
1,
1,
0,
1,
1,
0,
1,
1,
1,
2,
0,
0,
1,
0,
1,
1,
0,
1,
0,
0,
0,
0,
1,
1,
0,
1,
0,
0,
0,
0,
1,
1,
0,
1,
0,
0,
0,
0,
2,
2,
0,
1,
1,
1,
1,
0,
1,
1,
1,
2,
0,
0,
0,
0,
1,
1,
0,
1,
0,
0,
0,
0,
1,
1,
0,
1,
0,
0,
0,
0,
1,
1,
0,
1,
0,
0,
0,
0,
1,
1,
-1,
0,
0,
0,
0,
-1,
0,
0,
0,
1,
0,
0,
0,
0,
1,
1,
0,
1,
0,
0,
0,
-1,
1,
1,
0,
1,
-1,
-1,
0,
0,
0,
1,
-1,
0,
-1,
0,
0,
0,
1,
1,
0,
1,
-1,
-1,
-1,
-1,
0,
0,
-1,
0,
-1,
-1,
-1,
-2,
0,
0,
0,
1,
-1,
-1,
0,
0,
0,
0,
0,
0,
-1,
-1,
-1,
-1,
0,
0,
0,
1,
-1,
-1,
-1,
-1,
0,
0,
-1,
0,
-1,
-1,
0,
0,
0,
0,
0,
1,
-1,
0,
-2,
-2,
-1,
-1,
-2,
-1,
-1,
0,
0,
-1,
0,
0,
-1,
-1,
-1,
-1,
-1,
-1,
0,
0,
-1,
1,
-1,
-1,
0,
0,
0,
0,
-2,
-1,
-1,
-1,
-2,
-2,
-1,
-1,
-1,
0,
-2,
-2,
-1,
-2,
0,
0,
-2,
-1,
-2,
-2,
-2,
-2,
0,
0,
-2,
-1,
-1,
-1,
-2,
-2,
-1,
-1,
-2,
0,
-1,
-1,
-2,
-2,
-1,
-1,
-2,
-1,
-2,
-2,
-2,
-2,
-1,
-1,
-1,
1,
-2,
-3,
-1,
-2,
-1,
-1,
-2,
-1,
-2,
-2,
-2,
-2,
0,
0,
-2,
-1,
-2,
-2,
-1,
-2,
-1,
-1,
-2,
-1,
-1,
-1,
-2,
-2,
-1,
-1,
-2,
-1,
-2,
-2,
-2,
-2,
-1,
0,
-2,
-1,
-2,
-2,
-2,
-2,
-1,
-1,
-2,
-1,
-2,
-2,
-2,
-2,
-2,
-1,
-2,
0,
-2,
-2,
-2,
-2,
-1,
-1,
-3,
-2,
-2,
-2,
-2,
-2,
-1,
-1,
-2,
-1,
-2,
-3,
-2,
-2,
-1,
-1,
-2,
-1,
-2,
-2,
-2,
-2,
-1,
-1,
-2,
-1,
-2,
-2,
-2,
-2,
-2,
-1,
-2,
-1,
-2,
-2,
-2,
-3,
0,
0,
-2,
-1,
-2,
-2,
-2,
-2,
-2,
-1,
-3,
-2,
-3,
-3,
-3,
-4,
-2,
-2,
-2,
-1,
-2,
-2,
-2,
-2,
-1,
-1,
-2,
-1,
-2,
-3,
-3,
-3,
-1,
-1,
-2,
-1,
-2,
-2,
-2,
-3,
-2,
-2,
-3,
-2,
-2,
-2,
-2,
-3,
-2,
-1,
-3,
-2,
-3,
-3,
-2,
-2,
-2,
-2,
-3,
-2,
-2,
-2,
-2,
-2,
-1,
-1,
-2,
-1,
-2,
-3,
-3,
-4,
-2,
-2,
-3,
-2,
-3,
-3,
-2,
-2,
-1,
-1,
-2,
-1,
-2,
-2,
-3,
-4,
-2,
-2,
-3,
-2,
-3,
-3,
-3,
-4,
-2,
-1,
-2,
-1,
-3,
-3,
-2,
-3,
-1,
-1,
-2,
-1,
-2,
-2,
-2,
-2,
-1,
-1,
-3,
-2,
-2,
-2,
-2,
-3,
-3,
-3,
-3,
-2,
-3,
-4,
-3,
-3,
-1,
-1,
-3,
-2,
-2,
-2,
-2,
-2,
-1,
-1,
-3,
-2,
-3,
-3,
-3,
-4,
-3,
-3,
-3,
-2,
-3,
-3,
-3,
-4,
-3,
-3,
-3,
-2,
-3,
-3,
-3,
-4,
-1,
-1,
-4,
-3,
-3,
-4,
-3,
-4,
-2,
-2,
-3,
-2,
-3,
-3,
-2,
-2,
-1,
-1,
-3,
-2,
-4,
-4,
-3,
-3,
-3,
-2,
-3,
-2,
-3,
-3,
-3,
-4,
-2,
-2,
-3,
-2,
-3,
-4,
-3,
-4,
-2,
-2,
-3,
-2,
-4,
-4,
-4,
-4,
-2,
-2,
-3,
-3,
-3,
-3,
-2,
-2,
-3,
-3,
-3,
-2,
-3,
-4,
-3,
-4,
-2,
-2,
-3,
-2,
-3,
-3,
-3,
-3,
-2,
-2,
-3,
-2,
-3,
-3,
-3,
-4,
-3,
-3,
-4,
-2,
-4,
-4,
-3,
-4,
-2,
-2,
-3,
-3,
-3,
-3,
-3,
-4,
-3,
-3,
-3,
-2,
-4,
-5,
-4,
-4,
-2,
-2,
-3,
-2,
-4,
-4,
-4,
-4,
-3,
-2,
-3,
-2,
-3,
-3,
-3,
-4,
-2,
-2,
-3,
-2,
-3,
-4,
-4,
-4,
-2,
-1,
-3,
-2,
-3,
-3,
-4,
-4,
-3,
-3,
-3,
-2,
-4,
-4,
-3,
-4,
-2,
-2,
-3,
-2,
-3,
-3,
-3,
-4,
-2,
-2,
-3,
-2,
-3,
-3,
-3,
-4,
-3,
-3,
-3,
-2,
-3,
-3,
-4,
-4,
-3,
-3,
-4,
-3,
-3,
-3,
-4,
-5,
-3,
-3,
-3,
-2,
-4,
-4,
-4,
-4,
-2,
-2,
-4,
-3,
-5,
-4,
-4,
-4,
-3,
-3,
-4,
-3,
-4,
-4,
-3,
-4,
-3,
-2,
-3,
-2,
-4,
-4,
-3,
-4,
-3,
-2,
-3,
-2,
-4,
-4,
-4,
-4,
-3,
-3,
-3,
-2,
-3,
-4,
-4,
-4,
-3,
-3,
-4,
-3,
-2,
-2,
-4,
-4,
-2,
-2,
-4,
-3,
-5,
-5,
-4,
-4,
-3,
-2,
-3,
-2,
-4,
-4,
-4,
-4,
-2,
-2,
-3,
-2,
-3,
-3,
-3,
-4,
-2,
-2,
-3,
-2,
-3,
-3,
-4,
-4,
-2,
-2,
-3,
-2,
-4,
-4,
-4,
-5,
-2,
-1,
-4,
-3,
-4,
-4,
-4,
-5,
-3,
-3,
-4,
-2,
-3,
-3,
-3,
-4,
-2,
-1,
-3,
-2,
-5,
-4,
-4,
-4,
-2,
-2,
-3,
-2,
-4,
-4,
-4,
-4,
-3,
-3,
-3,
-2,
-3,
-4,
-4,
-4,
-2,
-2,
-4,
-3,
-4,
-4,
-4,
-4,
-3,
-3,
-4,
-3,
-4,
-4,
-3,
-4,
-3,
-3,
-4,
-3,
-4,
-4,
-4,
-4,
-3,
-3,
-4,
-3,
-5,
-4,
-4,
-4,
-3,
-3,
-4,
-3,
-3,
-4,
-4,
-5,
-3,
-2,
-4,
-3,
-4,
-4,
-4,
-5,
-3,
-2,
-4,
-3,
-4,
-4,
-4,
-5,
-4,
-3,
-5,
-3,
-4,
-4,
-4,
-4,
-3,
-2,
-3,
-2,
-4,
-4,
-4,
-4,
-3,
-3,
-4,
-3,
-4,
-4,
-4,
-4,
-3,
-3,
-3,
-2,
-4,
-4,
-4,
-5,
-3,
-3,
-4,
-3,
-5,
-4,
-3,
-4,
-3,
-3,
-4,
-3,
-5,
-5,
-4,
-4,
-3,
-3,
-3,
-2,
-4,
-4,
-5,
-5,
-3,
-3,
-4,
-3,
-4,
-4,
-4,
-4,
-3,
-3,
-4,
-3,
-4,
-4,
-4,
-5,
-4,
-3,
-4,
-3,
-4,
-4,
-4,
-4,
-3,
-3,
-4,
-3,
-5,
-4,
-4,
-4,
-3,
-2,
-3,
-2,
-4,
-4,
-4,
-4,
-3,
-3,
-5,
-4,
-5,
-4,
-4,
-4,
-3,
-3,
-4,
-3,
-4,
-4,
-3,
-4,
-3,
-3,
-4,
-3,
-3,
-4,
-4,
-4,
-3,
-3,
-4,
-3,
-5,
-4,
-4,
-4,
-3,
-3,
-4,
-3,
-4,
-3,
-4,
-4,
-3,
-3,
-4,
-3,
-3,
-4,
-4,
-5,
-3,
-3,
-4,
-3,
-5,
-5,
-4,
-5,
-4,
-3,
-4,
-3,
-5,
-4,
-4,
-4,
-3,
-2,
-4,
