Waveforms/SiPM_20/DS421.CSV

Memory Length,4000,
Trigger Level,2.40000e+01,
Source,CH1,
Probe,1.0X,
Vertical Units,V,
Vertical Scale,1.00000e-01,
Vertical Position,-3.52000e-01,
Horizontal Units,S,
Horizontal Scale,1.00000e-07,
Horizontal Position,-1.6000000e-08,
Horizontal Mode,Main,
Sampling Period,1.00000e-09,
Firmware,V1.14,
Time, ,
Mode,Fast,
Waveform Data,
-2,
-3,
-2,
-5,
-4,
-4,
-4,
-3,
-3,
-4,
-3,
-5,
-4,
-3,
-4,
-3,
-3,
-4,
-3,
-4,
-4,
-4,
-5,
-3,
-3,
-4,
-3,
-5,
-5,
-4,
-4,
-3,
-3,
-4,
-3,
-5,
-4,
-4,
-5,
-4,
-3,
-5,
-4,
-5,
-4,
-4,
-4,
-3,
-3,
-4,
-3,
-5,
-4,
-4,
-4,
-3,
-3,
-4,
-3,
-4,
-4,
-4,
-5,
-3,
-3,
-5,
-3,
-5,
-4,
-5,
-5,
-4,
-3,
-4,
-3,
-5,
-4,
-4,
-4,
-4,
-4,
-5,
-3,
-4,
-4,
-5,
-5,
-4,
-3,
-4,
-3,
-5,
-4,
-4,
-5,
-3,
-3,
-5,
-3,
-5,
-4,
-5,
-5,
-4,
-3,
-5,
-3,
-5,
-4,
-4,
-4,
-4,
-3,
-4,
-3,
-4,
-4,
-4,
-5,
-3,
-3,
-5,
-4,
-5,
-4,
-4,
-5,
-4,
-3,
-4,
-3,
-4,
-4,
-5,
-5,
-3,
-3,
-4,
-3,
-5,
-4,
-4,
-4,
-4,
-3,
-4,
-3,
-5,
-4,
-5,
-5,
-3,
-3,
-4,
-3,
-4,
-4,
-4,
-4,
-3,
-3,
-4,
-3,
-5,
-5,
-4,
-5,
-4,
-3,
-5,
-3,
-4,
-4,
-4,
-4,
-3,
-3,
-4,
-3,
-4,
-4,
-4,
-4,
-3,
-3,
-4,
-3,
-5,
-5,
-5,
-5,
-3,
-3,
-5,
-3,
-5,
-4,
-4,
-5,
-4,
-4,
-4,
-3,
-4,
-4,
-4,
-5,
-3,
-3,
-4,
-3,
-4,
-4,
-4,
-5,
-4,
-3,
-4,
-3,
-5,
-5,
-5,
-5,
-4,
-4,
-5,
-3,
-5,
-5,
-5,
-5,
-3,
-3,
-4,
-3,
-5,
-4,
-5,
-5,
-3,
-3,
-4,
-3,
-4,
-4,
-4,
-4,
-3,
-3,
-5,
-3,
-5,
-4,
-4,
-5,
-4,
-4,
-5,
-3,
-4,
-4,
-4,
-4,
-4,
-3,
-4,
-3,
-4,
-4,
-4,
-4,
-3,
-3,
-4,
-3,
-5,
-4,
-4,
-5,
-3,
-3,
-4,
-3,
-5,
-4,
-4,
-5,
-4,
-3,
-5,
-3,
-5,
-5,
-4,
-4,
-3,
-3,
-4,
-3,
-5,
-4,
-4,
-5,
-4,
-3,
-4,
-3,
-4,
-4,
-4,
-4,
-4,
-3,
-4,
-3,
-5,
-4,
-5,
-5,
-4,
-3,
-5,
-3,
-5,
-4,
-4,
-5,
-3,
-3,
-4,
-3,
-4,
-4,
-5,
-5,
-4,
-3,
-4,
-3,
-5,
-4,
-4,
-4,
-3,
-3,
-4,
-3,
-5,
-5,
-5,
-5,
-4,
-3,
-4,
-3,
-4,
-4,
-4,
-4,
-3,
-3,
-4,
-3,
-5,
-4,
-4,
-4,
-3,
-3,
-4,
-3,
-5,
-4,
-4,
-5,
-4,
-3,
-5,
-4,
-5,
-4,
-4,
-5,
-3,
-3,
-5,
-3,
-5,
-5,
-4,
-4,
-3,
-3,
-5,
-4,
-5,
-5,
-5,
-5,
-4,
-3,
-5,
-3,
-5,
-4,
-5,
-6,
-4,
-3,
-5,
-3,
-5,
-4,
-4,
-4,
-3,
-3,
-4,
-3,
-4,
-4,
-4,
-5,
-4,
-4,
-4,
-3,
-5,
-4,
-4,
-4,
-4,
-4,
-5,
-3,
-4,
-4,
-5,
-5,
-4,
-3,
-4,
-3,
-5,
-5,
-4,
-4,
-3,
-3,
-4,
-3,
-3,
-4,
-5,
-5,
-3,
-3,
-4,
-3,
-5,
-4,
-4,
-5,
-4,
-3,
-5,
-4,
-5,
-4,
-4,
-5,
-3,
-3,
-4,
-3,
-4,
-4,
-5,
-5,
-4,
-4,
-5,
-4,
-5,
-4,
-4,
-5,
-3,
-3,
-5,
-3,
-5,
-5,
-5,
-5,
-4,
-3,
-4,
-3,
-5,
-4,
-4,
-4,
-3,
-3,
-5,
-3,
-4,
-4,
-5,
-5,
-3,
-2,
-4,
-3,
-5,
-4,
-4,
-4,
-4,
-3,
-4,
-3,
-4,
-4,
-5,
-5,
-3,
-3,
-4,
-3,
-5,
-5,
-4,
-5,
-4,
-3,
-4,
-3,
-5,
-5,
-5,
-5,
-3,
-3,
-5,
-3,
-6,
-6,
-5,
-5,
-4,
-3,
-4,
-3,
-5,
-4,
-5,
-5,
-4,
-3,
-5,
-3,
-4,
-5,
-5,
-5,
-4,
-4,
-5,
-3,
-5,
-4,
-5,
-5,
-3,
-3,
-4,
-3,
-5,
-5,
-4,
-5,
-4,
-3,
-5,
-3,
-5,
-5,
-4,
-4,
-4,
-3,
-4,
-3,
-4,
-4,
-3,
-4,
-3,
-3,
-4,
-3,
-5,
-5,
-5,
-6,
-4,
-3,
-5,
-3,
-4,
-4,
-4,
-5,
-3,
-3,
-4,
-3,
-5,
-4,
-5,
-6,
-4,
-3,
-4,
-3,
-4,
-4,
-4,
-5,
-4,
-3,
-4,
-3,
-5,
-4,
-4,
-5,
-4,
-4,
-6,
-4,
-5,
-5,
-5,
-5,
-3,
-3,
-5,
-4,
-4,
-4,
-5,
-5,
-3,
-3,
-4,
-3,
-5,
-4,
-4,
-4,
-3,
-3,
-5,
-3,
-5,
-5,
-5,
-5,
-4,
-3,
-5,
-3,
-5,
-5,
-5,
-5,
-3,
-3,
-5,
-3,
-5,
-4,
-4,
-5,
-3,
-3,
-5,
-3,
-4,
-4,
-4,
-5,
-4,
-3,
-5,
-4,
-5,
-5,
-4,
-5,
-4,
-3,
-5,
-4,
-5,
-5,
-5,
-5,
-4,
-3,
-4,
-3,
-5,
-5,
-4,
-5,
-3,
-3,
-4,
-3,
-4,
-4,
-4,
-4,
-3,
-3,
-4,
-3,
-5,
-4,
-5,
-5,
-3,
-3,
-5,
-3,
-5,
-5,
-4,
-5,
-3,
-3,
-5,
-3,
-5,
-4,
-5,
-6,
-3,
-3,
-4,
-3,
-4,
-4,
-5,
-5,
-3,
-3,
-5,
-3,
-5,
-4,
-4,
-5,
-4,
-4,
-5,
-3,
-5,
-4,
-5,
-5,
-4,
-3,
-4,
-3,
-5,
-4,
-4,
-5,
-3,
-3,
-5,
-4,
-5,
-5,
-5,
-5,
-4,
-3,
-5,
-3,
-5,
-5,
-5,
-5,
-4,
-3,
-4,
-3,
-5,
-4,
-4,
-5,
-3,
-3,
-5,
-3,
-4,
-4,
-4,
-4,
-3,
-3,
-5,
-4,
-5,
-4,
-4,
-4,
-3,
-3,
-5,
-3,
-5,
-4,
-5,
-5,
-3,
-3,
-4,
-3,
-4,
-4,
-5,
-5,
-4,
-3,
-4,
-3,
-5,
-4,
-5,
-5,
-3,
-3,
-5,
-3,
-5,
-4,
-4,
-4,
-4,
-3,
-5,
-3,
-5,
-4,
-4,
-4,
-3,
-3,
-5,
-3,
-5,
-5,
-5,
-5,
-4,
-3,
-4,
-3,
-5,
-5,
-4,
-5,
-3,
-3,
-5,
-3,
-5,
-4,
-5,
-5,
-4,
-3,
-5,
-3,
-5,
-4,
-3,
-4,
-3,
-3,
-5,
-4,
-5,
-5,
-4,
-5,
-3,
-3,
-4,
-3,
-4,
-4,
-5,
-5,
-4,
-3,
-4,
-3,
-5,
-5,
-4,
-4,
-3,
-3,
-5,
-3,
-5,
-5,
-4,
-4,
-3,
-3,
-4,
-3,
-4,
-4,
-5,
-5,
-3,
-3,
-5,
-3,
-5,
-4,
-5,
-5,
-3,
-3,
-4,
-3,
-5,
-5,
-4,
-5,
-4,
-3,
-5,
-3,
-4,
-4,
-4,
-4,
-3,
-3,
-4,
-3,
-5,
-4,
-4,
-4,
-3,
-3,
-5,
-3,
-5,
-5,
-5,
-5,
-3,
-3,
-4,
-3,
-5,
-4,
-4,
-5,
-4,
-3,
-4,
-3,
-5,
-4,
-4,
-5,
-3,
-3,
-5,
-4,
-4,
-4,
-4,
-5,
-4,
-3,
-4,
-3,
-4,
-4,
-4,
-5,
-3,
-3,
-5,
-3,
-5,
-5,
-5,
-5,
-3,
-3,
-4,
-3,
-5,
-5,
-5,
-6,
-4,
-3,
-5,
-3,
-5,
-4,
-4,
-4,
-3,
-3,
-5,
-3,
-5,
-4,
-5,
-5,
-4,
-3,
-4,
-3,
-4,
-4,
-4,
-5,
-4,
-3,
-4,
-3,
-4,
-4,
-4,
-4,
-3,
-3,
-4,
-3,
-4,
-4,
-4,
-5,
-4,
-3,
-4,
-3,
-5,
-4,
-4,
-4,
-3,
-3,
-4,
-3,
-5,
-4,
-4,
-4,
-3,
-3,
-4,
-3,
-5,
-4,
-4,
-5,
-4,
-3,
-4,
-3,
-4,
-4,
-4,
-4,
-3,
-3,
-4,
-3,
-5,
-4,
-5,
-5,
-4,
-3,
-4,
-3,
-4,
-4,
-5,
-5,
-3,
-2,
-4,
-3,
-4,
-4,
-4,
-5,
-3,
-3,
-4,
-3,
-5,
-4,
-4,
-5,
-3,
-3,
-4,
-3,
-5,
-5,
-5,
-5,
-4,
-3,
-4,
-3,
-5,
-5,
-4,
-5,
-4,
-3,
-5,
-3,
-5,
-5,
-4,
-4,
-3,
-3,
-5,
-3,
-5,
-4,
-4,
-5,
-4,
-3,
-4,
-3,
-5,
-4,
-4,
-4,
-3,
-3,
-5,
-3,
-5,
-4,
-4,
-4,
-3,
-3,
-4,
-3,
-5,
-4,
-4,
-5,
-3,
-3,
-5,
-3,
-4,
-4,
-4,
-5,
-4,
-4,
-5,
-4,
-5,
-5,
-4,
-4,
-3,
-3,
-4,
-3,
-5,
-4,
-4,
-5,
-3,
-3,
-5,
-3,
-5,
-4,
-5,
-5,
-4,
-3,
-5,
-3,
-5,
-4,
-4,
-4,
-3,
-3,
-4,
-3,
-5,
-4,
-5,
-5,
-4,
-4,
-5,
-4,
-5,
-4,
-4,
-4,
-3,
-3,
-4,
-3,
-5,
-5,
-5,
-5,
-3,
-3,
-4,
-3,
-5,
-4,
-4,
-4,
-3,
-3,
-4,
-3,
-5,
-5,
-5,
-5,
-4,
-3,
-5,
-4,
-5,
-5,
-5,
-5,
-4,
-3,
-5,
-3,
-4,
-4,
-5,
-5,
-3,
-3,
-4,
-3,
-5,
-5,
-4,
-5,
-3,
-3,
-5,
-3,
-5,
-4,
-5,
-6,
-4,
-3,
-5,
-3,
-5,
-5,
-4,
-4,
-4,
-3,
-4,
-3,
-5,
-4,
-4,
-5,
-3,
-3,
-5,
-3,
-4,
-4,
-5,
-5,
-4,
-4,
-4,
-3,
-5,
-5,
-4,
-5,
-3,
-3,
-4,
-3,
-5,
-4,
-4,
-5,
-3,
-3,
-5,
-3,
-4,
-4,
-4,
-5,
-3,
-3,
-5,
-4,
-4,
-4,
-5,
-5,
-4,
-3,
-5,
-3,
-5,
-5,
-4,
-5,
-4,
-3,
-4,
-3,
-4,
-4,
-5,
-5,
-4,
-3,
-5,
-3,
-5,
-4,
-5,
-5,
-3,
-3,
-5,
-4,
-5,
-4,
-4,
-4,
-3,
-3,
-5,
-3,
-5,
-4,
-4,
-5,
-4,
-3,
-4,
-3,
-5,
-4,
-5,
-5,
-3,
-3,
-4,
-3,
-5,
-5,
-5,
-6,
-4,
-3,
-4,
-3,
-4,
-4,
-4,
-4,
-3,
-3,
-4,
-3,
-5,
-4,
-5,
-5,
-3,
-3,
-4,
-3,
-5,
-5,
-4,
-4,
-4,
-3,
-4,
-3,
-4,
-4,
-4,
-5,
-4,
-4,
-5,
-4,
-5,
-4,
-5,
-5,
-4,
-3,
-5,
-3,
-4,
-4,
-4,
-4,
-4,
-4,
-5,
-3,
-5,
-5,
-5,
-6,
-4,
-3,
-6,
-5,
-5,
-4,
-4,
-4,
-3,
-3,
-4,
-3,
-5,
-4,
-4,
-4,
-3,
-3,
-4,
-3,
-5,
-4,
-4,
-4,
-3,
-3,
-4,
-3,
-5,
-5,
-4,
-5,
-4,
-3,
-4,
-3,
-5,
-4,
-4,
-4,
-3,
-3,
-5,
-3,
-4,
-4,
-4,
-4,
-2,
-2,
-4,
-3,
-5,
-4,
-4,
-4,
-3,
-3,
-5,
-3,
-5,
-4,
-4,
-4,
-3,
-3,
-5,
-4,
-5,
-4,
-4,
-5,
-4,
-4,
-5,
-4,
-5,
-5,
-5,
-5,
-4,
-3,
-5,
-3,
-5,
-5,
-4,
-4,
-3,
-2,
-4,
-3,
-5,
-4,
-4,
-5,
-3,
-3,
-4,
-3,
-5,
-4,
-4,
-4,
-3,
-3,
-5,
-3,
-5,
-5,
-4,
-5,
-3,
-3,
-4,
-3,
-4,
-3,
-4,
-5,
-3,
-3,
-4,
-3,
-4,
-5,
-4,
-4,
-3,
-3,
-4,
-3,
-4,
-4,
-5,
-5,
-4,
-4,
-5,
-4,
-5,
-4,
-4,
-5,
-4,
-3,
-4,
-3,
-5,
-4,
-5,
-5,
-3,
-2,
-4,
-3,
-4,
-4,
-5,
-5,
-3,
-3,
-4,
-3,
-5,
-4,
-4,
-5,
-4,
-3,
-4,
-3,
-4,
-4,
-4,
-4,
-4,
-3,
-4,
-3,
-5,
-4,
-4,
-4,
-3,
-2,
-4,
-3,
-5,
-5,
-4,
-4,
-3,
-3,
-5,
-3,
-5,
-4,
-4,
-5,
-4,
-3,
-4,
-3,
-5,
-4,
-4,
-5,
-3,
-3,
-4,
-3,
-5,
-4,
-4,
-5,
-4,
-3,
-4,
-3,
-5,
-5,
-4,
-5,
-3,
-3,
-4,
-3,
-5,
-4,
-4,
-5,
-4,
-3,
-4,
-3,
-4,
-4,
-4,
-4,
-3,
-3,
-5,
-3,
-5,
-4,
-4,
-5,
-3,
-3,
-4,
-3,
-5,
-4,
-4,
-5,
-4,
-3,
-4,
-3,
-4,
-4,
-5,
-5,
-4,
-3,
-5,
-3,
-5,
-4,
-4,
-4,
-3,
-3,
-5,
-4,
-5,
-5,
-4,
-4,
-4,
-3,
-4,
-3,
-5,
-4,
-4,
-4,
-3,
-3,
-4,
-3,
-5,
-4,
-4,
-5,
-3,
-3,
-5,
-3,
-5,
-5,
-5,
-5,
-4,
-3,
-4,
-3,
-4,
-4,
-4,
-4,
-2,
-2,
-4,
-3,
-5,
-4,
-4,
-5,
-4,
-3,
-5,
-3,
-5,
-4,
-4,
-4,
-3,
-3,
-5,
-3,
-4,
-4,
-4,
-5,
-4,
-3,
-4,
-3,
-5,
-5,
-4,
-5,
-3,
-3,
-4,
-3,
-5,
-5,
-5,
-6,
-4,
-4,
-4,
-3,
-5,
-4,
-4,
-5,
-4,
-3,
-5,
-3,
-4,
-4,
-4,
-5,
-4,
-3,
-4,
-3,
-5,
-4,
-4,
-5,
-4,
-3,
-4,
-3,
-4,
-4,
-4,
-4,
-3,
-3,
-5,
-4,
-5,
-5,
-4,
-5,
-3,
-3,
-4,
-3,
-4,
-4,
-4,
-5,
-3,
-3,
-4,
-3,
-5,
-4,
-4,
-5,
-4,
-3,
-4,
-3,
-5,
-4,
-4,
-5,
-3,
-3,
-4,
-3,
-5,
-4,
-5,
-5,
-4,
-3,
-5,
-3,
-4,
-4,
-4,
-5,
-3,
-3,
-4,
-3,
-5,
-4,
-4,
-4,
-4,
-3,
-4,
-3,
-5,
-4,
-4,
-4,
-3,
-3,
-4,
-3,
-5,
-5,
-4,
-5,
-3,
-3,
-5,
-3,
-5,
-5,
-4,
-5,
-4,
-3,
-4,
-3,
-4,
-4,
-5,
-5,
-4,
-3,
-5,
-4,
-5,
-5,
-5,
-5,
-4,
-3,
-5,
-3,
-5,
-5,
-5,
-5,
-4,
-4,
-6,
-4,
-5,
-5,
-5,
-6,
-4,
-3,
-5,
-3,
-5,
-5,
-5,
-6,
-4,
-3,
-5,
-3,
-5,
-5,
-5,
-6,
-4,
-4,
-6,
-4,
-6,
-6,
-5,
-6,
-4,
-3,
-5,
-4,
-5,
-5,
-5,
-5,
-4,
-3,
-5,
-3,
-5,
-4,
-4,
-4,
-3,
-2,
-4,
-3,
-3,
-3,
-2,
-2,
-2,
-2,
-2,
-1,
-1,
-1,
0,
0,
2,
2,
2,
3,
2,
3,
4,
4,
6,
7,
7,
8,
8,
9,
10,
10,
12,
13,
13,
15,
14,
14,
17,
18,
20,
20,
21,
22,
23,
23,
25,
26,
28,
29,
31,
33,
35,
36,
39,
40,
44,
44,
45,
46,
47,
48,
48,
49,
50,
50,
50,
51,
51,
52,
51,
51,
52,
52,
50,
51,
51,
51,
51,
51,
52,
52,
52,
53,
52,
52,
53,
52,
54,
54,
53,
53,
53,
53,
54,
54,
54,
55,
54,
55,
56,
56,
57,
57,
57,
57,
57,
57,
56,
57,
57,
57,
58,
59,
58,
59,
58,
58,
60,
60,
59,
59,
58,
59,
58,
59,
59,
59,
60,
60,
58,
59,
58,
59,
58,
58,
58,
59,
58,
59,
58,
58,
58,
58,
58,
59,
57,
58,
56,
56,
57,
57,
57,
56,
56,
57,
56,
56,
56,
56,
56,
56,
55,
55,
55,
55,
55,
55,
55,
55,
53,
54,
53,
53,
53,
53,
53,
53,
52,
52,
51,
52,
51,
51,
51,
51,
50,
51,
50,
50,
50,
50,
49,
49,
48,
49,
47,
48,
48,
48,
47,
47,
46,
47,
46,
46,
45,
45,
47,
47,
45,
45,
43,
44,
43,
43,
43,
43,
42,
43,
42,
42,
42,
42,
42,
41,
41,
41,
41,
41,
40,
40,
40,
40,
39,
40,
39,
39,
39,
39,
39,
39,
38,
38,
37,
37,
38,
37,
37,
37,
36,
37,
36,
36,
36,
36,
37,
37,
35,
35,
35,
35,
35,
35,
35,
35,
33,
34,
34,
34,
33,
32,
33,
33,
32,
33,
32,
32,
32,
32,
33,
33,
32,
32,
31,
31,
31,
30,
30,
30,
30,
31,
30,
30,
30,
30,
30,
30,
29,
29,
28,
28,
28,
28,
29,
29,
27,
28,
27,
27,
27,
27,
28,
28,
27,
28,
27,
27,
26,
26,
27,
27,
26,
27,
25,
25,
25,
25,
25,
25,
24,
25,
24,
24,
24,
24,
25,
25,
24,
25,
24,
25,
24,
24,
23,
23,
23,
24,
22,
22,
23,
22,
23,
23,
22,
23,
22,
22,
22,
22,
22,
22,
22,
23,
22,
22,
22,
22,
21,
21,
20,
21,
21,
21,
20,
20,
21,
21,
20,
21,
20,
20,
20,
20,
20,
20,
19,
20,
20,
20,
19,
18,
19,
19,
19,
19,
18,
18,
19,
18,
19,
19,
17,
18,
18,
18,
18,
18,
18,
18,
17,
18,
17,
17,
16,
16,
17,
17,
17,
18,
15,
16,
16,
16,
17,
17,
16,
17,
15,
16,
15,
14,
16,
16,
15,
16,
14,
14,
15,
14,
15,
15,
14,
15,
14,
14,
15,
14,
15,
15,
13,
14,
14,
14,
14,
14,
14,
15,
13,
14,
13,
13,
14,
14,
14,
14,
12,
13,
13,
13,
13,
12,
13,
13,
12,
13,
11,
12,
12,
12,
14,
14,
12,
13,
12,
12,
11,
11,
13,
13,
12,
13,
11,
12,
12,
11,
12,
13,
11,
12,
11,
11,
11,
10,
11,
11,
10,
11,
11,
11,
11,
10,
11,
11,
10,
11,
9,
9,
11,
10,
11,
10,
10,
11,
10,
10,
11,
10,
11,
11,
9,
10,
9,
9,
10,
10,
11,
11,
9,
10,
9,
9,
10,
10,
10,
10,
9,
10,
9,
9,
8,
8,
9,
9,
9,
10,
9,
9,
9,
9,
9,
9,
9,
9,
9,
9,
9,
8,
9,
9,
8,
9,
8,
8,
9,
8,
9,
9,
9,
9,
8,
8,
8,
8,
8,
8,
8,
9,
8,
8,
8,
8,
8,
8,
7,
8,
7,
7,
8,
7,
9,
9,
8,
9,
8,
8,
8,
8,
8,
8,
8,
8,
7,
7,
7,
7,
8,
8,
7,
8,
7,
7,
7,
7,
7,
7,
7,
8,
7,
8,
7,
6,
7,
7,
7,
8,
7,
8,
7,
6,
7,
7,
6,
7,
6,
6,
7,
6,
7,
7,
6,
7,
6,
6,
7,
6,
7,
7,
6,
6,
6,
6,
6,
5,
6,
7,
6,
7,
6,
6,
7,
6,
6,
7,
6,
7,
6,
6,
7,
6,
7,
7,
5,
6,
5,
5,
6,
5,
6,
6,
5,
6,
5,
5,
5,
4,
6,
5,
5,
6,
6,
5,
5,
4,
5,
5,
5,
6,
5,
5,
5,
4,
6,
6,
5,
5,
4,
5,
4,
4,
6,
6,
5,
5,
4,
4,
4,
4,
5,
5,
4,
5,
4,
4,
4,
4,
4,
5,
5,
5,
4,
4,
4,
4,
5,
5,
5,
6,
4,
4,
4,
4,
5,
5,
4,
5,
4,
4,
4,
4,
5,
5,
4,
5,
5,
5,
4,
4,
5,
5,
4,
5,
4,
4,
4,
4,
5,
5,
4,
5,
4,
4,
3,
3,
4,
5,
4,
5,
3,
3,
4,
4,
4,
5,
3,
5,
3,
4,
4,
3,
4,
4,
3,
4,
3,
3,
3,
3,
4,
5,
4,
5,
3,
4,
4,
4,
4,
4,
2,
3,
3,
3,
3,
3,
4,
4,
2,
3,
3,
4,
3,
3,
3,
4,
2,
3,
3,
4,
3,
3,
4,
4,
2,
4,
3,
3,
4,
4,
4,
4,
2,
3,
3,
3,
3,
3,
4,
4,
3,
4,
2,
2,
3,
2,
4,
4,
2,
4,
3,
3,
3,
3,
4,
4,
2,
4,
3,
3,
3,
2,
4,
4,
2,
3,
3,
3,
2,
2,
3,
3,
2,
3,
2,
2,
2,
2,
3,
3,
2,
3,
1,
1,
2,
2,
4,
4,
2,
3,
2,
2,
2,
2,
3,
3,
1,
2,
2,
2,
2,
2,
2,
2,
2,
3,
2,
2,
2,
2,
2,
2,
2,
3,
2,
2,
2,
2,
3,
3,
2,
3,
2,
2,
1,
0,
2,
2,
2,
3,
1,
1,
2,
2,
2,
2,
2,
3,
1,
1,
2,
2,
2,
2,
1,
2,
2,
2,
2,
2,
3,
3,
1,
2,
2,
2,
1,
0,
2,
2,
1,
2,
1,
1,
2,
2,
1,
1,
1,
2,
2,
2,
2,
1,
2,
2,
1,
2,
2,
2,
2,
2,
1,
1,
1,
2,
2,
2,
2,
2,
2,
2,
1,
2,
1,
0,
2,
2,
1,
1,
1,
2,
2,
2,
1,
1,
1,
1,
1,
1,
1,
1,
2,
1,
2,
2,
1,
2,
1,
1,
2,
2,
2,
2,
1,
2,
1,
1,
1,
1,
2,
2,
1,
2,
1,
1,
1,
0,
2,
1,
1,
2,
1,
1,
2,
2,
2,
3,
1,
2,
1,
1,
2,
2,
1,
1,
0,
1,
1,
1,
2,
2,
1,
1,
0,
1,
1,
1,
0,
0,
1,
2,
1,
2,
1,
1,
2,
2,
1,
1,
0,
1,
0,
0,
2,
2,
2,
2,
2,
3,
1,
1,
2,
2,
2,
3,
1,
2,
1,
1,
2,
2,
1,
1,
1,
2,
2,
2,
2,
2,
2,
2,
1,
2,
2,
2,
2,
2,
2,
2,
2,
3,
2,
2,
2,
2,
3,
3,
2,
3,
2,
3,
3,
2,
4,
4,
3,
4,
3,
3,
3,
2,
4,
4,
3,
5,
3,
3,
3,
3,
4,
4,
3,
4,
3,
4,
4,
4,
5,
5,
5,
5,
4,
4,
4,
4,
5,
5,
4,
5,
3,
4,
4,
4,
5,
5,
5,
6,
4,
4,
4,
4,
6,
6,
5,
6,
5,
5,
6,
5,
6,
6,
5,
5,
5,
5,
6,
5,
6,
6,
5,
5,
5,
5,
5,
5,
6,
6,
5,
6,
5,
5,
6,
5,
6,
6,
5,
6,
5,
5,
7,
6,
7,
7,
5,
6,
5,
5,
6,
5,
6,
6,
5,
6,
5,
5,
6,
6,
6,
6,
5,
6,
5,
5,
6,
5,
6,
6,
5,
6,
5,
5,
5,
4,
5,
5,
5,
6,
5,
5,
6,
5,
6,
6,
5,
6,
5,
5,
6,
5,
5,
5,
5,
6,
6,
6,
5,
4,
6,
6,
5,
6,
5,
5,
7,
6,
6,
6,
5,
6,
5,
5,
6,
5,
6,
7,
5,
6,
4,
4,
6,
5,
6,
6,
5,
5,
5,
5,
5,
4,
5,
5,
5,
6,
4,
4,
5,
4,
6,
6,
5,
6,
5,
4,
6,
5,
5,
5,
5,
6,
4,
4,
4,
4,
5,
5,
4,
5,
5,
5,
5,
4,
5,
5,
5,
5,
5,
5,
5,
4,
5,
5,
4,
5,
3,
3,
4,
4,
5,
5,
5,
5,
4,
4,
4,
3,
4,
5,
2,
3,
3,
3,
3,
3,
4,
5,
3,
4,
4,
4,
4,
4,
5,
5,
4,
5,
4,
4,
3,
3,
4,
4,
3,
5,
3,
3,
3,
3,
4,
4,
3,
4,
3,
3,
3,
3,
4,
4,
3,
4,
3,
3,
3,
3,
3,
3,
2,
3,
3,
3,
3,
2,
3,
3,
2,
3,
2,
2,
3,
2,
3,
3,
2,
3,
2,
3,
3,
2,
3,
3,
2,
3,
2,
2,
2,
2,
3,
3,
2,
3,
2,
2,
2,
2,
3,
3,
1,
2,
2,
2,
2,
2,
2,
2,
2,
3,
2,
2,
2,
2,
3,
3,
2,
3,
2,
2,
2,
1,
1,
1,
2,
3,
2,
2,
2,
2,
3,
3,
2,
3,
1,
2,
2,
2,
3,
3,
2,
3,
1,
1,
2,
2,
2,
2,
2,
3,
2,
2,
1,
1,
2,
2,
1,
2,
1,
1,
2,
1,
1,
1,
1,
2,
1,
1,
1,
1,
2,
2,
1,
2,
1,
1,
1,
0,
2,
2,
1,
2,
0,
0,
1,
0,
1,
1,
1,
2,
1,
1,
1,
0,
2,
2,
1,
2,
1,
1,
1,
0,
2,
2,
0,
1,
0,
0,
0,
0,
1,
1,
0,
1,
0,
0,
0,
0,
1,
1,
1,
2,
1,
1,
1,
0,
1,
1,
0,
1,
0,
0,
0,
0,
1,
1,
1,
2,
0,
0,
0,
0,
1,
1,
0,
1,
0,
0,
0,
-1,
1,
1,
0,
1,
-1,
-1,
-1,
-1,
1,
1,
-1,
0,
-1,
-1,
0,
-1,
0,
0,
0,
1,
-1,
-1,
0,
0,
0,
0,
-1,
0,
-1,
0,
0,
-1,
0,
0,
-1,
0,
-1,
-1,
-1,
-2,
0,
0,
0,
1,
-1,
-1,
-1,
-1,
0,
1,
0,
1,
-1,
-1,
-1,
-1,
-1,
-1,
-2,
-1,
-1,
-1,
0,
0,
0,
0,
-1,
0,
-1,
-1,
-1,
-1,
-1,
-1,
-2,
-1,
-1,
-1,
-1,
-2,
0,
0,
-2,
-1,
-1,
-1,
-1,
-2,
-1,
-1,
-1,
0,
-2,
-2,
-2,
-2,
0,
0,
-2,
0,
-1,
-1,
-1,
-1,
-1,
-1,
-1,
0,
-2,
-2,
-1,
-2,
0,
0,
-2,
0,
-2,
-2,
-1,
-2,
-1,
-1,
-2,
-1,
-1,
-1,
-1,
-2,
-1,
-1,
-1,
0,
-2,
-2,
-2,
-2,
-1,
-1,
-2,
0,
-2,
-2,
-1,
-2,
-1,
-1,
-2,
-1,
-2,
-3,
-1,
-2,
-1,
-1,
-2,
-1,
-1,
-1,
-2,
-2,
0,
0,
-2,
-1,
-1,
-1,
-2,
-2,
-1,
-1,
-2,
-1,
-2,
-2,
-2,
-2,
-1,
-1,
-2,
-1,
-1,
-1,
-1,
-2,
-2,
-1,
-2,
-1,
-2,
-2,
-2,
-2,
-1,
-1,
-2,
-1,
-2,
-2,
-1,
-2,
-1,
-1,
-2,
-1,
-2,
-2,
-2,
-2,
-1,
-1,
-2,
-1,
-2,
-2,
-2,
-2,
-1,
-1,
-3,
-1,
-2,
-2,
-2,
-2,
-2,
-2,
-2,
-1,
-2,
-2,
-1,
-2,
-1,
-1,
-2,
-1,
-2,
-2,
-2,
-3,
-2,
-1,
-2,
-1,
-2,
-3,
-2,
-3,
-1,
-1,
-2,
-1,
-2,
-2,
-2,
-2,
-2,
-1,
-3,
-2,
-2,
-2,
-2,
-2,
-2,
-1,
-2,
-1,
-2,
-2,
-3,
-4,
-2,
-2,
-2,
-1,
-2,
-3,
-2,
-2,
-1,
-1,
-2,
-1,
-2,
-2,
-2,
-2,
-2,
-2,
-2,
-1,
-3,
-3,
-2,
-2,
-1,
-1,
-3,
-2,
-2,
-2,
-2,
-3,
-2,
-2,
-3,
-2,
-2,
-3,
-2,
-2,
-2,
-1,
-2,
-1,
-2,
-2,
-3,
-4,
-1,
-1,
-2,
-1,
-3,
-3,
-2,
-2,
-1,
-1,
-3,
-2,
-2,
-2,
-3,
-4,
-3,
-2,
-2,
-1,
-3,
-3,
-2,
-2,
-2,
-2,
-3,
-2,
-2,
-2,
-2,
-2,
-2,
-2,
-3,
-2,
-3,
-4,
-3,
-4,
-1,
-1,
-3,
-2,
-2,
-3,
-3,
-4,
-2,
-2,
-2,
-1,
-4,
-4,
-4,
-4,
-3,
