Waveforms/SiPM_20/DS430.CSV

Memory Length,4000,
Trigger Level,2.40000e+01,
Source,CH1,
Probe,1.0X,
Vertical Units,V,
Vertical Scale,1.00000e-01,
Vertical Position,-3.52000e-01,
Horizontal Units,S,
Horizontal Scale,1.00000e-07,
Horizontal Position,-1.6000000e-08,
Horizontal Mode,Main,
Sampling Period,1.00000e-09,
Firmware,V1.14,
Time, ,
Mode,Fast,
Waveform Data,
-3,
-3,
-3,
-3,
-5,
-3,
-4,
-4,
-4,
-4,
-3,
-2,
-4,
-3,
-4,
-4,
-4,
-5,
-4,
-3,
-4,
-3,
-5,
-4,
-4,
-4,
-4,
-3,
-5,
-3,
-5,
-4,
-4,
-4,
-4,
-4,
-4,
-3,
-4,
-4,
-4,
-5,
-3,
-3,
-4,
-3,
-5,
-5,
-4,
-4,
-3,
-3,
-4,
-3,
-4,
-3,
-4,
-5,
-3,
-3,
-4,
-3,
-4,
-4,
-5,
-5,
-3,
-3,
-4,
-2,
-4,
-4,
-4,
-4,
-3,
-3,
-4,
-3,
-5,
-4,
-4,
-4,
-4,
-3,
-4,
-3,
-4,
-4,
-5,
-5,
-4,
-3,
-4,
-3,
-5,
-4,
-4,
-4,
-3,
-3,
-5,
-3,
-5,
-4,
-5,
-5,
-3,
-3,
-4,
-3,
-4,
-4,
-4,
-5,
-4,
-3,
-4,
-3,
-5,
-4,
-4,
-5,
-3,
-3,
-5,
-3,
-5,
-4,
-4,
-4,
-4,
-3,
-4,
-3,
-3,
-4,
-4,
-4,
-3,
-3,
-4,
-3,
-5,
-5,
-5,
-5,
-3,
-3,
-4,
-3,
-5,
-4,
-4,
-4,
-4,
-3,
-4,
-3,
-4,
-4,
-4,
-4,
-3,
-3,
-4,
-3,
-4,
-5,
-4,
-4,
-3,
-2,
-4,
-3,
-4,
-4,
-4,
-4,
-4,
-3,
-4,
-3,
-4,
-4,
-4,
-5,
-3,
-3,
-4,
-3,
-5,
-4,
-4,
-4,
-3,
-3,
-4,
-3,
-4,
-4,
-4,
-5,
-3,
-3,
-4,
-3,
-5,
-5,
-4,
-5,
-4,
-3,
-4,
-3,
-3,
-3,
-3,
-4,
-3,
-3,
-4,
-3,
-4,
-4,
-4,
-5,
-4,
-3,
-5,
-4,
-4,
-4,
-4,
-4,
-3,
-3,
-4,
-3,
-4,
-4,
-4,
-5,
-4,
-3,
-5,
-3,
-5,
-4,
-4,
-5,
-3,
-3,
-4,
-3,
-4,
-4,
-4,
-4,
-3,
-3,
-4,
-3,
-5,
-4,
-4,
-4,
-3,
-3,
-5,
-3,
-4,
-4,
-5,
-6,
-4,
-3,
-4,
-3,
-5,
-4,
-4,
-4,
-4,
-3,
-4,
-3,
-4,
-4,
-4,
-5,
-4,
-4,
-5,
-4,
-5,
-4,
-4,
-4,
-4,
-3,
-4,
-3,
-4,
-4,
-4,
-4,
-3,
-3,
-4,
-3,
-4,
-4,
-4,
-5,
-3,
-3,
-4,
-3,
-4,
-4,
-4,
-5,
-3,
-3,
-4,
-3,
-5,
-5,
-4,
-4,
-3,
-3,
-4,
-3,
-4,
-4,
-4,
-4,
-3,
-3,
-4,
-3,
-4,
-4,
-4,
-4,
-3,
-3,
-4,
-3,
-4,
-4,
-4,
-4,
-3,
-3,
-4,
-3,
-4,
-4,
-4,
-4,
-3,
-3,
-4,
-3,
-5,
-4,
-4,
-4,
-3,
-2,
-4,
-3,
-4,
-4,
-4,
-4,
-3,
-3,
-4,
-3,
-5,
-4,
-4,
-4,
-2,
-2,
-4,
-3,
-4,
-4,
-4,
-4,
-3,
-3,
-4,
-3,
-5,
-4,
-4,
-5,
-3,
-3,
-4,
-3,
-5,
-5,
-4,
-4,
-3,
-3,
-4,
-3,
-5,
-4,
-4,
-5,
-4,
-3,
-4,
-3,
-4,
-4,
-4,
-5,
-3,
-3,
-4,
-3,
-4,
-4,
-4,
-5,
-3,
-3,
-4,
-3,
-5,
-4,
-4,
-4,
-4,
-4,
-5,
-3,
-5,
-4,
-4,
-4,
-3,
-3,
-4,
-3,
-5,
-4,
-4,
-4,
-3,
-3,
-4,
-3,
-4,
-4,
-4,
-5,
-3,
-3,
-5,
-3,
-5,
-4,
-4,
-4,
-4,
-3,
-4,
-3,
-5,
-4,
-4,
-5,
-3,
-3,
-5,
-3,
-5,
-5,
-4,
-4,
-4,
-3,
-4,
-3,
-5,
-4,
-4,
-5,
-3,
-3,
-5,
-3,
-4,
-4,
-4,
-4,
-3,
-3,
-4,
-3,
-5,
-4,
-4,
-5,
-4,
-3,
-4,
-3,
-5,
-5,
-5,
-5,
-4,
-4,
-4,
-3,
-4,
-4,
-4,
-4,
-3,
-3,
-4,
-3,
-4,
-4,
-4,
-5,
-3,
-3,
-4,
-3,
-5,
-4,
-4,
-5,
-4,
-3,
-4,
-3,
-5,
-5,
-4,
-4,
-3,
-2,
-4,
-3,
-4,
-5,
-4,
-5,
-3,
-3,
-4,
-3,
-5,
-4,
-4,
-5,
-4,
-3,
-4,
-3,
-4,
-4,
-4,
-4,
-3,
-3,
-4,
-3,
-4,
-4,
-4,
-5,
-4,
-4,
-5,
-3,
-5,
-5,
-4,
-4,
-3,
-3,
-4,
-3,
-4,
-4,
-4,
-4,
-4,
-3,
-4,
-3,
-4,
-4,
-4,
-5,
-3,
-3,
-4,
-3,
-4,
-4,
-4,
-4,
-3,
-3,
-4,
-3,
-4,
-4,
-4,
-5,
-4,
-3,
-4,
-3,
-3,
-4,
-4,
-5,
-3,
-3,
-4,
-3,
-4,
-4,
-4,
-4,
-4,
-3,
-4,
-3,
-3,
-4,
-5,
-5,
-4,
-3,
-5,
-3,
-5,
-4,
-4,
-4,
-3,
-3,
-4,
-3,
-4,
-4,
-4,
-4,
-3,
-3,
-4,
-3,
-4,
-4,
-3,
-4,
-3,
-3,
-4,
-3,
-4,
-4,
-3,
-4,
-3,
-3,
-4,
-3,
-4,
-4,
-4,
-4,
-4,
-3,
-4,
-3,
-4,
-4,
-4,
-4,
-4,
-3,
-4,
-3,
-5,
-4,
-4,
-4,
-3,
-3,
-5,
-3,
-5,
-4,
-4,
-4,
-3,
-3,
-4,
-3,
-4,
-4,
-4,
-5,
-3,
-3,
-4,
-3,
-5,
-4,
-4,
-4,
-3,
-3,
-4,
-3,
-4,
-4,
-4,
-4,
-3,
-3,
-4,
-3,
-5,
-5,
-5,
-5,
-4,
-3,
-5,
-3,
-5,
-4,
-4,
-4,
-4,
-4,
-5,
-3,
-5,
-4,
-4,
-5,
-4,
-3,
-5,
-3,
-4,
-4,
-4,
-4,
-3,
-3,
-5,
-3,
-5,
-4,
-4,
-5,
-4,
-3,
-4,
-3,
-4,
-4,
-4,
-4,
-3,
-3,
-4,
-3,
-4,
-4,
-4,
-4,
-3,
-3,
-4,
-3,
-5,
-5,
-5,
-5,
-4,
-3,
-5,
-3,
-5,
-4,
-4,
-4,
-3,
-3,
-4,
-3,
-4,
-4,
-4,
-4,
-4,
-3,
-5,
-3,
-5,
-4,
-4,
-4,
-4,
-3,
-4,
-3,
-5,
-4,
-4,
-5,
-4,
-3,
-5,
-4,
-5,
-4,
-4,
-4,
-3,
-3,
-4,
-3,
-5,
-4,
-4,
-4,
-3,
-3,
-4,
-3,
-4,
-4,
-4,
-4,
-4,
-3,
-4,
-3,
-5,
-4,
-4,
-5,
-4,
-3,
-4,
-3,
-4,
-4,
-5,
-5,
-3,
-3,
-4,
-3,
-4,
-4,
-4,
-5,
-3,
-3,
-4,
-3,
-5,
-4,
-4,
-4,
-4,
-3,
-5,
-3,
-5,
-4,
-4,
-4,
-3,
-3,
-5,
-3,
-4,
-4,
-4,
-5,
-3,
-3,
-3,
-2,
-4,
-4,
-4,
-4,
-3,
-3,
-4,
-3,
-5,
-4,
-4,
-4,
-4,
-3,
-4,
-3,
-4,
-4,
-4,
-5,
-4,
-3,
-4,
-3,
-5,
-4,
-5,
-5,
-3,
-3,
-4,
-3,
-4,
-4,
-4,
-4,
-4,
-3,
-4,
-3,
-5,
-4,
-4,
-5,
-3,
-3,
-4,
-3,
-4,
-4,
-3,
-4,
-3,
-3,
-4,
-3,
-5,
-4,
-5,
-5,
-4,
-3,
-4,
-3,
-4,
-4,
-5,
-5,
-3,
-3,
-4,
-3,
-5,
-4,
-4,
-4,
-4,
-3,
-4,
-3,
-4,
-4,
-5,
-5,
-3,
-3,
-4,
-3,
-4,
-4,
-4,
-4,
-4,
-3,
-5,
-3,
-5,
-4,
-4,
-5,
-3,
-3,
-5,
-3,
-5,
-5,
-4,
-5,
-4,
-3,
-4,
-3,
-5,
-4,
-4,
-5,
-3,
-3,
-4,
-3,
-5,
-5,
-5,
-5,
-4,
-3,
-5,
-4,
-5,
-4,
-4,
-5,
-4,
-3,
-4,
-3,
-4,
-4,
-4,
-4,
-4,
-3,
-5,
-3,
-5,
-4,
-4,
-4,
-3,
-3,
-4,
-3,
-4,
-4,
-4,
-4,
-3,
-3,
-4,
-3,
-5,
-4,
-5,
-5,
-3,
-3,
-4,
-3,
-5,
-4,
-4,
-4,
-4,
-3,
-4,
-3,
-4,
-4,
-4,
-4,
-4,
-3,
-4,
-3,
-4,
-4,
-4,
-5,
-3,
-3,
-5,
-3,
-5,
-4,
-5,
-5,
-3,
-3,
-4,
-3,
-4,
-4,
-4,
-5,
-4,
-3,
-4,
-3,
-5,
-4,
-4,
-5,
-3,
-3,
-4,
-3,
-5,
-4,
-4,
-4,
-4,
-3,
-5,
-3,
-4,
-4,
-4,
-4,
-4,
-3,
-4,
-3,
-5,
-4,
-4,
-4,
-3,
-3,
-4,
-3,
-5,
-4,
-5,
-5,
-4,
-3,
-4,
-3,
-5,
-5,
-4,
-5,
-4,
-3,
-5,
-4,
-5,
-4,
-4,
-4,
-3,
-3,
-5,
-3,
-5,
-5,
-5,
-5,
-4,
-3,
-4,
-3,
-5,
-4,
-4,
-4,
-3,
-3,
-4,
-3,
-5,
-5,
-4,
-5,
-3,
-3,
-4,
-3,
-5,
-4,
-4,
-5,
-4,
-3,
-4,
-3,
-4,
-4,
-5,
-5,
-3,
-3,
-4,
-3,
-5,
-5,
-4,
-4,
-4,
-3,
-4,
-3,
-4,
-4,
-4,
-4,
-3,
-3,
-5,
-3,
-4,
-4,
-4,
-5,
-4,
-3,
-4,
-3,
-4,
-4,
-3,
-4,
-3,
-2,
-4,
-3,
-4,
-4,
-4,
-4,
-3,
-3,
-4,
-3,
-5,
-4,
-4,
-5,
-3,
-3,
-5,
-3,
-4,
-4,
-5,
-5,
-4,
-3,
-5,
-3,
-5,
-4,
-4,
-5,
-4,
-3,
-5,
-4,
-5,
-5,
-4,
-4,
-3,
-3,
-5,
-3,
-5,
-4,
-4,
-5,
-4,
-3,
-5,
-3,
-4,
-4,
-4,
-5,
-4,
-3,
-5,
-3,
-5,
-4,
-4,
-5,
-4,
-3,
-4,
-3,
-5,
-4,
-5,
-5,
-4,
-3,
-5,
-3,
-5,
-5,
-5,
-5,
-3,
-3,
-4,
-3,
-5,
-4,
-4,
-4,
-3,
-3,
-4,
-3,
-4,
-4,
-4,
-5,
-4,
-3,
-4,
-3,
-5,
-4,
-4,
-4,
-3,
-2,
-4,
-3,
-4,
-4,
-4,
-5,
-4,
-3,
-4,
-3,
-4,
-4,
-5,
-5,
-4,
-3,
-5,
-4,
-5,
-4,
-4,
-4,
-3,
-3,
-4,
-3,
-5,
-4,
-4,
-4,
-4,
-3,
-4,
-3,
-5,
-5,
-4,
-4,
-3,
-3,
-5,
-4,
-5,
-4,
-4,
-4,
-3,
-2,
-4,
-3,
-5,
-4,
-5,
-5,
-4,
-3,
-4,
-3,
-4,
-4,
-4,
-5,
-3,
-2,
-4,
-3,
-5,
-4,
-4,
-4,
-3,
-3,
-5,
-3,
-4,
-4,
-5,
-5,
-3,
-3,
-4,
-3,
-6,
-6,
-4,
-5,
-3,
-3,
-4,
-3,
-4,
-4,
-4,
-5,
-4,
-3,
-4,
-3,
-5,
-4,
-4,
-5,
-4,
-3,
-4,
-3,
-4,
-4,
-4,
-4,
-3,
-3,
-5,
-3,
-5,
-4,
-4,
-4,
-3,
-3,
-5,
-3,
-5,
-4,
-4,
-5,
-4,
-3,
-4,
-3,
-5,
-4,
-4,
-5,
-4,
-3,
-4,
-3,
-5,
-4,
-4,
-5,
-3,
-3,
-5,
-3,
-4,
-4,
-3,
-4,
-4,
-3,
-4,
-3,
-5,
-4,
-4,
-5,
-3,
-3,
-4,
-3,
-4,
-4,
-5,
-5,
-4,
-4,
-5,
-4,
-5,
-5,
-4,
-5,
-4,
-3,
-4,
-3,
-5,
-5,
-5,
-5,
-3,
-3,
-5,
-3,
-5,
-5,
-5,
-5,
-4,
-3,
-5,
-4,
-5,
-5,
-5,
-5,
-4,
-3,
-5,
-3,
-5,
-5,
-5,
-5,
-3,
-3,
-5,
-4,
-5,
-4,
-4,
-5,
-4,
-3,
-4,
-3,
-5,
-4,
-4,
-5,
-4,
-3,
-4,
-3,
-5,
-4,
-5,
-5,
-3,
-3,
-5,
-3,
-5,
-4,
-4,
-5,
-4,
-3,
-4,
-3,
-4,
-4,
-5,
-5,
-4,
-3,
-4,
-3,
-5,
-4,
-4,
-5,
-3,
-3,
-4,
-3,
-5,
-4,
-4,
-4,
-4,
-3,
-4,
-3,
-4,
-4,
-5,
-5,
-3,
-3,
-4,
-3,
-5,
-4,
-4,
-5,
-4,
-3,
-5,
-3,
-5,
-5,
-4,
-5,
-4,
-3,
-4,
-3,
-4,
-4,
-4,
-5,
-4,
-3,
-5,
-4,
-5,
-5,
-4,
-4,
-3,
-3,
-5,
-4,
-4,
-4,
-5,
-5,
-3,
-3,
-4,
-3,
-5,
-4,
-5,
-5,
-4,
-3,
-4,
-3,
-5,
-5,
-5,
-5,
-3,
-3,
-4,
-3,
-5,
-4,
-4,
-4,
-4,
-3,
-4,
-3,
-4,
-4,
-4,
-4,
-4,
-3,
-4,
-3,
-5,
-4,
-4,
-4,
-4,
-3,
-4,
-3,
-5,
-5,
-5,
-5,
-4,
-3,
-5,
-3,
-4,
-4,
-4,
-4,
-3,
-3,
-4,
-3,
-4,
-4,
-4,
-5,
-4,
-3,
-5,
-3,
-5,
-4,
-4,
-5,
-4,
-3,
-4,
-3,
-5,
-4,
-3,
-4,
-3,
-3,
-5,
-3,
-4,
-4,
-4,
-5,
-3,
-3,
-4,
-3,
-4,
-4,
-4,
-4,
-4,
-4,
-4,
-3,
-4,
-4,
-4,
-4,
-4,
-3,
-4,
-3,
-4,
-4,
-4,
-4,
-3,
-3,
-5,
-4,
-5,
-4,
-4,
-4,
-3,
-3,
-4,
-3,
-5,
-5,
-4,
-5,
-3,
-3,
-4,
-3,
-4,
-4,
-4,
-5,
-4,
-3,
-4,
-3,
-5,
-4,
-4,
-5,
-3,
-2,
-3,
-2,
-3,
-3,
-4,
-4,
-3,
-3,
-4,
-3,
-4,
-4,
-3,
-4,
-3,
-3,
-4,
-3,
-4,
-4,
-4,
-5,
-3,
-3,
-4,
-3,
-5,
-4,
-5,
-5,
-3,
-3,
-3,
-2,
-4,
-4,
-4,
-4,
-3,
-3,
-5,
-3,
-5,
-4,
-4,
-5,
-3,
-3,
-4,
-3,
-5,
-4,
-4,
-4,
-3,
-3,
-4,
-3,
-3,
-4,
-4,
-5,
-4,
-3,
-5,
-3,
-4,
-4,
-4,
-4,
-3,
-3,
-4,
-4,
-5,
-4,
-5,
-5,
-4,
-3,
-4,
-3,
-5,
-5,
-5,
-5,
-4,
-3,
-4,
-3,
-4,
-4,
-4,
-4,
-2,
-2,
-4,
-3,
-5,
-4,
-5,
-5,
-4,
-3,
-5,
-3,
-5,
-4,
-5,
-5,
-4,
-3,
-4,
-3,
-5,
-4,
-5,
-5,
-4,
-3,
-5,
-4,
-5,
-5,
-4,
-5,
-4,
-4,
-5,
-4,
-5,
-5,
-5,
-6,
-4,
-4,
-5,
-3,
-5,
-4,
-5,
-5,
-4,
-3,
-5,
-4,
-5,
-5,
-5,
-6,
-4,
-3,
-5,
-4,
-5,
-4,
-4,
-4,
-3,
-3,
-4,
-3,
-5,
-5,
-4,
-5,
-4,
-3,
-4,
-3,
-4,
-4,
-3,
-4,
-2,
-1,
-4,
-3,
-2,
-2,
-2,
-2,
-2,
-2,
-3,
-1,
-2,
-2,
-2,
-2,
-1,
-1,
-2,
-1,
-2,
-2,
-2,
-2,
0,
0,
-1,
0,
-1,
0,
0,
0,
1,
1,
0,
1,
1,
1,
2,
2,
2,
2,
2,
3,
2,
2,
2,
2,
4,
4,
4,
5,
4,
4,
4,
4,
5,
6,
5,
6,
6,
6,
7,
6,
7,
7,
7,
8,
8,
8,
8,
8,
10,
10,
9,
10,
9,
9,
10,
10,
11,
11,
11,
12,
12,
12,
12,
12,
13,
14,
12,
13,
13,
12,
12,
12,
14,
15,
14,
16,
15,
16,
15,
14,
16,
16,
16,
16,
15,
16,
16,
16,
18,
18,
17,
18,
18,
18,
18,
18,
18,
18,
18,
19,
18,
18,
18,
18,
19,
19,
17,
18,
18,
19,
18,
18,
18,
18,
18,
18,
18,
18,
19,
18,
18,
19,
18,
19,
18,
18,
18,
18,
19,
19,
18,
19,
18,
18,
18,
18,
19,
19,
17,
18,
18,
18,
18,
18,
18,
18,
17,
17,
16,
16,
18,
18,
18,
18,
16,
17,
17,
18,
18,
18,
18,
18,
17,
17,
16,
17,
16,
16,
18,
18,
16,
17,
17,
17,
17,
16,
17,
17,
16,
17,
15,
16,
16,
16,
17,
17,
16,
17,
16,
16,
15,
15,
17,
17,
15,
17,
15,
16,
15,
14,
16,
16,
15,
16,
15,
16,
15,
14,
16,
16,
15,
16,
14,
14,
15,
14,
15,
15,
14,
15,
14,
14,
14,
13,
15,
15,
14,
15,
13,
13,
13,
13,
14,
15,
12,
13,
13,
13,
13,
13,
14,
14,
12,
13,
12,
12,
12,
12,
14,
14,
12,
13,
12,
12,
12,
12,
13,
13,
13,
13,
11,
12,
12,
11,
13,
13,
10,
11,
11,
12,
11,
10,
12,
12,
10,
11,
11,
11,
11,
10,
11,
11,
10,
11,
11,
11,
11,
11,
11,
11,
10,
11,
10,
11,
11,
10,
11,
11,
10,
11,
10,
10,
10,
10,
10,
10,
9,
10,
9,
9,
9,
8,
9,
9,
8,
9,
9,
9,
9,
8,
9,
9,
8,
9,
8,
8,
9,
8,
9,
8,
7,
7,
8,
8,
8,
8,
8,
8,
8,
9,
7,
8,
8,
8,
8,
8,
7,
8,
8,
8,
8,
8,
8,
8,
6,
7,
6,
6,
7,
6,
7,
7,
7,
8,
6,
6,
7,
6,
7,
7,
6,
7,
7,
7,
7,
6,
7,
7,
6,
7,
6,
6,
6,
6,
7,
7,
6,
7,
5,
5,
6,
5,
6,
6,
5,
6,
5,
5,
6,
6,
6,
6,
5,
6,
5,
5,
5,
4,
6,
6,
5,
5,
5,
5,
5,
4,
5,
5,
5,
6,
4,
4,
5,
5,
6,
6,
4,
5,
4,
4,
4,
4,
5,
4,
4,
5,
3,
4,
3,
3,
4,
4,
4,
5,
4,
4,
3,
3,
4,
5,
4,
5,
3,
4,
4,
3,
4,
4,
3,
5,
3,
3,
3,
3,
4,
4,
2,
3,
3,
3,
3,
2,
4,
4,
2,
3,
3,
3,
3,
3,
4,
4,
2,
3,
3,
3,
3,
2,
3,
4,
2,
3,
2,
2,
2,
2,
3,
3,
2,
3,
2,
2,
3,
2,
3,
3,
2,
3,
2,
2,
3,
2,
3,
3,
2,
3,
2,
2,
2,
2,
2,
2,
2,
3,
2,
2,
2,
2,
3,
3,
2,
3,
2,
2,
2,
2,
2,
2,
2,
3,
1,
1,
1,
1,
2,
2,
1,
2,
2,
2,
2,
2,
2,
2,
1,
2,
1,
1,
1,
0,
2,
2,
1,
2,
2,
2,
1,
0,
2,
2,
1,
2,
0,
0,
1,
0,
2,
2,
1,
2,
1,
1,
1,
0,
1,
1,
1,
2,
0,
0,
1,
0,
1,
1,
0,
1,
1,
1,
1,
0,
1,
1,
0,
1,
0,
0,
1,
0,
0,
1,
0,
1,
0,
0,
0,
0,
2,
2,
0,
1,
0,
0,
1,
0,
1,
1,
0,
1,
0,
0,
0,
0,
1,
1,
0,
1,
0,
0,
0,
-1,
1,
1,
0,
1,
-1,
0,
0,
0,
0,
1,
0,
1,
-1,
-1,
0,
-1,
0,
0,
0,
1,
-1,
0,
0,
0,
1,
1,
0,
1,
0,
0,
0,
0,
0,
0,
-1,
0,
-1,
0,
0,
0,
0,
1,
-1,
0,
-1,
-1,
-1,
-1,
-1,
-1,
-2,
0,
-1,
-1,
-1,
-1,
0,
0,
-1,
0,
0,
0,
-1,
-1,
0,
0,
-2,
0,
-1,
-1,
-2,
-2,
0,
0,
0,
1,
-1,
0,
0,
-1,
0,
0,
-1,
0,
-1,
-1,
-1,
-2,
0,
0,
-1,
1,
-1,
-1,
0,
0,
0,
0,
-1,
0,
-1,
-1,
-1,
-1,
0,
0,
-2,
-1,
-1,
-1,
-1,
-2,
-1,
-1,
-2,
0,
-1,
-1,
-1,
-1,
0,
0,
-1,
0,
-2,
-2,
-2,
-2,
-1,
-1,
-2,
-1,
-1,
-1,
-1,
-2,
-1,
-1,
-2,
-1,
-1,
-1,
-1,
-2,
-1,
-1,
-2,
-1,
-1,
-1,
-2,
-2,
-1,
-1,
-2,
0,
-1,
-1,
-1,
-2,
-1,
-1,
-2,
-1,
-2,
-2,
-1,
-2,
0,
0,
-2,
-1,
-2,
-2,
-1,
-1,
-1,
-1,
-2,
-1,
-2,
-2,
-2,
-2,
-1,
-1,
-2,
0,
-2,
-2,
-2,
-2,
-1,
-1,
-2,
-1,
-1,
-1,
-2,
-2,
-1,
-1,
-2,
-1,
-2,
-2,
-2,
-2,
-1,
-1,
-2,
-1,
-2,
-3,
-2,
-2,
-1,
-1,
-2,
-1,
-2,
-2,
-2,
-2,
-1,
-1,
-3,
-2,
-2,
-2,
-1,
-2,
-1,
-1,
-2,
-1,
-2,
-2,
-2,
-2,
-1,
-1,
-3,
-2,
-2,
-2,
-2,
-2,
0,
0,
-3,
-2,
-3,
-3,
-2,
-2,
-1,
-1,
-2,
-1,
-2,
-2,
-2,
-2,
-1,
-1,
-2,
-1,
-2,
-2,
-2,
-2,
-1,
-1,
-2,
-1,
-2,
-2,
-2,
-2,
-1,
-1,
-2,
-1,
-2,
-2,
-2,
-2,
-1,
0,
-2,
-1,
-2,
-2,
-2,
-2,
-1,
-1,
-2,
-1,
-2,
-3,
-2,
-2,
-1,
-1,
-2,
-1,
-3,
-3,
-2,
-2,
-1,
-1,
-3,
-2,
-2,
-2,
-3,
-3,
-2,
-1,
-3,
-2,
-2,
-2,
-2,
-2,
-1,
-1,
-3,
-2,
-2,
-2,
-3,
-4,
-2,
-1,
-3,
-2,
-2,
-2,
-2,
-2,
-1,
-1,
-3,
-2,
-3,
-4,
-3,
-4,
-3,
-3,
-3,
-2,
-3,
-3,
-2,
-2,
-3,
-3,
-3,
-2,
-3,
-3,
-2,
-2,
-1,
-1,
-3,
-2,
-3,
-3,
-3,
-4,
-2,
-2,
-3,
-2,
-2,
-2,
-2,
-2,
-2,
-2,
-3,
-2,
-3,
-3,
-3,
-4,
-2,
-2,
-4,
-3,
-2,
-2,
-3,
-4,
-1,
-1,
-3,
-2,
-3,
-4,
-3,
-4,
-2,
-2,
-3,
-2,
-4,
-3,
-2,
-2,
-3,
-3,
-3,
-2,
-3,
-3,
-3,
-4,
-2,
-1,
-3,
-2,
-3,
-3,
-3,
-4,
-2,
-2,
-3,
-2,
-2,
-2,
-2,
-2,
-2,
-1,
-3,
-2,
-3,
-4,
-2,
-2,
-2,
-1,
-3,
-2,
-3,
-3,
-3,
-4,
-1,
-1,
-3,
-2,
-3,
-4,
-3,
-4,
-2,
-1,
-3,
-2,
-3,
-4,
-3,
-4,
-2,
-2,
-3,
-2,
-3,
-3,
-3,
-4,
-3,
-2,
-4,
-3,
-3,
-3,
-3,
-4,
-2,
-2,
-3,
-2,
-2,
-3,
-3,
-4,
-3,
-3,
-4,
-3,
-4,
-4,
-3,
-4,
-2,
-1,
-3,
-2,
-3,
-4,
-4,
-4,
-3,
-2,
-3,
-2,
-3,
-3,
-3,
-4,
-2,
-2,
-3,
-2,
-2,
-2,
-3,
-4,
-2,
-1,
-3,
-2,
-4,
-4,
-4,
-5,
-1,
-1,
-4,
-3,
-4,
-4,
-3,
-4,
-2,
-2,
-3,
-2,
-3,
-3,
-3,
-4,
-2,
-1,
-3,
-2,
-3,
-3,
-3,
-4,
-2,
-2,
-3,
-2,
-4,
-4,
-3,
-4,
-3,
-2,
-3,
-2,
-3,
-3,
-2,
-2,
-2,
-2,
-3,
-2,
-4,
-4,
-3,
-4,
-2,
-1,
-3,
-2,
-3,
-3,
-4,
-4,
-3,
-3,
-4,
-3,
-4,
-4,
-4,
-4,
-3,
-2,
-3,
-2,
-3,
-4,
-4,
-4,
-2,
-2,
-4,
-3,
-4,
-4,
-4,
-4,
-3,
-3,
-3,
-2,
-3,
-4,
-4,
-4,
-2,
-2,
-4,
-3,
-4,
-4,
-4,
-4,
-3,
-3,
-4,
-3,
-3,
-4,
-4,
-4,
-3,
-3,
-4,
-3,
-4,
-4,
-4,
-4,
-4,
-3,
-4,
-3,
-3,
-3,
-4,
-4,
-3,
-3,
-3,
-2,
-3,
-4,
-3,
-4,
-3,
-2,
-4,
-3,
-3,
-3,
-3,
-4,
-3,
-3,
-3,
-2,
-3,
-4,
-4,
-4,
-3,
-3,
-4,
-3,
-4,
-3,
-3,
-3,
-3,
-2,
-4,
-3,
-4,
-4,
-4,
-4,
-3,
-3,
-4,
-3,
-4,
-4,
-4,
-4,
-2,
-1,
-3,
-2,
-3,
-3,
-3,
-4,
-3,
-3,
-4,
-3,
-4,
-4,
-4,
-4,
-3,
-2,
-4,
-3,
-5,
-5,
-4,
-5,
-3,
-3,
-3,
-2,
-4,
-4,
-4,
-4,
-3,
-3,
-3,
-2,
-4,
-4,
-4,
-4,
-2,
-2,
-3,
-2,
-4,
-4,
-3,
-4,
-3,
-2,
-3,
-2,
-3,
-4,
-4,
-4,
-3,
-3,
-3,
-2,
-4,
-3,
-3,
-4,
-3,
-3,
-4,
-3,
-4,
-4,
-4,
-5,
-3,
-3,
-3,
-2,
-4,
-4,
-4,
-4,
-3,
-3,
-4,
-3,
-4,
-4,
-4,
-4,
-2,
-2,
-3,
-2,
-4,
-4,
-4,
-5,
-4,
-3,
-4,
-3,
-4,
-4,
-4,
-4,
-3,
-3,
-4,
-3,
-4,
-4,
-4,
-4,
-3,
-3,
-4,
-3,
-4,
-4,
-4,
-4,
-3,
-2,
-3,
-2,
-4,
-5,
-4,
-4,
-3,
-3,
-4,
-3,
-3,
-3,
-3,
-4,
-3,
-2,
-3,
-2,
-3,
-4,
-4,
-4,
-3,
-2,
-4,
-3,
-4,
-4,
-4,
-4,
-3,
-2,
-3,
-2,
-4,
-4,
-4,
-4,
-4,
-3,
-4,
-3,
-4,
-3,
-4,
-5,
-3,
-2,
-4,
-3,
-4,
-4,
-3,
-4,
-3,
-3,
-4,
-2,
-4,
-4,
-4,
-4,
-3,
-2,
-4,
-3,
-4,
-4,
-4,
-4,
-3,
-3,
-4,
-3,
-5,
-4,
-4,
-4,
-3,
-2,
-3,
-2,
-5,
-5,
-4,
-4,
-3,
-3,
-4,
-3,
-3,
-3,
-3,
-4,
-3,
-2,
-4,
-3,
-4,
-4,
-4,
-4,
-3,
-2,
-4,
-3,
-4,
-4,
-4,
-5,
-4,
-3,
-4,
-3,
-5,
-4,
-4,
-5,
-3,
-3,
-4,
-3,
-4,
-4,
-4,
-4,
-3,
-2,
-4,
-3,
-5,
-4,
-4,
-5,
-3,
-3,
-4,
-3,
-5,
-4,
-4,
-4,
-3,
-3,
-4,
-3,
-5,
-4,
-4,
-4,
-3,
-2,
-4,
-3,
-4,
-4,
-4,
-4,
-3,
-3,
-5,
-3,
-5,
-5,
-4,
-4,
-4,
-3,
-4,
-3,
-5,
-4,
-4,
-5,
-3,
-3,
-4,
-3,
-4,
-4,
-4,
-4,
-4,
-3,
-4,
-3,
-4,
-4,
-4,
-5,
-3,
-3,
-4,
-3,
-5,
-4,
-4,
-4,
-3,
-3,
-4,
-3,
-5,
-4,
-4,
-4,
-4,
-3,
-4,
-3,
-4,
-4,
-4,
-5,
-3,
-3,
-4,
-3,
-5,
-4,
-4,
-4,
-3,
-3,
-4,
-3,
-4,
-4,
-4,
-5,
-4,
-3,
-4,
-3,
-4,
-4,
-4,
-4,
-3,
-3,
-4,
-2,
-4,
-4,
-4,
-4,
-3,
-3,
-4,
-3,
-4,
-4,
-4,
-4,
-4,
-4,
-5,
-3,
-5,
-4,
-3,
-4,
-3,
-3,
-5,
-3,
-4,
-4,
-4,
-4,
-3,
-3,
-4,
-3,
-4,
-4,
-4,
-4,
-3,
-2,
-4,
-3,
-5,
-4,
-4,
-4,
-3,
-2,
-4,
-3,
-5,
-4,
-4,
-5,
-3,
-3,
-4,
-3,
-3,
-4,
-4,
-4,
-3,
-3,
-5,
-3,
-4,
-4,
-4,
-4,
-3,
-3,
-4,
-3,
-5,
-5,
-4,
-5,
-4,
-3,
-5,
-3,
-5,
-4,
-4,
-4,
-3,
-3,
-3,
-2,
-4,
-4,
-3,
-4,
-3,
-3,
-4,
-3,
-4,
-4,
-5,
-5,
-3,
-3,
-4,
-3,
-4,
-4,
-4,
-4,
-4,
-3,
-5,
-3,
-5,
-4,
-4,
-4,
-3,
-3,
-4,
-3,
-3,
-4,
-4,
-4,
-3,
-3,
-4,
-3,
-4,
-4,
-4,
-5,
-3,
-3,
-5,
-3,
-4,
-4,
-4,
-4,
-3,
-3,
-4,
-3,
-5,
-4,
-4,
-5,
-4,
-3,
-4,
-3,
-3,
-3,
-4,
-4,
-3,
-3,
-4,
-3,
-4,
-4,
-4,
-4,
-3,
-3,
-4,
-3,
-5,
-5,
-4,
-5,
-3,
-3,
-4,
-3,
-4,
-4,
-4,
-4,
-3,
-3,
-4,
-3,
-5,
-4,
-3,
-4,
-3,
-3,
-4,
-3,
-5,
-4,
-4,
-4,
-3,
-3,
-4,
-3,
-5,
-4,
-4,
-5,
-3,
-3,
-4,
-3,
-4,
-4,
-4,
-5,
-3,
-3,
-4,
-3,
-5,
-5,
-4,
-5,
-4,
-3,
-4,
-3,
-5,
-4,
-4,
-4,
-3,
-3,
-5,
-3,
-5,
-5,
-4,
-5,
-4,
-3,
-4,
-3,
-4,
-4,
-4,
-4,
-3,
-3,
-5,
-3,
-4,
-4,
-4,
-4,
-4,
-3,
-4,
-3,
-5,
-4,
-4,
-5,
-3,
-3,
-4,
-3,
-4,
-4,
-5,
-5,
-4,
-3,
-4,
-3,
-5,
-4,
-4,
-4,
-3,
-3,
-5,
-3,
-3,
-4,
-5,
-5,
-3,
-3,
-4,
-3,
-4,
-4,
