Waveforms/SiPM_20/DS431.CSV

Memory Length,4000,
Trigger Level,2.40000e+01,
Source,CH1,
Probe,1.0X,
Vertical Units,V,
Vertical Scale,1.00000e-01,
Vertical Position,-3.52000e-01,
Horizontal Units,S,
Horizontal Scale,1.00000e-07,
Horizontal Position,-1.6000000e-08,
Horizontal Mode,Main,
Sampling Period,1.00000e-09,
Firmware,V1.14,
Time, ,
Mode,Fast,
Waveform Data,
-5,
-4,
-5,
-3,
-3,
-4,
-3,
-5,
-4,
-5,
-5,
-4,
-3,
-4,
-3,
-5,
-4,
-4,
-5,
-4,
-3,
-4,
-3,
-4,
-4,
-4,
-5,
-3,
-3,
-5,
-4,
-5,
-4,
-4,
-4,
-4,
-3,
-5,
-3,
-4,
-4,
-4,
-5,
-3,
-3,
-4,
-3,
-5,
-4,
-4,
-4,
-3,
-3,
-4,
-3,
-4,
-4,
-5,
-5,
-3,
-3,
-4,
-3,
-4,
-3,
-4,
-4,
-3,
-3,
-5,
-3,
-4,
-4,
-4,
-5,
-3,
-3,
-4,
-3,
-5,
-4,
-4,
-4,
-4,
-3,
-4,
-3,
-4,
-4,
-5,
-5,
-4,
-3,
-4,
-3,
-5,
-4,
-4,
-5,
-3,
-3,
-4,
-3,
-4,
-4,
-4,
-5,
-4,
-3,
-4,
-3,
-5,
-4,
-4,
-5,
-4,
-3,
-4,
-3,
-4,
-4,
-4,
-5,
-3,
-3,
-4,
-3,
-5,
-5,
-4,
-4,
-4,
-3,
-4,
-3,
-4,
-4,
-4,
-5,
-3,
-3,
-5,
-3,
-5,
-4,
-4,
-4,
-4,
-3,
-4,
-3,
-5,
-4,
-4,
-4,
-3,
-2,
-5,
-3,
-4,
-4,
-4,
-5,
-3,
-3,
-4,
-3,
-5,
-4,
-4,
-4,
-3,
-3,
-5,
-3,
-5,
-5,
-5,
-5,
-3,
-3,
-4,
-3,
-5,
-4,
-4,
-5,
-4,
-3,
-5,
-3,
-5,
-5,
-5,
-5,
-3,
-3,
-5,
-3,
-5,
-4,
-4,
-5,
-4,
-3,
-5,
-4,
-5,
-4,
-4,
-4,
-3,
-3,
-4,
-3,
-4,
-4,
-4,
-5,
-4,
-3,
-4,
-3,
-5,
-4,
-4,
-5,
-3,
-3,
-3,
-2,
-3,
-4,
-4,
-5,
-3,
-3,
-4,
-3,
-5,
-4,
-4,
-4,
-3,
-3,
-5,
-4,
-4,
-4,
-4,
-4,
-3,
-3,
-4,
-3,
-4,
-4,
-5,
-5,
-4,
-3,
-4,
-3,
-4,
-4,
-4,
-4,
-3,
-3,
-4,
-3,
-4,
-4,
-4,
-4,
-3,
-2,
-4,
-3,
-5,
-4,
-5,
-5,
-3,
-3,
-5,
-3,
-4,
-4,
-4,
-4,
-3,
-2,
-4,
-3,
-3,
-4,
-3,
-4,
-3,
-3,
-4,
-3,
-4,
-4,
-4,
-5,
-3,
-3,
-4,
-3,
-4,
-4,
-4,
-4,
-4,
-3,
-4,
-3,
-3,
-3,
-3,
-4,
-3,
-3,
-4,
-3,
-5,
-4,
-4,
-5,
-3,
-3,
-4,
-3,
-5,
-4,
-4,
-5,
-4,
-3,
-4,
-3,
-4,
-4,
-4,
-4,
-3,
-3,
-4,
-3,
-5,
-4,
-4,
-5,
-3,
-3,
-4,
-3,
-4,
-4,
-4,
-5,
-4,
-4,
-5,
-3,
-5,
-4,
-4,
-4,
-3,
-3,
-5,
-3,
-5,
-4,
-4,
-4,
-3,
-3,
-4,
-3,
-4,
-4,
-4,
-5,
-4,
-3,
-5,
-3,
-4,
-4,
-4,
-4,
-3,
-3,
-4,
-3,
-6,
-6,
-5,
-5,
-4,
-3,
-4,
-3,
-4,
-4,
-4,
-5,
-3,
-3,
-4,
-3,
-5,
-4,
-5,
-6,
-4,
-3,
-5,
-3,
-5,
-4,
-5,
-5,
-3,
-3,
-4,
-3,
-5,
-4,
-4,
-5,
-4,
-3,
-4,
-3,
-4,
-4,
-4,
-4,
-3,
-3,
-4,
-3,
-4,
-4,
-5,
-5,
-4,
-3,
-4,
-3,
-5,
-5,
-4,
-5,
-3,
-3,
-4,
-3,
-4,
-4,
-4,
-4,
-3,
-3,
-4,
-3,
-5,
-4,
-4,
-4,
-3,
-2,
-4,
-3,
-4,
-4,
-4,
-4,
-3,
-3,
-4,
-3,
-4,
-4,
-4,
-5,
-4,
-3,
-4,
-3,
-5,
-4,
-5,
-5,
-3,
-3,
-4,
-3,
-4,
-4,
-4,
-5,
-3,
-3,
-4,
-3,
-5,
-5,
-4,
-5,
-3,
-3,
-5,
-3,
-4,
-4,
-4,
-5,
-4,
-3,
-4,
-3,
-5,
-5,
-5,
-5,
-4,
-3,
-4,
-3,
-4,
-4,
-4,
-5,
-3,
-3,
-4,
-3,
-5,
-4,
-4,
-5,
-4,
-3,
-4,
-3,
-5,
-4,
-4,
-5,
-3,
-3,
-5,
-3,
-5,
-4,
-5,
-5,
-3,
-3,
-4,
-3,
-5,
-5,
-4,
-5,
-3,
-3,
-4,
-3,
-5,
-4,
-5,
-5,
-4,
-3,
-4,
-3,
-5,
-4,
-4,
-4,
-3,
-3,
-4,
-3,
-4,
-4,
-4,
-5,
-3,
-3,
-4,
-3,
-4,
-4,
-4,
-4,
-4,
-3,
-4,
-3,
-4,
-4,
-4,
-4,
-3,
-3,
-4,
-3,
-5,
-5,
-4,
-4,
-3,
-3,
-4,
-3,
-4,
-4,
-4,
-5,
-3,
-3,
-4,
-3,
-4,
-4,
-4,
-5,
-3,
-3,
-5,
-4,
-5,
-4,
-4,
-4,
-3,
-3,
-4,
-3,
-4,
-4,
-4,
-5,
-3,
-3,
-4,
-3,
-5,
-4,
-4,
-4,
-3,
-3,
-4,
-3,
-4,
-4,
-4,
-4,
-3,
-3,
-4,
-3,
-4,
-4,
-4,
-4,
-4,
-3,
-4,
-3,
-5,
-4,
-4,
-5,
-3,
-3,
-4,
-3,
-4,
-4,
-5,
-5,
-4,
-3,
-4,
-3,
-4,
-4,
-4,
-4,
-3,
-3,
-4,
-3,
-5,
-4,
-4,
-5,
-3,
-3,
-4,
-3,
-5,
-4,
-4,
-5,
-3,
-3,
-4,
-3,
-3,
-4,
-4,
-4,
-3,
-3,
-4,
-3,
-4,
-4,
-5,
-5,
-4,
-3,
-4,
-3,
-4,
-4,
-4,
-4,
-4,
-3,
-4,
-3,
-4,
-4,
-5,
-5,
-3,
-3,
-4,
-3,
-5,
-4,
-4,
-4,
-3,
-3,
-4,
-3,
-5,
-5,
-4,
-4,
-3,
-3,
-4,
-3,
-4,
-4,
-4,
-4,
-3,
-3,
-4,
-3,
-4,
-4,
-4,
-4,
-3,
-3,
-4,
-3,
-4,
-4,
-4,
-5,
-4,
-3,
-4,
-3,
-4,
-4,
-4,
-5,
-3,
-3,
-4,
-3,
-4,
-4,
-4,
-4,
-3,
-3,
-4,
-3,
-5,
-4,
-4,
-4,
-3,
-3,
-4,
-3,
-5,
-4,
-5,
-5,
-3,
-3,
-5,
-4,
-5,
-4,
-4,
-4,
-3,
-3,
-4,
-3,
-4,
-4,
-4,
-5,
-4,
-3,
-4,
-3,
-4,
-4,
-5,
-5,
-3,
-3,
-4,
-3,
-4,
-4,
-4,
-4,
-3,
-3,
-4,
-3,
-4,
-4,
-4,
-4,
-3,
-3,
-5,
-3,
-4,
-4,
-4,
-4,
-3,
-3,
-4,
-3,
-5,
-4,
-4,
-4,
-3,
-2,
-4,
-3,
-3,
-4,
-4,
-4,
-4,
-3,
-4,
-3,
-5,
-4,
-5,
-5,
-3,
-3,
-5,
-3,
-5,
-4,
-5,
-5,
-4,
-3,
-4,
-3,
-4,
-4,
-4,
-4,
-3,
-3,
-4,
-3,
-5,
-4,
-4,
-5,
-3,
-3,
-5,
-3,
-5,
-4,
-4,
-5,
-4,
-3,
-4,
-3,
-4,
-4,
-4,
-5,
-4,
-3,
-4,
-3,
-4,
-4,
-4,
-4,
-3,
-3,
-4,
-3,
-4,
-4,
-4,
-5,
-4,
-3,
-4,
-3,
-5,
-5,
-4,
-4,
-3,
-3,
-4,
-3,
-4,
-4,
-4,
-4,
-3,
-3,
-4,
-3,
-5,
-4,
-4,
-4,
-3,
-3,
-4,
-3,
-4,
-4,
-4,
-5,
-3,
-3,
-4,
-3,
-5,
-4,
-5,
-5,
-4,
-3,
-4,
-3,
-4,
-4,
-4,
-5,
-3,
-3,
-4,
-3,
-5,
-4,
-4,
-5,
-4,
-3,
-4,
-3,
-5,
-4,
-4,
-5,
-3,
-3,
-4,
-3,
-5,
-4,
-5,
-5,
-4,
-3,
-4,
-3,
-5,
-4,
-4,
-4,
-3,
-3,
-4,
-3,
-5,
-5,
-5,
-5,
-3,
-3,
-5,
-3,
-5,
-4,
-4,
-5,
-3,
-3,
-5,
-3,
-5,
-4,
-4,
-4,
-3,
-3,
-5,
-3,
-5,
-4,
-4,
-4,
-3,
-3,
-4,
-3,
-4,
-4,
-4,
-5,
-3,
-3,
-5,
-4,
-5,
-5,
-4,
-4,
-3,
-3,
-4,
-3,
-5,
-4,
-4,
-5,
-3,
-3,
-4,
-3,
-5,
-4,
-4,
-4,
-4,
-3,
-5,
-4,
-5,
-4,
-4,
-4,
-4,
-3,
-4,
-3,
-5,
-4,
-4,
-4,
-3,
-3,
-4,
-3,
-5,
-4,
-4,
-4,
-3,
-3,
-4,
-3,
-5,
-4,
-4,
-4,
-3,
-3,
-4,
-3,
-4,
-3,
-3,
-4,
-3,
-3,
-4,
-3,
-5,
-4,
-5,
-5,
-4,
-3,
-4,
-3,
-4,
-4,
-4,
-5,
-3,
-3,
-5,
-3,
-5,
-4,
-4,
-4,
-3,
-3,
-5,
-3,
-5,
-4,
-4,
-4,
-3,
-2,
-4,
-3,
-5,
-4,
-4,
-4,
-4,
-3,
-5,
-3,
-4,
-4,
-4,
-4,
-3,
-3,
-4,
-3,
-5,
-5,
-5,
-5,
-4,
-3,
-4,
-3,
-5,
-4,
-5,
-5,
-3,
-3,
-4,
-3,
-6,
-6,
-5,
-5,
-3,
-3,
-4,
-3,
-5,
-4,
-4,
-5,
-3,
-3,
-4,
-3,
-4,
-4,
-5,
-5,
-4,
-3,
-4,
-3,
-4,
-4,
-4,
-4,
-3,
-3,
-5,
-3,
-4,
-4,
-5,
-5,
-3,
-3,
-5,
-3,
-4,
-4,
-4,
-4,
-3,
-3,
-5,
-4,
-5,
-5,
-4,
-5,
-3,
-3,
-4,
-3,
-5,
-4,
-4,
-4,
-3,
-3,
-4,
-3,
-4,
-4,
-5,
-5,
-3,
-3,
-4,
-3,
-5,
-4,
-4,
-4,
-3,
-3,
-4,
-3,
-5,
-4,
-4,
-4,
-3,
-3,
-4,
-3,
-5,
-4,
-4,
-5,
-3,
-3,
-4,
-3,
-5,
-4,
-4,
-4,
-3,
-3,
-5,
-3,
-5,
-4,
-4,
-4,
-4,
-3,
-4,
-3,
-4,
-4,
-4,
-5,
-4,
-3,
-4,
-3,
-5,
-4,
-4,
-4,
-3,
-3,
-5,
-4,
-5,
-5,
-5,
-5,
-3,
-3,
-4,
-3,
-5,
-5,
-5,
-5,
-4,
-3,
-4,
-3,
-5,
-4,
-4,
-5,
-4,
-4,
-5,
-3,
-5,
-4,
-4,
-4,
-3,
-3,
-4,
-3,
-4,
-4,
-4,
-4,
-3,
-3,
-4,
-3,
-5,
-4,
-4,
-5,
-3,
-3,
-5,
-4,
-5,
-4,
-5,
-5,
-4,
-3,
-4,
-3,
-5,
-5,
-4,
-5,
-3,
-3,
-4,
-3,
-4,
-4,
-4,
-4,
-3,
-3,
-4,
-3,
-5,
-5,
-5,
-5,
-4,
-3,
-4,
-3,
-4,
-4,
-5,
-5,
-4,
-3,
-5,
-3,
-4,
-4,
-5,
-5,
-3,
-3,
-4,
-3,
-4,
-4,
-4,
-5,
-3,
-3,
-4,
-3,
-5,
-4,
-4,
-5,
-4,
-3,
-4,
-3,
-4,
-4,
-4,
-4,
-3,
-3,
-4,
-3,
-4,
-4,
-4,
-4,
-3,
-3,
-4,
-3,
-4,
-4,
-4,
-4,
-2,
-2,
-4,
-3,
-5,
-4,
-4,
-4,
-3,
-2,
-4,
-3,
-5,
-4,
-5,
-5,
-4,
-3,
-5,
-3,
-4,
-4,
-3,
-4,
-3,
-3,
-4,
-3,
-5,
-4,
-5,
-5,
-4,
-3,
-5,
-3,
-5,
-4,
-4,
-4,
-4,
-3,
-4,
-3,
-4,
-4,
-4,
-4,
-3,
-3,
-5,
-3,
-5,
-4,
-4,
-5,
-3,
-3,
-4,
-3,
-4,
-4,
-5,
-5,
-4,
-3,
-5,
-3,
-5,
-5,
-4,
-5,
-3,
-3,
-4,
-3,
-5,
-4,
-4,
-4,
-3,
-3,
-4,
-3,
-4,
-4,
-4,
-5,
-4,
-3,
-4,
-3,
-5,
-4,
-4,
-5,
-3,
-3,
-4,
-3,
-4,
-4,
-4,
-4,
-4,
-3,
-4,
-3,
-4,
-4,
-4,
-5,
-3,
-3,
-4,
-3,
-5,
-5,
-4,
-4,
-3,
-3,
-5,
-3,
-5,
-4,
-4,
-4,
-3,
-3,
-4,
-3,
-4,
-4,
-4,
-4,
-3,
-3,
-4,
-3,
-4,
-4,
-3,
-4,
-3,
-3,
-4,
-3,
-4,
-4,
-4,
-5,
-4,
-4,
-5,
-3,
-5,
-4,
-4,
-4,
-3,
-3,
-3,
-2,
-4,
-4,
-4,
-4,
-3,
-3,
-5,
-3,
-5,
-5,
-4,
-4,
-3,
-3,
-4,
-3,
-5,
-5,
-4,
-5,
-3,
-3,
-5,
-3,
-5,
-5,
-4,
-4,
-3,
-3,
-5,
-4,
-5,
-4,
-4,
-5,
-4,
-3,
-5,
-3,
-5,
-5,
-5,
-5,
-3,
-3,
-5,
-3,
-5,
-5,
-5,
-5,
-3,
-3,
-4,
-3,
-5,
-4,
-4,
-5,
-4,
-3,
-4,
-3,
-4,
-4,
-4,
-4,
-3,
-3,
-4,
-3,
-4,
-4,
-4,
-5,
-3,
-3,
-4,
-3,
-4,
-4,
-4,
-5,
-3,
-3,
-4,
-3,
-4,
-4,
-4,
-5,
-4,
-3,
-4,
-3,
-5,
-4,
-4,
-5,
-3,
-3,
-4,
-3,
-5,
-5,
-4,
-5,
-4,
-3,
-4,
-3,
-5,
-4,
-4,
-5,
-3,
-3,
-5,
-4,
-5,
-4,
-4,
-5,
-3,
-3,
-5,
-3,
-5,
-4,
-4,
-5,
-4,
-3,
-4,
-3,
-5,
-4,
-4,
-5,
-3,
-3,
-4,
-3,
-5,
-4,
-4,
-5,
-3,
-3,
-4,
-3,
-4,
-4,
-4,
-4,
-3,
-3,
-5,
-3,
-5,
-4,
-4,
-5,
-4,
-3,
-4,
-3,
-5,
-4,
-5,
-5,
-4,
-3,
-4,
-3,
-4,
-4,
-4,
-5,
-4,
-3,
-5,
-3,
-5,
-4,
-4,
-5,
-3,
-3,
-4,
-3,
-4,
-4,
-5,
-5,
-3,
-3,
-4,
-3,
-5,
-4,
-4,
-5,
-3,
-3,
-4,
-3,
-4,
-4,
-4,
-4,
-3,
-3,
-4,
-3,
-5,
-4,
-5,
-5,
-4,
-3,
-4,
-3,
-4,
-4,
-4,
-4,
-3,
-3,
-4,
-3,
-5,
-4,
-4,
-4,
-4,
-3,
-4,
-3,
-5,
-4,
-5,
-5,
-3,
-3,
-4,
-3,
-5,
-4,
-4,
-5,
-4,
-3,
-5,
-3,
-5,
-5,
-5,
-5,
-4,
-4,
-6,
-5,
-5,
-5,
-5,
-6,
-4,
-4,
-5,
-4,
-5,
-5,
-5,
-5,
-4,
-3,
-5,
-3,
-4,
-4,
-4,
-5,
-3,
-3,
-4,
-3,
-3,
-3,
-3,
-4,
-2,
-1,
-2,
-1,
-2,
-2,
-1,
-1,
0,
0,
0,
1,
0,
0,
0,
0,
1,
1,
0,
1,
0,
0,
0,
0,
1,
1,
-2,
-1,
-2,
-2,
-3,
-4,
-3,
-2,
-4,
-3,
-5,
-5,
-5,
-6,
-5,
-5,
-6,
-5,
-7,
-7,
-6,
-7,
-6,
-5,
-7,
-6,
-7,
-7,
-8,
-9,
-8,
-8,
-10,
-9,
-9,
-9,
-9,
-10,
-9,
-9,
-9,
-7,
-9,
-9,
-8,
-8,
-6,
-5,
-6,
-5,
-6,
-5,
-5,
-5,
-3,
-3,
-4,
-3,
-3,
-3,
-4,
-4,
-2,
-2,
-3,
-2,
-2,
-2,
-1,
-1,
-1,
-1,
-1,
0,
-1,
-1,
0,
-1,
1,
1,
0,
1,
1,
1,
0,
0,
1,
1,
0,
1,
1,
1,
0,
0,
1,
1,
-1,
-1,
-3,
-4,
-4,
-4,
-3,
-3,
-4,
-3,
-5,
-5,
-5,
-6,
-4,
-4,
-6,
-5,
-5,
-5,
-5,
-6,
-5,
-4,
-6,
-5,
-6,
-5,
-5,
-6,
-5,
-5,
-6,
-5,
-6,
-7,
-6,
-6,
-5,
-5,
-6,
-5,
-6,
-6,
-5,
-6,
-4,
-3,
-4,
-3,
-4,
-4,
-4,
-4,
-2,
-2,
-3,
-2,
-2,
-2,
-2,
-2,
-1,
-1,
-2,
-1,
-3,
-3,
-3,
-4,
-1,
-1,
-3,
-2,
-2,
-2,
-3,
-4,
-2,
-2,
-3,
-2,
-4,
-4,
-4,
-4,
-2,
-1,
-4,
-3,
-3,
-4,
-5,
-5,
-3,
-3,
-4,
-3,
-5,
-4,
-4,
-5,
-3,
-3,
-6,
-5,
-5,
-4,
-5,
-5,
-4,
-4,
-4,
-2,
-5,
-5,
-4,
-4,
-3,
-2,
-3,
-2,
-4,
-4,
-4,
-5,
-2,
-2,
-3,
-2,
-2,
-2,
-3,
-4,
-3,
-2,
-3,
-2,
-2,
-2,
-2,
-2,
-2,
-1,
-2,
-1,
-3,
-3,
-3,
-4,
-2,
-2,
-3,
-3,
-3,
-4,
-4,
-4,
-3,
-3,
-4,
-3,
-5,
-4,
-5,
-5,
-4,
-3,
-4,
-3,
-4,
-4,
-5,
-5,
-4,
-4,
-6,
-5,
-5,
-5,
-5,
-5,
-3,
-3,
-5,
-3,
-5,
-5,
-4,
-5,
-4,
-3,
-4,
-3,
-4,
-4,
-4,
-5,
-3,
-2,
-3,
-2,
-4,
-4,
-2,
-2,
-1,
-1,
-2,
-1,
-3,
-3,
-2,
-2,
-1,
-1,
-2,
-1,
-2,
-2,
-2,
-3,
-2,
-1,
-3,
-3,
-3,
-3,
-4,
-4,
-2,
-2,
-3,
-2,
-4,
-4,
-4,
-4,
-3,
-3,
-4,
-3,
-4,
-4,
-4,
-5,
-2,
-2,
-4,
-3,
-5,
-4,
-4,
-5,
-4,
-4,
-4,
-3,
-5,
-5,
-4,
-5,
-4,
-3,
-4,
-3,
-5,
-5,
-4,
-4,
-3,
-3,
-3,
-2,
-3,
-3,
-4,
-5,
-3,
-3,
-4,
-3,
-4,
-4,
-3,
-4,
-3,
-3,
-3,
-2,
-3,
-3,
-3,
-4,
-2,
-2,
-3,
-2,
-4,
-3,
-3,
-4,
-2,
-2,
-4,
-3,
-3,
-3,
-3,
-4,
-3,
-3,
-4,
-3,
-3,
-4,
-4,
-5,
-3,
-3,
-4,
-3,
-5,
-4,
-4,
-5,
-3,
-3,
-4,
-3,
-5,
-4,
-5,
-5,
-3,
-3,
-4,
-3,
-5,
-4,
-4,
-4,
-3,
-3,
-4,
-3,
-4,
-4,
-4,
-5,
-4,
-3,
-4,
-3,
-4,
-4,
-3,
-3,
-2,
-2,
-3,
-2,
-3,
-3,
-3,
-4,
-3,
-2,
-4,
-3,
-4,
-4,
-3,
-4,
-2,
-2,
-4,
-3,
-4,
-4,
-4,
-4,
-3,
-3,
-4,
-3,
-4,
-4,
-4,
-4,
-3,
-3,
-4,
-3,
-3,
-4,
-4,
-4,
-3,
-3,
-4,
-3,
-5,
-4,
-5,
-5,
-3,
-3,
-4,
-3,
-4,
-4,
-4,
-4,
-4,
-3,
-4,
-3,
-4,
-4,
-4,
-5,
-3,
-3,
-4,
-3,
-4,
-4,
-4,
-4,
-3,
-3,
-4,
-3,
-4,
-4,
-4,
-4,
-3,
-2,
-3,
-2,
-3,
-3,
-4,
-4,
-3,
-3,
-4,
-3,
-4,
-4,
-3,
-4,
-3,
-3,
-4,
-3,
-4,
-4,
-4,
-5,
-3,
-3,
-4,
-3,
-4,
-4,
-4,
-4,
-3,
-3,
-4,
-3,
-5,
-5,
-5,
-5,
-4,
-3,
-4,
-3,
-4,
-4,
-4,
-5,
-4,
-3,
-4,
-3,
-5,
-4,
-4,
-4,
-3,
-3,
-5,
-3,
-5,
-4,
-4,
-4,
-3,
-3,
-4,
-3,
-5,
-4,
-4,
-4,
-3,
-3,
-4,
-3,
-4,
-4,
-3,
-4,
-3,
-3,
-4,
-3,
-4,
-4,
-3,
-4,
-3,
-3,
-4,
-3,
-5,
-4,
-4,
-5,
-3,
-3,
-4,
-3,
-4,
-4,
-4,
-4,
-3,
-3,
-4,
-3,
-4,
-4,
-4,
-5,
-3,
-3,
-4,
-3,
-5,
-4,
-4,
-5,
-3,
-3,
-4,
-3,
-4,
-4,
-4,
-5,
-4,
-3,
-4,
-3,
-5,
-5,
-5,
-5,
-3,
-2,
-4,
-3,
-5,
-5,
-4,
-4,
-3,
-3,
-4,
-3,
-3,
-4,
-4,
-4,
-3,
-3,
-4,
-3,
-4,
-4,
-4,
-4,
-4,
-3,
-4,
-3,
-5,
-4,
-4,
-5,
-4,
-3,
-4,
-3,
-5,
-5,
-4,
-4,
-3,
-3,
-5,
-4,
-5,
-4,
-5,
-5,
-3,
-3,
-4,
-3,
-5,
-5,
-4,
-5,
-4,
-3,
-4,
-3,
-5,
-4,
-5,
-5,
-4,
-3,
-4,
-3,
-5,
-4,
-4,
-5,
-3,
-3,
-4,
-3,
-4,
-4,
-4,
-4,
-4,
-3,
-4,
-3,
-4,
-4,
-4,
-4,
-3,
-3,
-4,
-3,
-5,
-4,
-4,
-5,
-3,
-3,
-4,
-3,
-4,
-4,
-4,
-4,
-3,
-3,
-3,
-2,
-4,
-4,
-4,
-5,
-3,
-3,
-4,
-3,
-5,
-4,
-4,
-5,
-4,
-3,
-4,
-3,
-4,
-4,
-4,
-4,
-4,
-3,
-5,
-3,
-5,
-5,
-4,
-5,
-3,
-3,
-5,
-4,
-5,
-4,
-4,
-4,
-3,
-3,
-4,
-3,
-4,
-4,
-4,
-4,
-3,
-3,
-4,
-3,
-5,
-4,
-5,
-5,
-4,
-3,
-5,
-3,
-4,
-4,
-4,
-5,
-4,
-3,
-4,
-3,
-4,
-3,
-4,
-4,
-4,
-3,
-4,
-3,
-4,
-4,
-3,
-4,
-2,
-2,
-4,
-3,
-4,
-4,
-4,
-4,
-3,
-3,
-5,
-3,
-4,
-4,
-4,
-4,
-3,
-3,
-4,
-3,
-5,
-5,
-4,
-4,
-4,
-3,
-4,
-3,
-4,
-4,
-4,
-4,
-3,
-3,
-4,
-3,
-4,
-4,
-4,
-5,
-4,
-3,
-4,
-3,
-4,
-4,
-4,
-4,
-3,
-3,
-4,
-3,
-4,
-4,
-4,
-4,
-4,
-3,
-4,
-3,
-5,
-4,
-4,
-5,
-3,
-3,
-4,
-3,
-4,
-4,
-3,
-4,
-3,
-3,
-4,
-3,
-4,
-4,
-4,
-5,
-4,
-3,
-4,
-3,
-4,
-4,
-5,
-5,
-4,
-3,
-4,
-3,
-5,
-5,
-5,
-5,
-4,
-3,
-4,
-3,
-4,
-4,
-4,
-5,
-3,
-3,
-4,
-3,
-5,
-5,
-5,
-5,
-3,
-3,
-5,
-4,
-5,
-4,
-4,
-4,
-3,
-3,
-4,
-3,
-5,
-4,
-4,
-4,
-4,
-3,
-4,
-3,
-5,
-4,
-4,
-5,
-3,
-3,
-4,
-3,
-5,
-4,
-4,
-4,
-4,
-3,
-4,
-3,
-4,
-3,
-4,
-4,
-3,
-3,
-4,
-3,
-4,
-4,
-4,
-4,
-3,
-2,
-4,
-3,
-5,
-4,
-4,
-4,
-3,
-3,
-4,
-3,
-4,
-4,
-4,
-4,
-3,
-3,
-4,
-3,
-4,
-4,
-4,
-5,
-3,
-2,
-4,
-3,
-4,
-4,
-4,
-5,
-3,
-3,
-5,
-3,
-5,
-4,
-3,
-4,
-3,
-3,
-4,
-3,
-5,
-4,
-4,
-4,
-3,
-3,
-5,
-3,
-5,
-4,
-4,
-5,
-4,
-3,
-3,
-2,
-3,
-4,
-3,
-4,
-3,
-3,
-4,
-3,
-5,
-4,
-4,
-5,
-4,
-3,
-4,
-3,
-4,
-4,
-4,
-4,
-3,
-3,
-4,
-3,
-4,
-4,
-4,
-5,
-3,
-3,
-4,
-3,
-4,
-4,
-4,
-4,
-3,
-3,
-4,
-3,
-4,
-4,
-4,
-5,
-4,
-3,
-5,
-3,
-5,
-4,
-4,
-4,
-3,
-2,
-4,
-3,
-4,
-4,
-5,
-5,
-4,
-3,
-4,
-3,
-5,
-4,
-4,
-4,
-3,
-3,
-4,
-3,
-5,
-4,
-4,
-5,
-3,
-3,
-4,
-3,
-5,
-4,
-4,
-4,
-4,
-3,
-5,
-3,
-5,
-5,
-4,
-4,
-4,
-3,
-4,
-3,
-4,
-4,
-4,
-5,
-3,
-3,
-4,
-3,
-4,
-4,
-3,
-4,
-3,
-3,
-4,
-3,
-4,
-4,
-4,
-5,
-3,
-3,
-4,
-3,
-5,
-4,
-4,
-5,
-3,
-3,
-5,
-4,
-5,
-4,
-4,
-4,
-3,
-3,
-4,
-3,
-4,
-4,
-4,
-5,
-4,
-3,
-4,
-3,
-5,
-5,
-5,
-5,
-3,
-2,
-4,
-3,
-5,
-4,
-4,
-5,
-3,
-3,
-4,
-3,
-4,
-4,
-4,
-4,
-3,
-3,
-5,
-3,
-4,
-4,
-5,
-5,
-3,
-3,
-5,
-3,
-5,
-4,
-4,
-4,
-3,
-2,
-4,
-3,
-5,
-5,
-4,
-5,
-3,
-3,
-4,
-3,
-5,
-4,
-4,
-5,
-3,
-3,
-4,
-3,
-4,
-4,
-5,
-5,
-3,
-2,
-4,
-3,
-4,
-4,
-4,
-4,
-3,
-3,
-4,
-3,
-5,
-4,
-4,
-4,
-4,
-3,
-4,
-3,
-4,
-4,
-5,
-6,
-4,
-3,
-4,
-3,
-5,
-5,
-4,
-5,
-3,
-3,
-4,
-3,
-5,
-5,
-4,
-5,
-3,
-3,
-5,
-3,
-5,
-4,
-4,
-5,
-4,
-3,
-4,
-3,
-5,
-4,
-5,
-5,
-3,
-3,
-4,
-3,
-4,
-4,
-4,
-4,
-3,
-3,
-5,
-4,
-4,
-4,
-4,
-4,
-3,
-3,
-4,
-3,
-5,
-4,
-4,
-5,
-3,
-3,
-4,
-3,
-5,
-4,
-4,
-4,
-4,
-3,
-5,
-3,
-5,
-5,
-5,
-5,
-4,
-3,
-5,
-3,
-5,
-4,
-5,
-5,
-3,
-3,
-4,
-3,
-5,
-4,
-4,
-5,
-4,
-3,
-5,
-3,
-5,
-4,
-4,
-4,
-4,
-4,
-5,
-3,
-4,
-4,
-5,
-5,
-3,
-3,
-4,
-3,
-5,
-4,
-4,
-5,
-4,
-3,
-4,
-3,
-4,
-4,
-4,
-5,
-3,
-3,
-4,
-3,
-4,
-4,
-5,
-5,
-4,
-3,
-4,
-3,
-5,
-5,
-4,
-5,
-3,
-3,
-5,
-3,
-4,
-4,
-4,
-4,
-3,
-3,
-4,
-3,
-5,
-4,
-5,
-5,
-4,
-3,
-4,
-3,
-4,
-4,
-5,
-5,
-3,
-3,
-5,
-3,
-4,
-4,
-4,
-4,
-4,
-3,
-4,
-3,
-4,
-4,
-4,
-5,
-3,
-3,
-5,
-3,
-5,
-4,
-4,
-5,
-4,
-3,
-4,
-3,
-5,
-4,
-4,
-5,
-3,
-3,
-4,
-3,
-4,
-4,
-4,
-4,
-3,
-3,
-4,
-4,
-5,
-4,
-4,
-5,
-3,
-3,
-5,
-3,
-5,
-5,
-5,
-5,
-3,
-3,
-4,
-3,
-5,
-4,
-4,
-5,
-4,
-3,
-4,
-3,
-5,
-5,
-5,
-5,
-4,
-3,
-4,
-3,
-4,
-4,
-5,
-5,
-4,
-3,
-4,
-3,
-5,
-5,
-4,
-4,
-3,
-3,
-5,
-3,
-5,
-5,
-5,
-5,
-4,
-3,
-5,
-3,
-5,
-4,
-4,
-5,
-3,
-3,
-5,
-3,
-5,
-4,
-4,
-4,
-4,
-3,
-5,
-3,
-5,
-4,
-5,
-5,
-4,
-4,
-5,
-5,
-5,
-5,
-5,
-5,
-4,
-3,
-4,
-3,
-5,
-5,
-4,
-5,
-4,
-3,
-4,
-3,
-4,
-4,
-5,
-5,
-3,
-3,
-5,
-3,
-5,
-4,
-4,
-4,
-4,
-4,
-5,
-3,
-5,
-5,
-5,
-5,
-3,
-3,
-5,
-4,
-5,
-4,
-5,
-5,
-4,
-3,
-4,
-3,
-5,
-4,
-4,
-5,
-3,
-3,
-4,
-3,
-4,
-4,
-5,
-5,
-4,
-3,
-5,
-4,
-5,
-5,
-5,
-6,
-4,
-3,
-4,
-3,
-4,
-4,
-4,
-4,
-3,
-3,
-5,
-3,
-5,
-4,
-5,
-5,
-3,
-3,
-4,
-3,
-5,
-4,
-4,
-5,
-4,
-3,
-4,
-3,
-5,
-4,
-4,
-4,
-3,
-3,
-4,
-3,
-5,
-4,
-5,
-5,
-3,
-3,
-4,
-3,
-4,
-4,
-5,
-5,
-4,
-3,
-4,
-3,
-4,
-4,
-4,
-4,
-3,
-3,
-5,
-3,
-5,
-4,
-4,
-5,
-4,
-3,
-4,
-3,
-4,
-4,
-4,
-4,
-3,
-3,
-4,
-3,
-5,
-4,
-5,
-5,
-3,
-3,
-4,
-3,
-4,
-4,
-4,
-4,
-4,
-3,
-4,
-3,
-4,
-4,
-4,
-4,
-4,
-3,
-5,
-3,
-5,
-4,
-4,
-5,
-3,
-3,
-5,
-4,
-5,
-4,
-5,
-5,
-4,
-3,
-5,
-3,
-5,
-4,
-4,
-4,
-3,
-3,
-4,
-3,
-4,
-4,
-4,
-5,
-4,
-3,
-5,
-3,
-5,
-4,
-5,
-6,
-4,
-3,
-4,
-3,
-4,
-4,
-4,
-4,
-3,
-3,
-5,
-3,
-5,
-4,
-4,
-4,
-3,
-3,
-5,
-4,
-4,
-4,
-5,
-5,
-4,
-3,
-5,
-3,
-5,
-5,
-5,
-5,
-4,
-3,
-4,
-3,
-5,
-4,
-5,
-5,
-3,
-3,
-5,
-3,
-4,
-4,
-5,
-5,
-4,
-3,
-4,
-3,
-5,
-4,
-5,
-5,
-3,
-3,
-4,
-3,
-5,
-5,
-5,
-5,
-4,
-3,
-4,
-3,
-5,
-4,
-4,
-5,
-4,
-3,
-4,
-3,
-4,
-4,
-5,
-5,
-3,
-3,
-4,
-3,
-5,
-4,
-4,
-5,
-4,
-3,
-5,
-3,
-4,
-4,
-4,
-5,
-4,
-3,
-4,
-3,
-5,
-4,
-4,
-5,
-3,
-3,
-4,
-3,
-4,
-4,
-4,
-4,
-3,
-3,
-4,
-3,
-4,
-5,
-5,
-5,
-4,
-3,
-4,
-3,
-5,
-4,
-5,
-5,
-3,
-3,
-5,
-3,
-5,
-4,
-4,
-4,
-3,
-3,
-4,
-3,
-4,
-4,
-5,
-5,
-3,
-3,
-5,
-3,
-4,
-4,
-4,
-5,
-4,
-3,
-4,
-3,
-4,
-4,
-4,
-4,
-3,
-3,
-5,
-3,
-5,
-5,
-5,
-5,
-3,
-3,
-4,
-3,
-5,
-5,
-5,
-5,
-3,
-3,
-4,
-3,
-5,
-4,
-4,
-4,
-3,
-3,
-4,
-3,
-5,
-4,
-4,
-4,
-3,
-3,
-4,
-3,
-4,
-4,
-4,
-4,
-4,
-3,
-5,
-4,
-5,
-4,
-4,
-4,
-3,
-3,
-5,
-3,
-5,
-4,
-4,
-5,
-4,
-4,
-5,
-4,
-5,
-5,
-5,
-6,
-4,
-3,
-5,
-3,
-5,
-5,
-4,
-5,
-3,
-3,
-4,
-3,
-5,
-4,
-4,
-5,
-4,
-3,
-4,
-3,
-4,
-4,
-4,
-4,
-3,
-3,
-4,
-3,
-5,
-4,
-4,
-4,
-3,
-3,
-4,
-3,
-5,
-4,
-5,
-5,
-3,
-2,
-4,
-3,
-4,
